2.3529411764705883,2.3529411764705883,2.3529411764705883,3.5294117647058822,3.5294117647058822,3.5294117647058822,3.5294117647058822,3.5294117647058822,3.5294117647058822,3.5294117647058822,3.5294117647058822,3.5294117647058822,3.5294117647058822,3.5294117647058822,3.5294117647058822
2.3529411764705883,2.3529411764705883,2.3529411764705883,2.3529411764705883,3.5294117647058822,4.705882352941177,4.705882352941177,5.88235294117647,5.88235294117647,3.5294117647058822,4.705882352941177,5.88235294117647,5.88235294117647,7.0588235294117645,8.235294117647058
4.705882352941177,20.0,25.882352941176475,32.94117647058823,42.35294117647059,52.94117647058824,61.1764705882353,62.35294117647059,68.23529411764706,70.58823529411765,74.11764705882354,77.64705882352942,78.82352941176471,82.35294117647058,85.88235294117646
47.05882352941176,76.47058823529412,95.29411764705881,98.82352941176471,100.0,100.0,100.0,100.0,100.0,100.0,100.0,100.0,100.0,100.0,100.0
58.82352941176471,90.58823529411765,98.82352941176471,100.0,100.0,100.0,100.0,100.0,100.0,100.0,100.0,100.0,100.0,100.0,100.0
0.0,1.1764705882352942,1.1764705882352942,0.0,0.0,0.0,0.0,0.0,0.0,0.0,0.0,0.0,0.0,0.0,0.0
12.941176470588237,22.35294117647059,37.64705882352941,45.88235294117647,50.588235294117645,58.82352941176471,68.23529411764706,75.29411764705883,72.94117647058823,80.0,81.17647058823529,85.88235294117646,85.88235294117646,90.58823529411765,91.76470588235294
1.1764705882352942,1.1764705882352942,1.1764705882352942,1.1764705882352942,0.0,0.0,0.0,0.0,0.0,0.0,0.0,0.0,0.0,0.0,0.0
7.0588235294117645,14.117647058823529,22.35294117647059,31.76470588235294,36.470588235294116,40.0,44.70588235294118,49.411764705882355,50.588235294117645,56.470588235294116,57.647058823529406,61.1764705882353,64.70588235294117,64.70588235294117,64.70588235294117
11.76470588235294,15.294117647058824,17.647058823529413,23.52941176470588,32.94117647058823,36.470588235294116,38.82352941176471,48.23529411764706,47.05882352941176,48.23529411764706,52.94117647058824,60.0,61.1764705882353,62.35294117647059,63.52941176470588
