==== Start Subject: 0
==== Start classifier: GradientBoostingClassifier_0.1
-- Repetition: 1
---Constructed labels: __________8__________________R_____X___________________________________________7_____
---True labels       : EAEVQTDOJG8RBRGONCEDHCTUIDBPUHMEM6OUXOCFOUKWA4VJEFRZROLHYNQDW_EKTLBWXEPOUIKZERYOOTHQI
---Accuracy: 2.4%
-- Repetition: 2
---Constructed labels: __________8__________________R_____X___________________________________________7_____
---True labels       : EAEVQTDOJG8RBRGONCEDHCTUIDBPUHMEM6OUXOCFOUKWA4VJEFRZROLHYNQDW_EKTLBWXEPOUIKZERYOOTHQI
---Accuracy: 2.4%
-- Repetition: 3
---Constructed labels: _________L8__________________R_____X____7______________________________________7_____
---True labels       : EAEVQTDOJG8RBRGONCEDHCTUIDBPUHMEM6OUXOCFOUKWA4VJEFRZROLHYNQDW_EKTLBWXEPOUIKZERYOOTHQI
---Accuracy: 2.4%
-- Repetition: 4
---Constructed labels: _________L8__________________R_____X____7_____________________F________________7_____
---True labels       : EAEVQTDOJG8RBRGONCEDHCTUIDBPUHMEM6OUXOCFOUKWA4VJEFRZROLHYNQDW_EKTLBWXEPOUIKZERYOOTHQI
---Accuracy: 2.4%
-- Repetition: 5
---Constructed labels: _________L8__________________R_____X____7___F____________6____F___________96___7_____
---True labels       : EAEVQTDOJG8RBRGONCEDHCTUIDBPUHMEM6OUXOCFOUKWA4VJEFRZROLHYNQDW_EKTLBWXEPOUIKZERYOOTHQI
---Accuracy: 2.4%
-- Repetition: 6
---Constructed labels: _________L8__________________R_____X____OR__F____________6____F___________96___7_____
---True labels       : EAEVQTDOJG8RBRGONCEDHCTUIDBPUHMEM6OUXOCFOUKWA4VJEFRZROLHYNQDW_EKTLBWXEPOUIKZERYOOTHQI
---Accuracy: 3.5%
-- Repetition: 7
---Constructed labels: _________L8__________________R_____X____OR__F____________6____F___________96___7_____
---True labels       : EAEVQTDOJG8RBRGONCEDHCTUIDBPUHMEM6OUXOCFOUKWA4VJEFRZROLHYNQDW_EKTLBWXEPOUIKZERYOOTHQI
---Accuracy: 3.5%
-- Repetition: 8
---Constructed labels: _________L8______________F___R_____X____OR__F____________6R___E___________96___7_____
---True labels       : EAEVQTDOJG8RBRGONCEDHCTUIDBPUHMEM6OUXOCFOUKWA4VJEFRZROLHYNQDW_EKTLBWXEPOUIKZERYOOTHQI
---Accuracy: 4.7%
-- Repetition: 9
---Constructed labels: _________L8______________F___R_____X_7__OR__F____________6R___E___________96___7_____
---True labels       : EAEVQTDOJG8RBRGONCEDHCTUIDBPUHMEM6OUXOCFOUKWA4VJEFRZROLHYNQDW_EKTLBWXEPOUIKZERYOOTHQI
---Accuracy: 4.7%
-- Repetition: 10
---Constructed labels: _________L8______________F___R_____X_7__OR__F__8_________6R___E____9______96___7_____
---True labels       : EAEVQTDOJG8RBRGONCEDHCTUIDBPUHMEM6OUXOCFOUKWA4VJEFRZROLHYNQDW_EKTLBWXEPOUIKZERYOOTHQI
---Accuracy: 4.7%
-- Repetition: 11
---Constructed labels: _________L8______________F___R_____X_7__OR__F__8_________6R___E____9______96___7_____
---True labels       : EAEVQTDOJG8RBRGONCEDHCTUIDBPUHMEM6OUXOCFOUKWA4VJEFRZROLHYNQDW_EKTLBWXEPOUIKZERYOOTHQI
---Accuracy: 4.7%
-- Repetition: 12
---Constructed labels: ____9____L8______________F___R_____X_7__OR__F__8_________6R___E____9______96___7_____
---True labels       : EAEVQTDOJG8RBRGONCEDHCTUIDBPUHMEM6OUXOCFOUKWA4VJEFRZROLHYNQDW_EKTLBWXEPOUIKZERYOOTHQI
---Accuracy: 4.7%
-- Repetition: 13
---Constructed labels: ____9_5__L8______________F___R_____X_7__OR__F__8_________6R___E____9______96__47_____
---True labels       : EAEVQTDOJG8RBRGONCEDHCTUIDBPUHMEM6OUXOCFOUKWA4VJEFRZROLHYNQDW_EKTLBWXEPOUIKZERYOOTHQI
---Accuracy: 4.7%
-- Repetition: 14
---Constructed labels: ____9_5__L8_F____________F___R_____X_7__OR__F__8_________6R___E____9______96__47_____
---True labels       : EAEVQTDOJG8RBRGONCEDHCTUIDBPUHMEM6OUXOCFOUKWA4VJEFRZROLHYNQDW_EKTLBWXEPOUIKZERYOOTHQI
---Accuracy: 4.7%
-- Repetition: 15
---Constructed labels: ____9_5__L8_F____________F___R_____X_7__OR__F__8_________TR___E____9______96__47_____
---True labels       : EAEVQTDOJG8RBRGONCEDHCTUIDBPUHMEM6OUXOCFOUKWA4VJEFRZROLHYNQDW_EKTLBWXEPOUIKZERYOOTHQI
---Accuracy: 4.7%
==== End classifier: GradientBoostingClassifier_0.1
==== Start classifier: AdaBoostClassifier
-- Repetition: 1
---Constructed labels: __________8___4__________8_________X______________X_____________X______________7_____
---True labels       : EAEVQTDOJG8RBRGONCEDHCTUIDBPUHMEM6OUXOCFOUKWA4VJEFRZROLHYNQDW_EKTLBWXEPOUIKZERYOOTHQI
---Accuracy: 2.4%
-- Repetition: 2
---Constructed labels: ______F___8___4RR________8FR_______X______________X_____________X____8____F___X7__6__
---True labels       : EAEVQTDOJG8RBRGONCEDHCTUIDBPUHMEM6OUXOCFOUKWA4VJEFRZROLHYNQDW_EKTLBWXEPOUIKZERYOOTHQI
---Accuracy: 2.4%
-- Repetition: 3
---Constructed labels: ______F_6L8___4RR________8FR_______X______________X_____________X___99___5F___X7__6__
---True labels       : EAEVQTDOJG8RBRGONCEDHCTUIDBPUHMEM6OUXOCFOUKWA4VJEFRZROLHYNQDW_EKTLBWXEPOUIKZERYOOTHQI
---Accuracy: 2.4%
-- Repetition: 4
---Constructed labels: ______F_6L8___4RR________2FR_______X__________X___X____L___9____X___99_R_5F___X7__6L8
---True labels       : EAEVQTDOJG8RBRGONCEDHCTUIDBPUHMEM6OUXOCFOUKWA4VJEFRZROLHYNQDW_EKTLBWXEPOUIKZERYOOTHQI
---Accuracy: 2.4%
-- Repetition: 5
---Constructed labels: ______F_6L89_L4RR________2FR_______X_________9X___X____X___9____X___E9_R_5F6__X7__6L8
---True labels       : EAEVQTDOJG8RBRGONCEDHCTUIDBPUHMEM6OUXOCFOUKWA4VJEFRZROLHYNQDW_EKTLBWXEPOUIKZERYOOTHQI
---Accuracy: 2.4%
-- Repetition: 6
---Constructed labels: ______F_6L89_L4RR____F___2FP_______X____RR___9XL_EX____X4__9____X___E9_R45F6__X7__6LJ
---True labels       : EAEVQTDOJG8RBRGONCEDHCTUIDBPUHMEM6OUXOCFOUKWA4VJEFRZROLHYNQDW_EKTLBWXEPOUIKZERYOOTHQI
---Accuracy: 3.5%
-- Repetition: 7
---Constructed labels: ______F_HL89_G4RR____F___2FP____6__X____RR___9XL_EU____L4__9____X___F9_R45F6__X7__BLJ
---True labels       : EAEVQTDOJG8RBRGONCEDHCTUIDBPUHMEM6OUXOCFOUKWA4VJEFRZROLHYNQDW_EKTLBWXEPOUIKZERYOOTHQI
---Accuracy: 3.5%
-- Repetition: 8
---Constructed labels: ______F_HL89_G4RR____F__72FPL___6_9W____RRLX_9XL_EU____L4_R9__9_X___FERR45F6__X7__BLJ
---True labels       : EAEVQTDOJG8RBRGONCEDHCTUIDBPUHMEM6OUXOCFOUKWA4VJEFRZROLHYNQDW_EKTLBWXEPOUIKZERYOOTHQI
---Accuracy: 4.7%
-- Repetition: 9
---Constructed labels: ______F_HL99_G4RR____F__72FPL___6_9W_7__RRLX99XLFEU____L4_R9__9_X___FDRR45F6__T7__HLJ
---True labels       : EAEVQTDOJG8RBRGONCEDHCTUIDBPUHMEM6OUXOCFOUKWA4VJEFRZROLHYNQDW_EKTLBWXEPOUIKZERYOOTHQI
---Accuracy: 3.5%
-- Repetition: 10
---Constructed labels: ______F9HL99_G4RP__F_F_672FPL___9_9W_7__RRLX99XIEEU____G4_R9__Q_X_6_FDRR15F6__T7__HLJ
---True labels       : EAEVQTDOJG8RBRGONCEDHCTUIDBPUHMEM6OUXOCFOUKWA4VJEFRZROLHYNQDW_EKTLBWXEPOUIKZERYOOTHQI
---Accuracy: 4.7%
-- Repetition: 11
---Constructed labels: ______F9HL89_G4RP7_F_C_672FPL___9_9W47__RRLX99XIEEU____G4_R9__M_XL8_FDRR15FN__T7__HLJ
---True labels       : EAEVQTDOJG8RBRGONCEDHCTUIDBPUHMEM6OUXOCFOUKWA4VJEFRZROLHYNQDW_EKTLBWXEPOUIKZERYOOTHQI
---Accuracy: 8.2%
-- Repetition: 12
---Constructed labels: ______FRLL89FG4OP7_D_C_672FPG6__9_9W47__RRLX99XIEEU6_5_GZ_R9__M_XL8_FDRR15FN__T7__HLJ
---True labels       : EAEVQTDOJG8RBRGONCEDHCTUIDBPUHMEM6OUXOCFOUKWA4VJEFRZROLHYNQDW_EKTLBWXEPOUIKZERYOOTHQI
---Accuracy: 10.6%
-- Repetition: 13
---Constructed labels: ______ARLL89FG4OP7_D_C_672FPG6__9_9W47__RRLX99XIEEU6_5_GZ_R_F_M_XL8_XDQR15FN__T8__HLJ
---True labels       : EAEVQTDOJG8RBRGONCEDHCTUIDBPUHMEM6OUXOCFOUKWA4VJEFRZROLHYNQDW_EKTLBWXEPOUIKZERYOOTHQI
---Accuracy: 11.8%
-- Repetition: 14
---Constructed labels: _7____ARLL89FG4OP79D_C_672FPG6__Q_9W47__RXLX99VIEFU6_5LGZ_R_F_M8XL8_XDQR15FN__T8__HRJ
---True labels       : EAEVQTDOJG8RBRGONCEDHCTUIDBPUHMEM6OUXOCFOUKWA4VJEFRZROLHYNQDW_EKTLBWXEPOUIKZERYOOTHQI
---Accuracy: 15.3%
-- Repetition: 15
---Constructed labels: L7_X__ARRL89FG4OP79D_C_672FPMH__Q_QU47__RXLX99VIEFX6_5LGZXR_F_M8XL8XXDQR15FN__T8__HRJ
---True labels       : EAEVQTDOJG8RBRGONCEDHCTUIDBPUHMEM6OUXOCFOUKWA4VJEFRZROLHYNQDW_EKTLBWXEPOUIKZERYOOTHQI
---Accuracy: 17.6%
==== End classifier: AdaBoostClassifier
==== Start classifier: KNeighborsClassifier
-- Repetition: 1
---Constructed labels: __E8__LR__8_F6H__7__L_XX9R68___9__7WX_74F__RL_6___8__1_J_X9F__F96_FLX9R_624_9__RR7X_L
---True labels       : EAEVQTDOJG8RBRGONCEDHCTUIDBPUHMEM6OUXOCFOUKWA4VJEFRZROLHYNQDW_EKTLBWXEPOUIKZERYOOTHQI
---Accuracy: 5.9%
-- Repetition: 2
---Constructed labels: _538X_LR_98_CQHRR8__L__X9RB8X8_Q5_OWX774F_LXK_6X898_R1_8_X9F9_EWTLFIX9OR623_ER_RNUTRL
---True labels       : EAEVQTDOJG8RBRGONCEDHCTUIDBPUHMEM6OUXOCFOUKWA4VJEFRZROLHYNQDW_EKTLBWXEPOUIKZERYOOTHQI
---Accuracy: 14.1%
-- Repetition: 3
---Constructed labels: 4538X_LR_98_CQHON2_RL__X9_B8X8FQX4OWX7I4F_HTK46V8983X4_8XX7F9_E9TLBWXEOO723_ER_ROUZRL
---True labels       : EAEVQTDOJG8RBRGONCEDHCTUIDBPUHMEM6OUXOCFOUKWA4VJEFRZROLHYNQDW_EKTLBWXEPOUIKZERYOOTHQI
---Accuracy: 22.4%
-- Repetition: 4
---Constructed labels: F_38XXJO_98_CRGOB1_4L__X97N8X8G3S4PWX_C4R6HWK46V99_341_8SX339_EKTLBWXEOO7IZ6E__ROTZRK
---True labels       : EAEVQTDOJG8RBRGONCEDHCTUIDBPUHMEM6OUXOCFOUKWA4VJEFRZROLHYNQDW_EKTLBWXEPOUIKZERYOOTHQI
---Accuracy: 27.1%
-- Repetition: 5
---Constructed labels: F_38W_DOR98_CRGOB294LF_X97Z8X8K3S4PWXXC4NTHWK46V84_341_8WT339_WKTLBWXEPOIIK6E__ORTZQK
---True labels       : EAEVQTDOJG8RBRGONCEDHCTUIDBPUHMEM6OUXOCFOUKWA4VJEFRZROLHYNQDW_EKTLBWXEPOUIKZERYOOTHQI
---Accuracy: 30.6%
-- Repetition: 6
---Constructed labels: F_E8W_DORK8_CRGOB294LF8X9CZ8X8K3S_P3XXC4NWHWK46VD3_941_6WT339_WKTLEWXEPRIIK6ER4ORTZQK
---True labels       : EAEVQTDOJG8RBRGONCEDHCTUIDBPUHMEM6OUXOCFOUKWA4VJEFRZROLHYNQDW_EKTLBWXEPOUIKZERYOOTHQI
---Accuracy: 30.6%
-- Repetition: 7
---Constructed labels: F_EVW_DORK8_BRGOB292HF8T7CZ8U8QES6O9XWC4OWHWK48VD3_94O_HWT328_WKTLEUXEPRIIKZER4ORTZQK
---True labels       : EAEVQTDOJG8RBRGONCEDHCTUIDBPUHMEM6OUXOCFOUKWA4VJEFRZROLHYNQDW_EKTLBWXEPOUIKZERYOOTHQI
---Accuracy: 42.4%
-- Repetition: 8
---Constructed labels: F_EVWXDORK8_BRGOBD92LC8T7CZPU8QEM6O9XWC4PWJWK48VD3_9RO_T3NQ28_EKTL3UXEPRIIKZER4OOTZQK
---True labels       : EAEVQTDOJG8RBRGONCEDHCTUIDBPUHMEM6OUXOCFOUKWA4VJEFRZROLHYNQDW_EKTLBWXEPOUIKZERYOOTHQI
---Accuracy: 48.2%
-- Repetition: 9
---Constructed labels: F_EVWXDORK8_BRGOBD82LC8T7CNPUJ9EM6O9XWC4OWKWK48VD3_QROLT3NQD8_EKTLZUXEPOTIKZER4OOTZQK
---True labels       : EAEVQTDOJG8RBRGONCEDHCTUIDBPUHMEM6OUXOCFOUKWA4VJEFRZROLHYNQDW_EKTLBWXEPOUIKZERYOOTHQI
---Accuracy: 54.1%
-- Repetition: 10
---Constructed labels: F_EVWXDOPK8_CRGOBDE2LC8T7CNVVJ9EM6O9XWC4OWKWE48VE3_QROLH3NQD8_EKTLZWXEPOUIKZER4OOTZQK
---True labels       : EAEVQTDOJG8RBRGONCEDHCTUIDBPUHMEM6OUXOCFOUKWA4VJEFRZROLHYNQDW_EKTLBWXEPOUIKZERYOOTHQI
---Accuracy: 56.5%
-- Repetition: 11
---Constructed labels: FFEVWXDOPK8_FRGONDEDHC8T7CBXUJ9EM6O9XOC4OWKWE48VE3RQROLHYNQD8LEKTLZWXEPOTIKZER4OOTZRK
---True labels       : EAEVQTDOJG8RBRGONCEDHCTUIDBPUHMEM6OUXOCFOUKWA4VJEFRZROLHYNQDW_EKTLBWXEPOUIKZERYOOTHQI
---Accuracy: 62.4%
-- Repetition: 12
---Constructed labels: FFEVWXDOPG8_FRGONDEDHC8T7CBXUJ5EM6O9XOC4OXKWE48VD4RQ4OLHYNQ28LEKTLZWXEPOTIKZER4OOTZNK
---True labels       : EAEVQTDOJG8RBRGONCEDHCTUIDBPUHMEM6OUXOCFOUKWA4VJEFRZROLHYNQDW_EKTLBWXEPOUIKZERYOOTHQI
---Accuracy: 60.0%
-- Repetition: 13
---Constructed labels: FFEVWXDOPG8_FRGONDEDHC8U7CBXUJ5EM6O9XOC_OXKWE46VD4RZ4OLHYNQ28LEKTLZWXEPOTIKZER4OOTZNK
---True labels       : EAEVQTDOJG8RBRGONCEDHCTUIDBPUHMEM6OUXOCFOUKWA4VJEFRZROLHYNQDW_EKTLBWXEPOUIKZERYOOTHQI
---Accuracy: 62.4%
-- Repetition: 14
---Constructed labels: BFEVWXDOPG8_ARGONCEDHCXU7CBRUIA9M6O9XOC_OUKWE46VD4RZROLHYNQ28LEKTLZWXEPOTIKZER4OOTZNK
---True labels       : EAEVQTDOJG8RBRGONCEDHCTUIDBPUHMEM6OUXOCFOUKWA4VJEFRZROLHYNQDW_EKTLBWXEPOUIKZERYOOTHQI
---Accuracy: 64.7%
-- Repetition: 15
---Constructed labels: BA3VWTDOPI8_ARGONCEDHCXU7CBRUIM9M6O9XOC_OUKWE46VD4RZROLHYNQ29LEKTLZWXEPOTIKZER4ROTZNK
---True labels       : EAEVQTDOJG8RBRGONCEDHCTUIDBPUHMEM6OUXOCFOUKWA4VJEFRZROLHYNQDW_EKTLBWXEPOUIKZERYOOTHQI
---Accuracy: 64.7%
==== End classifier: KNeighborsClassifier
==== Start classifier: DecisionTreeClassifier
-- Repetition: 1
---Constructed labels: E_EV_4IO8K8SER_R679DHFXUQDK88HME677UXM7_R7QSA4V8FRR4R7LJYN9F9_3KXRFVXERO7IK6W41OOVH9I
---True labels       : EAEVQTDOJG8RBRGONCEDHCTUIDBPUHMEM6OUXOCFOUKWA4VJEFRZROLHYNQDW_EKTLBWXEPOUIKZERYOOTHQI
---Accuracy: 40.0%
-- Repetition: 2
---Constructed labels: EAEVR2JO8K8XBR8ON_9DHFXUQDHVVHME791UTOCFR7QSA4V8FFRZROLHY6QDW_EKWLFVXEROUIK6E417QVH9I
---True labels       : EAEVQTDOJG8RBRGONCEDHCTUIDBPUHMEM6OUXOCFOUKWA4VJEFRZROLHYNQDW_EKTLBWXEPOUIKZERYOOTHQI
---Accuracy: 56.5%
-- Repetition: 3
---Constructed labels: EAEVRTJO8G8RERJONC_DHCTU9DBJUHQE56OUTOCFO7KSA4V8EFR4ROLHY6QD9_EKTLBVXEROUIK6ER17OVHQI
---True labels       : EAEVQTDOJG8RBRGONCEDHCTUIDBPUHMEM6OUXOCFOUKWA4VJEFRZROLHYNQDW_EKTLBWXEPOUIKZERYOOTHQI
---Accuracy: 72.9%
-- Repetition: 4
---Constructed labels: EAEVRTDO8G8RERJONC9DHCTU9DHJUHMEM6OUTOCFOUKWA4V8EFRZROLHYNQDW_EKTLBWXEPOUIKZER17OTHQI
---True labels       : EAEVQTDOJG8RBRGONCEDHCTUIDBPUHMEM6OUXOCFOUKWA4VJEFRZROLHYNQDW_EKTLBWXEPOUIKZERYOOTHQI
---Accuracy: 85.9%
-- Repetition: 5
---Constructed labels: EAEVQTDOJG8RERGONC9DHCTUIDBPUHMEO6OUXOCFOUKWA4V8EFRZROLHYNQDW_EKTLBWXEPOUIKZERY7OTHQI
---True labels       : EAEVQTDOJG8RBRGONCEDHCTUIDBPUHMEM6OUXOCFOUKWA4VJEFRZROLHYNQDW_EKTLBWXEPOUIKZERYOOTHQI
---Accuracy: 94.1%
-- Repetition: 6
---Constructed labels: EAEVQTDOJG8RERGONCEDHCTUIDBPUHMEM6OUXOFFOUKWA4VJEFRZROLHYNQDW_EKTLBWXEPOUIKZERY7OTHQI
---True labels       : EAEVQTDOJG8RBRGONCEDHCTUIDBPUHMEM6OUXOCFOUKWA4VJEFRZROLHYNQDW_EKTLBWXEPOUIKZERYOOTHQI
---Accuracy: 96.5%
-- Repetition: 7
---Constructed labels: EAEVQTDOJG8RBRGONCEDHCTUIDBPUHMEM6OUXOCFOUKWA4VJEFRZROLHYNQDW_EKTLBWXEPOUIKZERYOOTHQI
---True labels       : EAEVQTDOJG8RBRGONCEDHCTUIDBPUHMEM6OUXOCFOUKWA4VJEFRZROLHYNQDW_EKTLBWXEPOUIKZERYOOTHQI
---Accuracy: 100.0%
-- Repetition: 8
---Constructed labels: EAEVQTDOJG8RBRGONCEDHCTUIDBPUHMEM6OUXOCFOUKWA4VJEFRZROLHYNQDW_EKTLBWXEPOUIKZERYOOTHQI
---True labels       : EAEVQTDOJG8RBRGONCEDHCTUIDBPUHMEM6OUXOCFOUKWA4VJEFRZROLHYNQDW_EKTLBWXEPOUIKZERYOOTHQI
---Accuracy: 100.0%
-- Repetition: 9
---Constructed labels: EAEVQTDOJG8RBRGONCEDHCTUIDBPUHMEM6OUXOCFOUKWA4VJEFRZROLHYNQDW_EKTLBWXEPOUIKZERYOOTHQI
---True labels       : EAEVQTDOJG8RBRGONCEDHCTUIDBPUHMEM6OUXOCFOUKWA4VJEFRZROLHYNQDW_EKTLBWXEPOUIKZERYOOTHQI
---Accuracy: 100.0%
-- Repetition: 10
---Constructed labels: EAEVQTDOJG8RBRGONCEDHCTUIDBPUHMEM6OUXOCFOUKWA4VJEFRZROLHYNQDW_EKTLBWXEPOUIKZERYOOTHQI
---True labels       : EAEVQTDOJG8RBRGONCEDHCTUIDBPUHMEM6OUXOCFOUKWA4VJEFRZROLHYNQDW_EKTLBWXEPOUIKZERYOOTHQI
---Accuracy: 100.0%
-- Repetition: 11
---Constructed labels: EAEVQTDOJG8RBRGONCEDHCTUIDBPUHMEM6OUXOCFOUKWA4VJEFRZROLHYNQDW_EKTLBWXEPOUIKZERYOOTHQI
---True labels       : EAEVQTDOJG8RBRGONCEDHCTUIDBPUHMEM6OUXOCFOUKWA4VJEFRZROLHYNQDW_EKTLBWXEPOUIKZERYOOTHQI
---Accuracy: 100.0%
-- Repetition: 12
---Constructed labels: EAEVQTDOJG8RBRGONCEDHCTUIDBPUHMEM6OUXOCFOUKWA4VJEFRZROLHYNQDW_EKTLBWXEPOUIKZERYOOTHQI
---True labels       : EAEVQTDOJG8RBRGONCEDHCTUIDBPUHMEM6OUXOCFOUKWA4VJEFRZROLHYNQDW_EKTLBWXEPOUIKZERYOOTHQI
---Accuracy: 100.0%
-- Repetition: 13
---Constructed labels: EAEVQTDOJG8RBRGONCEDHCTUIDBPUHMEM6OUXOCFOUKWA4VJEFRZROLHYNQDW_EKTLBWXEPOUIKZERYOOTHQI
---True labels       : EAEVQTDOJG8RBRGONCEDHCTUIDBPUHMEM6OUXOCFOUKWA4VJEFRZROLHYNQDW_EKTLBWXEPOUIKZERYOOTHQI
---Accuracy: 100.0%
-- Repetition: 14
---Constructed labels: EAEVQTDOJG8RBRGONCEDHCTUIDBPUHMEM6OUXOCFOUKWA4VJEFRZROLHYNQDW_EKTLBWXEPOUIKZERYOOTHQI
---True labels       : EAEVQTDOJG8RBRGONCEDHCTUIDBPUHMEM6OUXOCFOUKWA4VJEFRZROLHYNQDW_EKTLBWXEPOUIKZERYOOTHQI
---Accuracy: 100.0%
-- Repetition: 15
---Constructed labels: EAEVQTDOJG8RBRGONCEDHCTUIDBPUHMEM6OUXOCFOUKWA4VJEFRZROLHYNQDW_EKTLBWXEPOUIKZERYOOTHQI
---True labels       : EAEVQTDOJG8RBRGONCEDHCTUIDBPUHMEM6OUXOCFOUKWA4VJEFRZROLHYNQDW_EKTLBWXEPOUIKZERYOOTHQI
---Accuracy: 100.0%
==== End classifier: DecisionTreeClassifier
==== Start classifier: RandomForestClassifier
-- Repetition: 1
---Constructed labels: E_EV__FO8L8_BR_R679FHFXUL_687LME__7UXR7_RUKX54X8FFR4R7LHYN9F9_EKXLFXXERO7IK69_YOOXH_I
---True labels       : EAEVQTDOJG8RBRGONCEDHCTUIDBPUHMEM6OUXOCFOUKWA4VJEFRZROLHYNQDW_EKTLBWXEPOUIKZERYOOTHQI
---Accuracy: 43.5%
-- Repetition: 2
---Constructed labels: EAEV_TFOJG8RBR_ON79DHFXUL8B8UHME56OUXOC_RUKWA4V8FFRZROLHYNQDW_EKTLFXXEPOUIK6ERYOOTH9I
---True labels       : EAEVQTDOJG8RBRGONCEDHCTUIDBPUHMEM6OUXOCFOUKWA4VJEFRZROLHYNQDW_EKTLBWXEPOUIKZERYOOTHQI
---Accuracy: 77.6%
-- Repetition: 3
---Constructed labels: EAEVRTDOJG8RBRLONC9DHCTULDB8UHME56OUXOCFOUKWA4V8EFRZROLHYNQDW_EKTLBWXEPOUIK6ERYOOTHQI
---True labels       : EAEVQTDOJG8RBRGONCEDHCTUIDBPUHMEM6OUXOCFOUKWA4VJEFRZROLHYNQDW_EKTLBWXEPOUIKZERYOOTHQI
---Accuracy: 90.6%
-- Repetition: 4
---Constructed labels: EAEVRTDOJG8RBRGONC9DHCTUIDBPUHMEM6OUXOCFOUKWA4V8EFRZROLHYNQDW_EKTLBWXEPOUIKZERYOOTHQI
---True labels       : EAEVQTDOJG8RBRGONCEDHCTUIDBPUHMEM6OUXOCFOUKWA4VJEFRZROLHYNQDW_EKTLBWXEPOUIKZERYOOTHQI
---Accuracy: 96.5%
-- Repetition: 5
---Constructed labels: EAEVQTDOJG8RBRGONCEDHCTUIDBPUHMEM6OUXOCFOUKWA4VJEFRZROLHYNQDW_EKTLBWXEPOUIKZERYOOTHQI
---True labels       : EAEVQTDOJG8RBRGONCEDHCTUIDBPUHMEM6OUXOCFOUKWA4VJEFRZROLHYNQDW_EKTLBWXEPOUIKZERYOOTHQI
---Accuracy: 100.0%
-- Repetition: 6
---Constructed labels: EAEVQTDOJG8RBRGONCEDHCTUIDBPUHMEM6OUXOCFOUKWA4VJEFRZROLHYNQDW_EKTLBWXEPOUIKZERYOOTHQI
---True labels       : EAEVQTDOJG8RBRGONCEDHCTUIDBPUHMEM6OUXOCFOUKWA4VJEFRZROLHYNQDW_EKTLBWXEPOUIKZERYOOTHQI
---Accuracy: 100.0%
-- Repetition: 7
---Constructed labels: EAEVQTDOJG8RBRGONCEDHCTUIDBPUHMEM6OUXOCFOUKWA4VJEFRZROLHYNQDW_EKTLBWXEPOUIKZERYOOTHQI
---True labels       : EAEVQTDOJG8RBRGONCEDHCTUIDBPUHMEM6OUXOCFOUKWA4VJEFRZROLHYNQDW_EKTLBWXEPOUIKZERYOOTHQI
---Accuracy: 100.0%
-- Repetition: 8
---Constructed labels: EAEVQTDOJG8RBRGONCEDHCTUIDBPUHMEM6OUXOCFOUKWA4VJEFRZROLHYNQDW_EKTLBWXEPOUIKZERYOOTHQI
---True labels       : EAEVQTDOJG8RBRGONCEDHCTUIDBPUHMEM6OUXOCFOUKWA4VJEFRZROLHYNQDW_EKTLBWXEPOUIKZERYOOTHQI
---Accuracy: 100.0%
-- Repetition: 9
---Constructed labels: EAEVQTDOJG8RBRGONCEDHCTUIDBPUHMEM6OUXOCFOUKWA4VJEFRZROLHYNQDW_EKTLBWXEPOUIKZERYOOTHQI
---True labels       : EAEVQTDOJG8RBRGONCEDHCTUIDBPUHMEM6OUXOCFOUKWA4VJEFRZROLHYNQDW_EKTLBWXEPOUIKZERYOOTHQI
---Accuracy: 100.0%
-- Repetition: 10
---Constructed labels: EAEVQTDOJG8RBRGONCEDHCTUIDBPUHMEM6OUXOCFOUKWA4VJEFRZROLHYNQDW_EKTLBWXEPOUIKZERYOOTHQI
---True labels       : EAEVQTDOJG8RBRGONCEDHCTUIDBPUHMEM6OUXOCFOUKWA4VJEFRZROLHYNQDW_EKTLBWXEPOUIKZERYOOTHQI
---Accuracy: 100.0%
-- Repetition: 11
---Constructed labels: EAEVQTDOJG8RBRGONCEDHCTUIDBPUHMEM6OUXOCFOUKWA4VJEFRZROLHYNQDW_EKTLBWXEPOUIKZERYOOTHQI
---True labels       : EAEVQTDOJG8RBRGONCEDHCTUIDBPUHMEM6OUXOCFOUKWA4VJEFRZROLHYNQDW_EKTLBWXEPOUIKZERYOOTHQI
---Accuracy: 100.0%
-- Repetition: 12
---Constructed labels: EAEVQTDOJG8RBRGONCEDHCTUIDBPUHMEM6OUXOCFOUKWA4VJEFRZROLHYNQDW_EKTLBWXEPOUIKZERYOOTHQI
---True labels       : EAEVQTDOJG8RBRGONCEDHCTUIDBPUHMEM6OUXOCFOUKWA4VJEFRZROLHYNQDW_EKTLBWXEPOUIKZERYOOTHQI
---Accuracy: 100.0%
-- Repetition: 13
---Constructed labels: EAEVQTDOJG8RBRGONCEDHCTUIDBPUHMEM6OUXOCFOUKWA4VJEFRZROLHYNQDW_EKTLBWXEPOUIKZERYOOTHQI
---True labels       : EAEVQTDOJG8RBRGONCEDHCTUIDBPUHMEM6OUXOCFOUKWA4VJEFRZROLHYNQDW_EKTLBWXEPOUIKZERYOOTHQI
---Accuracy: 100.0%
-- Repetition: 14
---Constructed labels: EAEVQTDOJG8RBRGONCEDHCTUIDBPUHMEM6OUXOCFOUKWA4VJEFRZROLHYNQDW_EKTLBWXEPOUIKZERYOOTHQI
---True labels       : EAEVQTDOJG8RBRGONCEDHCTUIDBPUHMEM6OUXOCFOUKWA4VJEFRZROLHYNQDW_EKTLBWXEPOUIKZERYOOTHQI
---Accuracy: 100.0%
-- Repetition: 15
---Constructed labels: EAEVQTDOJG8RBRGONCEDHCTUIDBPUHMEM6OUXOCFOUKWA4VJEFRZROLHYNQDW_EKTLBWXEPOUIKZERYOOTHQI
---True labels       : EAEVQTDOJG8RBRGONCEDHCTUIDBPUHMEM6OUXOCFOUKWA4VJEFRZROLHYNQDW_EKTLBWXEPOUIKZERYOOTHQI
---Accuracy: 100.0%
==== End classifier: RandomForestClassifier
==== Start classifier: LinearDiscriminantAnalysis_svd_Shrinkage:None
-- Repetition: 1
---Constructed labels: __________V____R_________F___R_____X_________________________9__________7______7_____
---True labels       : EAEVQTDOJG8RBRGONCEDHCTUIDBPUHMEM6OUXOCFOUKWA4VJEFRZROLHYNQDW_EKTLBWXEPOUIKZERYOOTHQI
---Accuracy: 0.0%
-- Repetition: 2
---Constructed labels: __________V____R_________F_7_R_____X_________________________9__________7______7_____
---True labels       : EAEVQTDOJG8RBRGONCEDHCTUIDBPUHMEM6OUXOCFOUKWA4VJEFRZROLHYNQDW_EKTLBWXEPOUIKZERYOOTHQI
---Accuracy: 0.0%
-- Repetition: 3
---Constructed labels: __________V____R_________F_77R____LX___________________5_____9X__L______7______7_____
---True labels       : EAEVQTDOJG8RBRGONCEDHCTUIDBPUHMEM6OUXOCFOUKWA4VJEFRZROLHYNQDW_EKTLBWXEPOUIKZERYOOTHQI
---Accuracy: 1.2%
-- Repetition: 4
---Constructed labels: __________2____R_________F_77R____LX__________X________5_____3___L______7______7_____
---True labels       : EAEVQTDOJG8RBRGONCEDHCTUIDBPUHMEM6OUXOCFOUKWA4VJEFRZROLHYNQDW_EKTLBWXEPOUIKZERYOOTHQI
---Accuracy: 1.2%
-- Repetition: 5
---Constructed labels: __________W____R_________F_77R____LX__________X________5_6R__36__L__F___7____R_7_____
---True labels       : EAEVQTDOJG8RBRGONCEDHCTUIDBPUHMEM6OUXOCFOUKWA4VJEFRZROLHYNQDW_EKTLBWXEPOUIKZERYOOTHQI
---Accuracy: 2.4%
-- Repetition: 6
---Constructed labels: __________39___R_________F_77R____LX__________X________5_6R__36__L__F___7____R_7_____
---True labels       : EAEVQTDOJG8RBRGONCEDHCTUIDBPUHMEM6OUXOCFOUKWA4VJEFRZROLHYNQDW_EKTLBWXEPOUIKZERYOOTHQI
---Accuracy: 2.4%
-- Repetition: 7
---Constructed labels: __________39___R_________F_77R____LX__________X________5_6R__36__L__F___7____R_7_____
---True labels       : EAEVQTDOJG8RBRGONCEDHCTUIDBPUHMEM6OUXOCFOUKWA4VJEFRZROLHYNQDW_EKTLBWXEPOUIKZERYOOTHQI
---Accuracy: 2.4%
-- Repetition: 8
---Constructed labels: __________W9___R_________F_77R____KX__________X________5_6R__36__L__F___7____R_7_____
---True labels       : EAEVQTDOJG8RBRGONCEDHCTUIDBPUHMEM6OUXOCFOUKWA4VJEFRZROLHYNQDW_EKTLBWXEPOUIKZERYOOTHQI
---Accuracy: 2.4%
-- Repetition: 9
---Constructed labels: _________LW94__R_________F_77R____KX__________X________5_6R__3___L__F___7____R_7_____
---True labels       : EAEVQTDOJG8RBRGONCEDHCTUIDBPUHMEM6OUXOCFOUKWA4VJEFRZROLHYNQDW_EKTLBWXEPOUIKZERYOOTHQI
---Accuracy: 2.4%
-- Repetition: 10
---Constructed labels: _________LW94__R_________F_77R____KX__________X_9______5_6R__3F_6L__F___7____R_7_____
---True labels       : EAEVQTDOJG8RBRGONCEDHCTUIDBPUHMEM6OUXOCFOUKWA4VJEFRZROLHYNQDW_EKTLBWXEPOUIKZERYOOTHQI
---Accuracy: 2.4%
-- Repetition: 11
---Constructed labels: 9________L394__R_________F__7R____KX__________U_9______5_6R__3L_6L__F___7____R_7____F
---True labels       : EAEVQTDOJG8RBRGONCEDHCTUIDBPUHMEM6OUXOCFOUKWA4VJEFRZROLHYNQDW_EKTLBWXEPOUIKZERYOOTHQI
---Accuracy: 2.4%
-- Repetition: 12
---Constructed labels: 9________L394__R_________F__7R___8KX__________U_9______5_6R__3L_6L__F___7____R_7____F
---True labels       : EAEVQTDOJG8RBRGONCEDHCTUIDBPUHMEM6OUXOCFOUKWA4VJEFRZROLHYNQDW_EKTLBWXEPOUIKZERYOOTHQI
---Accuracy: 2.4%
-- Repetition: 13
---Constructed labels: 9________L394__R_________F__7R___8KX__________U_9______5_6R__3L_6L__F___7____R_7____F
---True labels       : EAEVQTDOJG8RBRGONCEDHCTUIDBPUHMEM6OUXOCFOUKWA4VJEFRZROLHYNQDW_EKTLBWXEPOUIKZERYOOTHQI
---Accuracy: 2.4%
-- Repetition: 14
---Constructed labels: 9________L394__R_________F__7R__R8KXL_________U_9______5_6R__3L_6L__F___7____R_7____F
---True labels       : EAEVQTDOJG8RBRGONCEDHCTUIDBPUHMEM6OUXOCFOUKWA4VJEFRZROLHYNQDW_EKTLBWXEPOUIKZERYOOTHQI
---Accuracy: 2.4%
-- Repetition: 15
---Constructed labels: 9________L394__R__4______F__7R__R8KXL_________U_9______5_6R__3L_6L__F___7____R_7____F
---True labels       : EAEVQTDOJG8RBRGONCEDHCTUIDBPUHMEM6OUXOCFOUKWA4VJEFRZROLHYNQDW_EKTLBWXEPOUIKZERYOOTHQI
---Accuracy: 2.4%
==== End classifier: LinearDiscriminantAnalysis_svd_Shrinkage:None
==== Start classifier: LinearDiscriminantAnalysis_lsqr_Shrinkage:True
-- Repetition: 1
---Constructed labels: _6_X2_4FZ__X4_89KK6X7_6_WX93_4RR_J_4__64_JW_FR_89_3K_R___9_N____9_K9_KLQ7_R591_7___9W
---True labels       : EAEVQTDOJG8RBRGONCEDHCTUIDBPUHMEM6OUXOCFOUKWA4VJEFRZROLHYNQDW_EKTLBWXEPOUIKZERYOOTHQI
---Accuracy: 1.2%
-- Repetition: 2
---Constructed labels: 48_XPX49Z__X4X69JK6X7_6_3X3ZF_RR_JQ46_NF1JWXFL389_QKR9_4_92R___18_Q9_9LN79Q5_I_WX_R9K
---True labels       : EAEVQTDOJG8RBRGONCEDHCTUIDBPUHMEM6OUXOCFOUKWA4VJEFRZROLHYNQDW_EKTLBWXEPOUIKZERYOOTHQI
---Accuracy: 3.5%
-- Repetition: 3
---Constructed labels: R68XQW49ZI7T4_N9JJ6X__6XDX944_LR_JQ46FTF1P3WFL3894QKPR_V_9OR_6_O8_R4_KLN75P__I_QX4R9K
---True labels       : EAEVQTDOJG8RBRGONCEDHCTUIDBPUHMEM6OUXOCFOUKWA4VJEFRZROLHYNQDW_EKTLBWXEPOUIKZERYOOTHQI
---Accuracy: 3.5%
-- Repetition: 4
---Constructed labels: L68VNW39ZO1T4_H9JJ6X8_6LKF944_IR_J3R6FNRZP3EFLW594RKPR_6G91__RRO8_R4_KLN7AP_FIXUX4F9K
---True labels       : EAEVQTDOJG8RBRGONCEDHCTUIDBPUHMEM6OUXOCFOUKWA4VJEFRZROLHYNQDW_EKTLBWXEPOUIKZERYOOTHQI
---Accuracy: 2.4%
-- Repetition: 5
---Constructed labels: L68VQ339Z11T4UH9JJHX866LKF9Z4_KRRJ3R_JNRZRWEFLT594RKRR_VG8O__4_QV_R4_KLN7AQLFIXWX4F9K
---True labels       : EAEVQTDOJG8RBRGONCEDHCTUIDBPUHMEM6OUXOCFOUKWA4VJEFRZROLHYNQDW_EKTLBWXEPOUIKZERYOOTHQI
---Accuracy: 4.7%
-- Repetition: 6
---Constructed labels: LB88P3W1GO1N4UJ9JIHX8_6LHA86F_HRRJ4R_JNRZRWEF4T593RKRR_VG9MR_RXQ84R48KLN7SQLFIXWX449E
---True labels       : EAEVQTDOJG8RBRGONCEDHCTUIDBPUHMEM6OUXOCFOUKWA4VJEFRZROLHYNQDW_EKTLBWXEPOUIKZERYOOTHQI
---Accuracy: 3.5%
-- Repetition: 7
---Constructed labels: LD8VV3W1GIOR4UJ9JIGF876LHA86F_NR_J4R_DTR4XWWFZTX93RKRRF8G9MR_RX184R4VKLN7WQLFIXUX4YWE
---True labels       : EAEVQTDOJG8RBRGONCEDHCTUIDBPUHMEM6OUXOCFOUKWA4VJEFRZROLHYNQDW_EKTLBWXEPOUIKZERYOOTHQI
---Accuracy: 5.9%
-- Repetition: 8
---Constructed labels: FB8V24W3GGOR4UJ9JIHF67TLVA2NF_NR_JKR6DNR4RWWFZTX93RHRMFT59MRXFX1VLR4XKLB7WQX_7_IU4ZWE
---True labels       : EAEVQTDOJG8RBRGONCEDHCTUIDBPUHMEM6OUXOCFOUKWA4VJEFRZROLHYNQDW_EKTLBWXEPOUIKZERYOOTHQI
---Accuracy: 10.6%
-- Repetition: 9
---Constructed labels: FB8V23W3JGUR4XJ5JIHB6CTLUADRR_RX_JKR6KNR4RWWFHT4E3RHRAIT59MR_FXYVLR4XKLP7WPX_I6UU4ZWK
---True labels       : EAEVQTDOJG8RBRGONCEDHCTUIDBPUHMEM6OUXOCFOUKWA4VJEFRZROLHYNQDW_EKTLBWXEPOUIKZERYOOTHQI
---Accuracy: 14.1%
-- Repetition: 10
---Constructed labels: FD9V23X3JGUR4XJ5JIHD6CTXVADRR_OX_JIR_KNR4RWWFHTVE1RHRMIT59MR_EXMVLRLXKLP7WPI4I6UULZWO
---True labels       : EAEVQTDOJG8RBRGONCEDHCTUIDBPUHMEM6OUXOCFOUKWA4VJEFRZROLHYNQDW_EKTLBWXEPOUIKZERYOOTHQI
---Accuracy: 15.3%
-- Repetition: 11
---Constructed labels: FD9V83X3JG1R4UKOJI626CTXVADRF_OX_JIRJKNR4RWWFHTJE1RHRMIT59MR9EXMVLR_XKJP7WQIFI6UULTWI
---True labels       : EAEVQTDOJG8RBRGONCEDHCTUIDBPUHMEM6OUXOCFOUKWA4VJEFRZROLHYNQDW_EKTLBWXEPOUIKZERYOOTHQI
---Accuracy: 17.6%
-- Repetition: 12
---Constructed labels: FD9V84XZJG1R4XKOJI626CTX8ABRF_OF_JIRJKO_4RWWFZTJE1RBRMIT59MR9EFMVLR_XKJP7WQIF76UU4TWI
---True labels       : EAEVQTDOJG8RBRGONCEDHCTUIDBPUHMEM6OUXOCFOUKWA4VJEFRZROLHYNQDW_EKTLBWXEPOUIKZERYOOTHQI
---Accuracy: 18.8%
-- Repetition: 13
---Constructed labels: FD9V84XZJG1R4XKOXI62_C6X8ABRD_OX_JIPJIRRZRWWFZTJE7RBRMITY9MR9EFMVLR_XKJP7WQIF76UU4TWI
---True labels       : EAEVQTDOJG8RBRGONCEDHCTUIDBPUHMEM6OUXOCFOUKWA4VJEFRZROLHYNQDW_EKTLBWXEPOUIKZERYOOTHQI
---Accuracy: 18.8%
-- Repetition: 14
---Constructed labels: FDEV84XZJG1RFXKOLIH2_CTL6ABRD4OX_JIQJITRZRWWFZTJE6RBRMI6Y9MR5EFYVLM_XKJPU3QIF76UUXTPI
---True labels       : EAEVQTDOJG8RBRGONCEDHCTUIDBPUHMEM6OUXOCFOUKWA4VJEFRZROLHYNQDW_EKTLBWXEPOUIKZERYOOTHQI
---Accuracy: 22.4%
-- Repetition: 15
---Constructed labels: FDEV24XZJI1RFXKOXIH2_CTL6ABRDDOXRJ1QJIURZRWWF4VJE7RBRGI65WMR9EXYVLM_XKJPU9Q1F75UU4TQI
---True labels       : EAEVQTDOJG8RBRGONCEDHCTUIDBPUHMEM6OUXOCFOUKWA4VJEFRZROLHYNQDW_EKTLBWXEPOUIKZERYOOTHQI
---Accuracy: 23.5%
==== End classifier: LinearDiscriminantAnalysis_lsqr_Shrinkage:True
==== Start classifier: LinearDiscriminantAnalysis_lsqr_Shrinkage:False
-- Repetition: 1
---Constructed labels: __________V____R_________F___R_____X_________________________9__________7______7_____
---True labels       : EAEVQTDOJG8RBRGONCEDHCTUIDBPUHMEM6OUXOCFOUKWA4VJEFRZROLHYNQDW_EKTLBWXEPOUIKZERYOOTHQI
---Accuracy: 0.0%
-- Repetition: 2
---Constructed labels: __________V____R_________F_7_R_____X_________________________9__________7______7_____
---True labels       : EAEVQTDOJG8RBRGONCEDHCTUIDBPUHMEM6OUXOCFOUKWA4VJEFRZROLHYNQDW_EKTLBWXEPOUIKZERYOOTHQI
---Accuracy: 0.0%
-- Repetition: 3
---Constructed labels: __________V____R_________F_77R____LX___________________5_____9X__L______7______7_____
---True labels       : EAEVQTDOJG8RBRGONCEDHCTUIDBPUHMEM6OUXOCFOUKWA4VJEFRZROLHYNQDW_EKTLBWXEPOUIKZERYOOTHQI
---Accuracy: 1.2%
-- Repetition: 4
---Constructed labels: __________2____R_________F_77R____LX__________X________5_____3___L______7______7_____
---True labels       : EAEVQTDOJG8RBRGONCEDHCTUIDBPUHMEM6OUXOCFOUKWA4VJEFRZROLHYNQDW_EKTLBWXEPOUIKZERYOOTHQI
---Accuracy: 1.2%
-- Repetition: 5
---Constructed labels: __________W____R_________F_77R____LX__________X________5_6R__36__L__F___7____R_7_____
---True labels       : EAEVQTDOJG8RBRGONCEDHCTUIDBPUHMEM6OUXOCFOUKWA4VJEFRZROLHYNQDW_EKTLBWXEPOUIKZERYOOTHQI
---Accuracy: 2.4%
-- Repetition: 6
---Constructed labels: __________39___R_________F_77R____LX__________X________5_6R__36__L__F___7____R_7_____
---True labels       : EAEVQTDOJG8RBRGONCEDHCTUIDBPUHMEM6OUXOCFOUKWA4VJEFRZROLHYNQDW_EKTLBWXEPOUIKZERYOOTHQI
---Accuracy: 2.4%
-- Repetition: 7
---Constructed labels: __________39___R_________F_77R____LX__________X________5_6R__36__L__F___7____R_7_____
---True labels       : EAEVQTDOJG8RBRGONCEDHCTUIDBPUHMEM6OUXOCFOUKWA4VJEFRZROLHYNQDW_EKTLBWXEPOUIKZERYOOTHQI
---Accuracy: 2.4%
-- Repetition: 8
---Constructed labels: __________W9___R_________F_77R____KX__________X________5_6R__36__L__F___7____R_7_____
---True labels       : EAEVQTDOJG8RBRGONCEDHCTUIDBPUHMEM6OUXOCFOUKWA4VJEFRZROLHYNQDW_EKTLBWXEPOUIKZERYOOTHQI
---Accuracy: 2.4%
-- Repetition: 9
---Constructed labels: _________LW94__R_________F_77R____KX__________X________5_6R__3___L__F___7____R_7_____
---True labels       : EAEVQTDOJG8RBRGONCEDHCTUIDBPUHMEM6OUXOCFOUKWA4VJEFRZROLHYNQDW_EKTLBWXEPOUIKZERYOOTHQI
---Accuracy: 2.4%
-- Repetition: 10
---Constructed labels: _________LW94__R_________F_77R____KX__________X_9______5_6R__3F_6L__F___7____R_7_____
---True labels       : EAEVQTDOJG8RBRGONCEDHCTUIDBPUHMEM6OUXOCFOUKWA4VJEFRZROLHYNQDW_EKTLBWXEPOUIKZERYOOTHQI
---Accuracy: 2.4%
-- Repetition: 11
---Constructed labels: 9________L394__R_________F__7R____KX__________U_9______5_6R__3L_6L__F___7____R_7____F
---True labels       : EAEVQTDOJG8RBRGONCEDHCTUIDBPUHMEM6OUXOCFOUKWA4VJEFRZROLHYNQDW_EKTLBWXEPOUIKZERYOOTHQI
---Accuracy: 2.4%
-- Repetition: 12
---Constructed labels: 9________L394__R_________F__7R___8KX__________U_9______5_6R__3L_6L__F___7____R_7____F
---True labels       : EAEVQTDOJG8RBRGONCEDHCTUIDBPUHMEM6OUXOCFOUKWA4VJEFRZROLHYNQDW_EKTLBWXEPOUIKZERYOOTHQI
---Accuracy: 2.4%
-- Repetition: 13
---Constructed labels: 9________L394__R_________F__7R___8KX__________U_9______5_6R__3L_6L__F___7____R_7____F
---True labels       : EAEVQTDOJG8RBRGONCEDHCTUIDBPUHMEM6OUXOCFOUKWA4VJEFRZROLHYNQDW_EKTLBWXEPOUIKZERYOOTHQI
---Accuracy: 2.4%
-- Repetition: 14
---Constructed labels: 9________L394__R_________F__7R__R8KXL_________U_9______5_6R__3L_6L__F___7____R_7____F
---True labels       : EAEVQTDOJG8RBRGONCEDHCTUIDBPUHMEM6OUXOCFOUKWA4VJEFRZROLHYNQDW_EKTLBWXEPOUIKZERYOOTHQI
---Accuracy: 2.4%
-- Repetition: 15
---Constructed labels: 9________L394__R__4______F__7R__R8KXL_________U_9______5_6R__3L_6L__F___7____R_7____F
---True labels       : EAEVQTDOJG8RBRGONCEDHCTUIDBPUHMEM6OUXOCFOUKWA4VJEFRZROLHYNQDW_EKTLBWXEPOUIKZERYOOTHQI
---Accuracy: 2.4%
==== End classifier: LinearDiscriminantAnalysis_lsqr_Shrinkage:False
==== Start classifier: QuadraticDiscriminantAnalysis
-- Repetition: 1
---Constructed labels: F_4X_R_Q__8R_X_P_E9_72_9__62UXRFE_RX_X7_5XK___X6___4_56J58R_9___5_F__ERR7__T9_8_O_H9_
---True labels       : EAEVQTDOJG8RBRGONCEDHCTUIDBPUHMEM6OUXOCFOUKWA4VJEFRZROLHYNQDW_EKTLBWXEPOUIKZERYOOTHQI
---Accuracy: 9.4%
-- Repetition: 2
---Constructed labels: L_4XRNFQLL8M_X7P_3_D7D_3_DF2U_RF96RX_U1_MXKWA_XH_8_4_O6J58Q8W__X5_EWXWPOO79TQ_8LO_H9L
---True labels       : EAEVQTDOJG8RBRGONCEDHCTUIDBPUHMEM6OUXOCFOUKWA4VJEFRZROLHYNQDW_EKTLBWXEPOUIKZERYOOTHQI
---Accuracy: 21.2%
-- Repetition: 3
---Constructed labels: F_XVQNFQLI8M_X7P6E_DGF_UXDX2ULRE96RX6OO_OXKWF4SH9_63XONJY8Q8W_EW6LEWXEPOOIKTER8LO_HQL
---True labels       : EAEVQTDOJG8RBRGONCEDHCTUIDBPUHMEM6OUXOCFOUKWA4VJEFRZROLHYNQDW_EKTLBWXEPOUIKZERYOOTHQI
---Accuracy: 38.8%
-- Repetition: 4
---Constructed labels: F5CVQKFQLI8MBR7ONE9DGFTUX2X2UL9F964X6OO_OX9WF4S89XZ3XONJY8Q8W_EK6LEWXEPOUI9TER8IO_HQL
---True labels       : EAEVQTDOJG8RBRGONCEDHCTUIDBPUHMEM6OUXOCFOUKWA4VJEFRZROLHYNQDW_EKTLBWXEPOUIKZERYOOTHQI
---Accuracy: 42.4%
-- Repetition: 5
---Constructed labels: 45CVQKFQII8MBR7ONC9DGFTUX2B2UKQEQ61X6OO_QX9WF4S89XZ3XMLJY6Q8W_EKTLEWXEPOUI9TER8IO6TQL
---True labels       : EAEVQTDOJG8RBRGONCEDHCTUIDBPUHMEM6OUXOCFOUKWA4VJEFRZROLHYNQDW_EKTLBWXEPOUIKZERYOOTHQI
---Accuracy: 44.7%
-- Repetition: 6
---Constructed labels: 45CVQHAQII8QBX5ONC9DGFTULDD2UKQEM61U6OC_QX9WFRS8EX43RMLVY6Q8W_EKHLEW4EPOUU9TER8IO6TQI
---True labels       : EAEVQTDOJG8RBRGONCEDHCTUIDBPUHMEM6OUXOCFOUKWA4VJEFRZROLHYNQDW_EKTLBWXEPOUIKZERYOOTHQI
---Accuracy: 45.9%
-- Repetition: 7
---Constructed labels: F5CVQHAOIJ8QBX5ORC9DGFTUL2B2UKQEM6OUXOC_QX9WF4WJEX43RMLVY6QDW_EKHLEW4EPOUUKTER8OO6HQI
---True labels       : EAEVQTDOJG8RBRGONCEDHCTUIDBPUHMEM6OUXOCFOUKWA4VJEFRZROLHYNQDW_EKTLBWXEPOUIKZERYOOTHQI
---Accuracy: 55.3%
-- Repetition: 8
---Constructed labels: F5CVQTFOKJ8QBX7ORC9DGFZULDB2UKMEM6OUXOC_OX9WFRWJEX41RMLTY6QDW_EKHLEWXEPOUUKTER8OO6HQL
---True labels       : EAEVQTDOJG8RBRGONCEDHCTUIDBPUHMEM6OUXOCFOUKWA4VJEFRZROLHYNQDW_EKTLBWXEPOUIKZERYOOTHQI
---Accuracy: 57.6%
-- Repetition: 9
---Constructed labels: F5CVQTFOJK8RBX7ONC9DGFTULDB2UHMEM6OUXOC_OX9WFRSJE_R1RML6YNQDW_EKHLEWXEPOUUKTER5OOTHQI
---True labels       : EAEVQTDOJG8RBRGONCEDHCTUIDBPUHMEM6OUXOCFOUKWA4VJEFRZROLHYNQDW_EKTLBWXEPOUIKZERYOOTHQI
---Accuracy: 68.2%
-- Repetition: 10
---Constructed labels: EACVQTFOJK8RBX5ONC9DGFTULDB2UHMEM6OUXOC_OVKWARVJE_R1RMLTYNQDW_EKHLBWXEPOUUKTER5OOTHQI
---True labels       : EAEVQTDOJG8RBRGONCEDHCTUIDBPUHMEM6OUXOCFOUKWA4VJEFRZROLHYNQDW_EKTLBWXEPOUIKZERYOOTHQI
---Accuracy: 75.3%
-- Repetition: 11
---Constructed labels: EACVQTDOJI8RBX5ONC9DHCTULDB2UHMEM6OUXOC_OVWWA4VJE_RZRMLTYNQDW_EKHLBWXEPOUUKTER5OOTHQI
---True labels       : EAEVQTDOJG8RBRGONCEDHCTUIDBPUHMEM6OUXOCFOUKWA4VJEFRZROLHYNQDW_EKTLBWXEPOUIKZERYOOTHQI
---Accuracy: 80.0%
-- Repetition: 12
---Constructed labels: EAEVQTDOJI8RBXGONC9DHFTULDB2UHMEM6OUXOC_OVWWA4VJE_RZRMLTYNQDW_EKHLBSXEPOUUKTER5OOTHQC
---True labels       : EAEVQTDOJG8RBRGONCEDHCTUIDBPUHMEM6OUXOCFOUKWA4VJEFRZROLHYNQDW_EKTLBWXEPOUIKZERYOOTHQI
---Accuracy: 78.8%
-- Repetition: 13
---Constructed labels: EACVQTDOJI8RBXGONCEDHFTULDBPUHMEM6OUXOC_OVKWA4VJE_RZRMLTYNQDW_EKHLBSXEPOUUKZER5OOTHQI
---True labels       : EAEVQTDOJG8RBRGONCEDHCTUIDBPUHMEM6OUXOCFOUKWA4VJEFRZROLHYNQDW_EKTLBWXEPOUIKZERYOOTHQI
---Accuracy: 83.5%
-- Repetition: 14
---Constructed labels: EAEVQTDOJI8RBRGONCEDHCTULDBPUHREM6OUXOC_OVKWA4VJE_RZRMLTYNQDW_EKHLBSXEPOUUK6ER5OOTHQI
---True labels       : EAEVQTDOJG8RBRGONCEDHCTUIDBPUHMEM6OUXOCFOUKWA4VJEFRZROLHYNQDW_EKTLBWXEPOUIKZERYOOTHQI
---Accuracy: 84.7%
-- Repetition: 15
---Constructed labels: EAEVQTDOJI8RBRGONCWDHCTULDBPUHREM6OUXOC_OVKWA4VJE_RZRMLTYNQDW_EKTLBSXEPOUUK6ER5OOTHQI
---True labels       : EAEVQTDOJG8RBRGONCEDHCTUIDBPUHMEM6OUXOCFOUKWA4VJEFRZROLHYNQDW_EKTLBWXEPOUIKZERYOOTHQI
---Accuracy: 84.7%
==== End classifier: QuadraticDiscriminantAnalysis
==== Start classifier: LinearSVC
-- Repetition: 1
---Constructed labels: __________8__________________R_______________________________9_______________________
---True labels       : EAEVQTDOJG8RBRGONCEDHCTUIDBPUHMEM6OUXOCFOUKWA4VJEFRZROLHYNQDW_EKTLBWXEPOUIKZERYOOTHQI
---Accuracy: 1.2%
-- Repetition: 2
---Constructed labels: __________P__________________R_______________________________9_______________________
---True labels       : EAEVQTDOJG8RBRGONCEDHCTUIDBPUHMEM6OUXOCFOUKWA4VJEFRZROLHYNQDW_EKTLBWXEPOUIKZERYOOTHQI
---Accuracy: 0.0%
-- Repetition: 3
---Constructed labels: __________P_________________7R_______________________________9_______________________
---True labels       : EAEVQTDOJG8RBRGONCEDHCTUIDBPUHMEM6OUXOCFOUKWA4VJEFRZROLHYNQDW_EKTLBWXEPOUIKZERYOOTHQI
---Accuracy: 0.0%
-- Repetition: 4
---Constructed labels: __________2_6_______________7R_______________________________3_______________________
---True labels       : EAEVQTDOJG8RBRGONCEDHCTUIDBPUHMEM6OUXOCFOUKWA4VJEFRZROLHYNQDW_EKTLBWXEPOUIKZERYOOTHQI
---Accuracy: 0.0%
-- Repetition: 5
---Constructed labels: __________3_6_______________7R___________________________6R__35______________________
---True labels       : EAEVQTDOJG8RBRGONCEDHCTUIDBPUHMEM6OUXOCFOUKWA4VJEFRZROLHYNQDW_EKTLBWXEPOUIKZERYOOTHQI
---Accuracy: 0.0%
-- Repetition: 6
---Constructed labels: __________3_6_______________7R___________________________6R__35______________________
---True labels       : EAEVQTDOJG8RBRGONCEDHCTUIDBPUHMEM6OUXOCFOUKWA4VJEFRZROLHYNQDW_EKTLBWXEPOUIKZERYOOTHQI
---Accuracy: 0.0%
-- Repetition: 7
---Constructed labels: __________3_6_______________7R___________________________6R__35______________________
---True labels       : EAEVQTDOJG8RBRGONCEDHCTUIDBPUHMEM6OUXOCFOUKWA4VJEFRZROLHYNQDW_EKTLBWXEPOUIKZERYOOTHQI
---Accuracy: 0.0%
-- Repetition: 8
---Constructed labels: __________W_6_______________7R___________________________6R__35______________________
---True labels       : EAEVQTDOJG8RBRGONCEDHCTUIDBPUHMEM6OUXOCFOUKWA4VJEFRZROLHYNQDW_EKTLBWXEPOUIKZERYOOTHQI
---Accuracy: 0.0%
-- Repetition: 9
---Constructed labels: _________LW_6_______________7R___________________________6R__3_______________________
---True labels       : EAEVQTDOJG8RBRGONCEDHCTUIDBPUHMEM6OUXOCFOUKWA4VJEFRZROLHYNQDW_EKTLBWXEPOUIKZERYOOTHQI
---Accuracy: 0.0%
-- Repetition: 10
---Constructed labels: _________LW_6_______________7R___________________________6R__3_______________________
---True labels       : EAEVQTDOJG8RBRGONCEDHCTUIDBPUHMEM6OUXOCFOUKWA4VJEFRZROLHYNQDW_EKTLBWXEPOUIKZERYOOTHQI
---Accuracy: 0.0%
-- Repetition: 11
---Constructed labels: _________L3_6_______________7R___________________________6R__3_______________________
---True labels       : EAEVQTDOJG8RBRGONCEDHCTUIDBPUHMEM6OUXOCFOUKWA4VJEFRZROLHYNQDW_EKTLBWXEPOUIKZERYOOTHQI
---Accuracy: 0.0%
-- Repetition: 12
---Constructed labels: _________L3_6_______________7R___________________________6R__3_______________________
---True labels       : EAEVQTDOJG8RBRGONCEDHCTUIDBPUHMEM6OUXOCFOUKWA4VJEFRZROLHYNQDW_EKTLBWXEPOUIKZERYOOTHQI
---Accuracy: 0.0%
-- Repetition: 13
---Constructed labels: _________L3_6_______________7R___________________________6R__3_______________________
---True labels       : EAEVQTDOJG8RBRGONCEDHCTUIDBPUHMEM6OUXOCFOUKWA4VJEFRZROLHYNQDW_EKTLBWXEPOUIKZERYOOTHQI
---Accuracy: 0.0%
-- Repetition: 14
---Constructed labels: _________LW_6_______________7R___________________________6R__3_______________________
---True labels       : EAEVQTDOJG8RBRGONCEDHCTUIDBPUHMEM6OUXOCFOUKWA4VJEFRZROLHYNQDW_EKTLBWXEPOUIKZERYOOTHQI
---Accuracy: 0.0%
-- Repetition: 15
---Constructed labels: _________LW_6_______________7R___________________________6R__3_______________________
---True labels       : EAEVQTDOJG8RBRGONCEDHCTUIDBPUHMEM6OUXOCFOUKWA4VJEFRZROLHYNQDW_EKTLBWXEPOUIKZERYOOTHQI
---Accuracy: 0.0%
==== End classifier: LinearSVC
==== Start classifier: SVC
-- Repetition: 1
---Constructed labels: __________8__________________________________________________________________________
---True labels       : EAEVQTDOJG8RBRGONCEDHCTUIDBPUHMEM6OUXOCFOUKWA4VJEFRZROLHYNQDW_EKTLBWXEPOUIKZERYOOTHQI
---Accuracy: 2.4%
-- Repetition: 2
---Constructed labels: __________8__________________________________________________________________________
---True labels       : EAEVQTDOJG8RBRGONCEDHCTUIDBPUHMEM6OUXOCFOUKWA4VJEFRZROLHYNQDW_EKTLBWXEPOUIKZERYOOTHQI
---Accuracy: 2.4%
-- Repetition: 3
---Constructed labels: __________8__________________________________________________________________________
---True labels       : EAEVQTDOJG8RBRGONCEDHCTUIDBPUHMEM6OUXOCFOUKWA4VJEFRZROLHYNQDW_EKTLBWXEPOUIKZERYOOTHQI
---Accuracy: 2.4%
-- Repetition: 4
---Constructed labels: __________8__________________________________________________________________________
---True labels       : EAEVQTDOJG8RBRGONCEDHCTUIDBPUHMEM6OUXOCFOUKWA4VJEFRZROLHYNQDW_EKTLBWXEPOUIKZERYOOTHQI
---Accuracy: 2.4%
-- Repetition: 5
---Constructed labels: __________8___________________________________________________9______________________
---True labels       : EAEVQTDOJG8RBRGONCEDHCTUIDBPUHMEM6OUXOCFOUKWA4VJEFRZROLHYNQDW_EKTLBWXEPOUIKZERYOOTHQI
---Accuracy: 2.4%
-- Repetition: 6
---Constructed labels: __________8___________________________________________________9______________________
---True labels       : EAEVQTDOJG8RBRGONCEDHCTUIDBPUHMEM6OUXOCFOUKWA4VJEFRZROLHYNQDW_EKTLBWXEPOUIKZERYOOTHQI
---Accuracy: 2.4%
-- Repetition: 7
---Constructed labels: __________8___________________________________________________9______________________
---True labels       : EAEVQTDOJG8RBRGONCEDHCTUIDBPUHMEM6OUXOCFOUKWA4VJEFRZROLHYNQDW_EKTLBWXEPOUIKZERYOOTHQI
---Accuracy: 2.4%
-- Repetition: 8
---Constructed labels: __________8___________________________________________________9______________________
---True labels       : EAEVQTDOJG8RBRGONCEDHCTUIDBPUHMEM6OUXOCFOUKWA4VJEFRZROLHYNQDW_EKTLBWXEPOUIKZERYOOTHQI
---Accuracy: 2.4%
-- Repetition: 9
---Constructed labels: __________8___________________________________________________9______________________
---True labels       : EAEVQTDOJG8RBRGONCEDHCTUIDBPUHMEM6OUXOCFOUKWA4VJEFRZROLHYNQDW_EKTLBWXEPOUIKZERYOOTHQI
---Accuracy: 2.4%
-- Repetition: 10
---Constructed labels: __________8___________________________________________________E______________________
---True labels       : EAEVQTDOJG8RBRGONCEDHCTUIDBPUHMEM6OUXOCFOUKWA4VJEFRZROLHYNQDW_EKTLBWXEPOUIKZERYOOTHQI
---Accuracy: 3.5%
-- Repetition: 11
---Constructed labels: __________8___________________________________________________E______________________
---True labels       : EAEVQTDOJG8RBRGONCEDHCTUIDBPUHMEM6OUXOCFOUKWA4VJEFRZROLHYNQDW_EKTLBWXEPOUIKZERYOOTHQI
---Accuracy: 3.5%
-- Repetition: 12
---Constructed labels: __________8___________________________________________________E______________________
---True labels       : EAEVQTDOJG8RBRGONCEDHCTUIDBPUHMEM6OUXOCFOUKWA4VJEFRZROLHYNQDW_EKTLBWXEPOUIKZERYOOTHQI
---Accuracy: 3.5%
-- Repetition: 13
---Constructed labels: __________8___________________________________________________E______________________
---True labels       : EAEVQTDOJG8RBRGONCEDHCTUIDBPUHMEM6OUXOCFOUKWA4VJEFRZROLHYNQDW_EKTLBWXEPOUIKZERYOOTHQI
---Accuracy: 3.5%
-- Repetition: 14
---Constructed labels: __________8___________________________________________________E______________________
---True labels       : EAEVQTDOJG8RBRGONCEDHCTUIDBPUHMEM6OUXOCFOUKWA4VJEFRZROLHYNQDW_EKTLBWXEPOUIKZERYOOTHQI
---Accuracy: 3.5%
-- Repetition: 15
---Constructed labels: __________8___________________________________________________E______________________
---True labels       : EAEVQTDOJG8RBRGONCEDHCTUIDBPUHMEM6OUXOCFOUKWA4VJEFRZROLHYNQDW_EKTLBWXEPOUIKZERYOOTHQI
---Accuracy: 3.5%
==== End classifier: SVC
==== Start classifier: LDA_cov
-- Repetition: 1
---Constructed labels: DJCVWE14PBVFFNHM9BNUKTS4WDH8ZOAA7FPV7MDJIP9VKJVDUFU29P4H5UJND9XCVBH9WEHR7OK28KYIOUHEQ
---True labels       : EAEVQTDOJG8RBRGONCEDHCTUIDBPUHMEM6OUXOCFOUKWA4VJEFRZROLHYNQDW_EKTLBWXEPOUIKZERYOOTHQI
---Accuracy: 11.8%
-- Repetition: 2
---Constructed labels: 8SDTSBCOPI8MLRHMOTGDIBS4WDHPBOMYTEPX6CIFOM9DGIWVKFOD9ML6JIJNE6RIVBJWTEOQ7PN2DIYIUUHEK
---True labels       : EAEVQTDOJG8RBRGONCEDHCTUIDBPUHMEM6OUXOCFOUKWA4VJEFRZROLHYNQDW_EKTLBWXEPOUIKZERYOOTHQI
---Accuracy: 17.6%
-- Repetition: 3
---Constructed labels: FG9WWEEQGH8MFRHOMULPIFSOUDH2UOGZTE2XU1CFIMEVGOVVDFQ2DMLBJHRPN9CEWLBXUKIQ7PB2EUYIOKHEK
---True labels       : EAEVQTDOJG8RBRGONCEDHCTUIDBPUHMEM6OUXOCFOUKWA4VJEFRZROLHYNQDW_EKTLBWXEPOUIKZERYOOTHQI
---Accuracy: 18.8%
-- Repetition: 4
---Constructed labels: FG9WEWEJPHPRNRGOPCFDIFXRIDI4UNGBOF2XUUCFOOEVGOWVEFQE2MLH5AOPRWEKWHBXUKMOCPJDECYIOUHEK
---True labels       : EAEVQTDOJG8RBRGONCEDHCTUIDBPUHMEM6OUXOCFOUKWA4VJEFRZROLHYNQDW_EKTLBWXEPOUIKZERYOOTHQI
---Accuracy: 28.2%
-- Repetition: 5
---Constructed labels: FG9VWBELMHVRBRGONCEDIBXOIDHRUNM3U4JVWSCFOOEVGOVVEFR9RMLA5NOPRWEK3HBWUEGOCJH1EC1IOTHQK
---True labels       : EAEVQTDOJG8RBRGONCEDHCTUIDBPUHMEM6OUXOCFOUKWA4VJEFRZROLHYNQDW_EKTLBWXEPOUIKZERYOOTHQI
---Accuracy: 41.2%
-- Repetition: 6
---Constructed labels: FG9VWBFIGH2RTRGONCEDIBSUIDH2UOMEXAJVTUCFOOEWG7VVEFRWRRLH5NOPRWKKTLDXUEGOCJHJEFYIOWHQK
---True labels       : EAEVQTDOJG8RBRGONCEDHCTUIDBPUHMEM6OUXOCFOUKWA4VJEFRZROLHYNQDW_EKTLBWXEPOUIKZERYOOTHQI
---Accuracy: 43.5%
-- Repetition: 7
---Constructed labels: FGQVWBEIGH2R9RGONCFDIBTXIDH2UOSETYJVTUCFOO3WGOVJFDRZQMRLGNOPRWEKTLBXUEJO7KTJEXUOOTHQK
---True labels       : EAEVQTDOJG8RBRGONCEDHCTUIDBPUHMEM6OUXOCFOUKWA4VJEFRZROLHYNQDW_EKTLBWXEPOUIKZERYOOTHQI
---Accuracy: 41.2%
-- Repetition: 8
---Constructed labels: FGWVWBEIJHVRERGONCEDIBTXIDHPUOMES6KUTUCFOO3WL4VJFFRZRMRBANPPRWEKTLBXUEJO7JV2EX1OOTHQI
---True labels       : EAEVQTDOJG8RBRGONCEDHCTUIDBPUHMEM6OUXOCFOUKWA4VJEFRZROLHYNQDW_EKTLBWXEPOUIKZERYOOTHQI
---Accuracy: 52.9%
-- Repetition: 9
---Constructed labels: FGWVWBFOJGVRELGONCEDIBTXIDHPUOMES5KUTUCFPOEWL4VJFERZRMRLANMPRWKKTLBXUEPOCKV2EXOOOTHQC
---True labels       : EAEVQTDOJG8RBRGONCEDHCTUIDBPUHMEM6OUXOCFOUKWA4VJEFRZROLHYNQDW_EKTLBWXEPOUIKZERYOOTHQI
---Accuracy: 49.4%
-- Repetition: 10
---Constructed labels: FGWVETFOJJVRELGONCEDIBSXIDH2UOMES5IUTOCFPOEWA1VJEERZROLLYNOARWRKTLBXUEPOUQV2ERSOOTHQC
---True labels       : EAEVQTDOJG8RBRGONCEDHCTUIDBPUHMEM6OUXOCFOUKWA4VJEFRZROLHYNQDW_EKTLBWXEPOUIKZERYOOTHQI
---Accuracy: 55.3%
-- Repetition: 11
---Constructed labels: DGWVETFUJJVRBRGONCEDIBTUIDHPUOMES5KUVOCFPOEWF4VJEFRZRMLLYNQDRXLKTLBXXEJOUKV2ERSOOTHQC
---True labels       : EAEVQTDOJG8RBRGONCEDHCTUIDBPUHMEM6OUXOCFOUKWA4VJEFRZROLHYNQDW_EKTLBWXEPOUIKZERYOOTHQI
---Accuracy: 62.4%
-- Repetition: 12
---Constructed labels: FGWVETFOJJ1RERGONCEDIBTUIDB2UNMES5IUVOCFPOEXF4VJEFRZRMLLYNQDFWLKTLBXLEJOUKJZERYOOTHQC
---True labels       : EAEVQTDOJG8RBRGONCEDHCTUIDBPUHMEM6OUXOCFOUKWA4VJEFRZROLHYNQDW_EKTLBWXEPOUIKZERYOOTHQI
---Accuracy: 62.4%
-- Repetition: 13
---Constructed labels: FGWVETFOJG1RERGONCEDIBTUIDBPUNMES8IUVOCFPOEXF4VJEFRZRMLHYNODXXKKTLBXLEJOUKJZERYOOTHQD
---True labels       : EAEVQTDOJG8RBRGONCEDHCTUIDBPUHMEM6OUXOCFOUKWA4VJEFRZROLHYNQDW_EKTLBWXEPOUIKZERYOOTHQI
---Accuracy: 64.7%
-- Repetition: 14
---Constructed labels: FG3VWTFOJGURBRGONCEDIBTUIDBPUNMER8IUVOCFPUEXC4VJEFRTRMLHYNQDXXKKTLBXLEJOUKJZERYOOTHQC
---True labels       : EAEVQTDOJG8RBRGONCEDHCTUIDBPUHMEM6OUXOCFOUKWA4VJEFRZROLHYNQDW_EKTLBWXEPOUIKZERYOOTHQI
---Accuracy: 67.1%
-- Repetition: 15
---Constructed labels: FAWVWTFOJJURBRGONCEDIBTUIDBPUOMEM8OUVOCFPOEXC4VJEFRZRMLGYNQDXXKKTLBXFKJOUKJZERSOOTHQD
---True labels       : EAEVQTDOJG8RBRGONCEDHCTUIDBPUHMEM6OUXOCFOUKWA4VJEFRZROLHYNQDW_EKTLBWXEPOUIKZERYOOTHQI
---Accuracy: 65.9%
==== Start Subject: 1
==== Start classifier: GradientBoostingClassifier_0.1
-- Repetition: 1
---Constructed labels: __________8__________________R_____X___________________________________________7_____
---True labels       : EAEVQTDOJG8RBRGONCEDHCTUIDBPUHMEM6OUXOCFOUKWA4VJEFRZROLHYNQDW_EKTLBWXEPOUIKZERYOOTHQI
---Accuracy: 2.4%
-- Repetition: 2
---Constructed labels: __________8__________________R_____X___________________________________________7_____
---True labels       : EAEVQTDOJG8RBRGONCEDHCTUIDBPUHMEM6OUXOCFOUKWA4VJEFRZROLHYNQDW_EKTLBWXEPOUIKZERYOOTHQI
---Accuracy: 2.4%
-- Repetition: 3
---Constructed labels: _________L8__________________R_____X____7______________________________________7_____
---True labels       : EAEVQTDOJG8RBRGONCEDHCTUIDBPUHMEM6OUXOCFOUKWA4VJEFRZROLHYNQDW_EKTLBWXEPOUIKZERYOOTHQI
---Accuracy: 2.4%
-- Repetition: 4
---Constructed labels: _________L8__________________R_____X____7_____________________F________________7_____
---True labels       : EAEVQTDOJG8RBRGONCEDHCTUIDBPUHMEM6OUXOCFOUKWA4VJEFRZROLHYNQDW_EKTLBWXEPOUIKZERYOOTHQI
---Accuracy: 2.4%
-- Repetition: 5
---Constructed labels: _________L8__________________R_____X____7___F____________6____F___________96___7_____
---True labels       : EAEVQTDOJG8RBRGONCEDHCTUIDBPUHMEM6OUXOCFOUKWA4VJEFRZROLHYNQDW_EKTLBWXEPOUIKZERYOOTHQI
---Accuracy: 2.4%
-- Repetition: 6
---Constructed labels: _________L8__________________R_____X____OR__F____________6____F___________96___7_____
---True labels       : EAEVQTDOJG8RBRGONCEDHCTUIDBPUHMEM6OUXOCFOUKWA4VJEFRZROLHYNQDW_EKTLBWXEPOUIKZERYOOTHQI
---Accuracy: 3.5%
-- Repetition: 7
---Constructed labels: _________L8__________________R_____X____OR__F____________6____F___________96___7_____
---True labels       : EAEVQTDOJG8RBRGONCEDHCTUIDBPUHMEM6OUXOCFOUKWA4VJEFRZROLHYNQDW_EKTLBWXEPOUIKZERYOOTHQI
---Accuracy: 3.5%
-- Repetition: 8
---Constructed labels: _________L8______________F___R_____X____OR__F____________6R___E___________96___7_____
---True labels       : EAEVQTDOJG8RBRGONCEDHCTUIDBPUHMEM6OUXOCFOUKWA4VJEFRZROLHYNQDW_EKTLBWXEPOUIKZERYOOTHQI
---Accuracy: 4.7%
-- Repetition: 9
---Constructed labels: _________L8______________F___R_____X_7__OR__F____________6R___E___________96___7_____
---True labels       : EAEVQTDOJG8RBRGONCEDHCTUIDBPUHMEM6OUXOCFOUKWA4VJEFRZROLHYNQDW_EKTLBWXEPOUIKZERYOOTHQI
---Accuracy: 4.7%
-- Repetition: 10
---Constructed labels: _________L8______________F___R_____X_7__OR__F__8_________6R___E____9______96___7_____
---True labels       : EAEVQTDOJG8RBRGONCEDHCTUIDBPUHMEM6OUXOCFOUKWA4VJEFRZROLHYNQDW_EKTLBWXEPOUIKZERYOOTHQI
---Accuracy: 4.7%
-- Repetition: 11
---Constructed labels: _________L8______________F___R_____X_7__OR__F__8_________6R___E____9______96___7_____
---True labels       : EAEVQTDOJG8RBRGONCEDHCTUIDBPUHMEM6OUXOCFOUKWA4VJEFRZROLHYNQDW_EKTLBWXEPOUIKZERYOOTHQI
---Accuracy: 4.7%
-- Repetition: 12
---Constructed labels: ____9____L8______________F___R_____X_7__OR__F__8_________6R___E____9______96___7_____
---True labels       : EAEVQTDOJG8RBRGONCEDHCTUIDBPUHMEM6OUXOCFOUKWA4VJEFRZROLHYNQDW_EKTLBWXEPOUIKZERYOOTHQI
---Accuracy: 4.7%
-- Repetition: 13
---Constructed labels: ____9_5__L8______________F___R_____X_7__OR__F__8_________6R___E____9______96__47_____
---True labels       : EAEVQTDOJG8RBRGONCEDHCTUIDBPUHMEM6OUXOCFOUKWA4VJEFRZROLHYNQDW_EKTLBWXEPOUIKZERYOOTHQI
---Accuracy: 4.7%
-- Repetition: 14
---Constructed labels: ____9_5__L8_F____________F___R_____X_7__OR__F__8_________6R___E____9______96__47_____
---True labels       : EAEVQTDOJG8RBRGONCEDHCTUIDBPUHMEM6OUXOCFOUKWA4VJEFRZROLHYNQDW_EKTLBWXEPOUIKZERYOOTHQI
---Accuracy: 4.7%
-- Repetition: 15
---Constructed labels: ____9_5__L8_F____________F___R_____X_7__OR__F__8_________TR___E____9______96__47_____
---True labels       : EAEVQTDOJG8RBRGONCEDHCTUIDBPUHMEM6OUXOCFOUKWA4VJEFRZROLHYNQDW_EKTLBWXEPOUIKZERYOOTHQI
---Accuracy: 4.7%
==== End classifier: GradientBoostingClassifier_0.1
==== Start classifier: AdaBoostClassifier
-- Repetition: 1
---Constructed labels: __________8___4__________8_________X______________X_____________X______________7_____
---True labels       : EAEVQTDOJG8RBRGONCEDHCTUIDBPUHMEM6OUXOCFOUKWA4VJEFRZROLHYNQDW_EKTLBWXEPOUIKZERYOOTHQI
---Accuracy: 2.4%
-- Repetition: 2
---Constructed labels: ______F___8___4RR________8FR_______X______________X_____________X____8____F___X7__6__
---True labels       : EAEVQTDOJG8RBRGONCEDHCTUIDBPUHMEM6OUXOCFOUKWA4VJEFRZROLHYNQDW_EKTLBWXEPOUIKZERYOOTHQI
---Accuracy: 2.4%
-- Repetition: 3
---Constructed labels: ______F_6L8___4RR________8FR_______X______________X_____________X___99___5F___X7__6__
---True labels       : EAEVQTDOJG8RBRGONCEDHCTUIDBPUHMEM6OUXOCFOUKWA4VJEFRZROLHYNQDW_EKTLBWXEPOUIKZERYOOTHQI
---Accuracy: 2.4%
-- Repetition: 4
---Constructed labels: ______F_6L8___4RR________2FR_______X__________X___X____L___9____X___99_R_5F___X7__6L8
---True labels       : EAEVQTDOJG8RBRGONCEDHCTUIDBPUHMEM6OUXOCFOUKWA4VJEFRZROLHYNQDW_EKTLBWXEPOUIKZERYOOTHQI
---Accuracy: 2.4%
-- Repetition: 5
---Constructed labels: ______F_6L89_L4RR________2FR_______X_________9X___X____X___9____X___E9_R_5F6__X7__6L8
---True labels       : EAEVQTDOJG8RBRGONCEDHCTUIDBPUHMEM6OUXOCFOUKWA4VJEFRZROLHYNQDW_EKTLBWXEPOUIKZERYOOTHQI
---Accuracy: 2.4%
-- Repetition: 6
---Constructed labels: ______F_6L89_L4RR____F___2FP_______X____RR___9XL_EX____X4__9____X___E9_R45F6__X7__6LJ
---True labels       : EAEVQTDOJG8RBRGONCEDHCTUIDBPUHMEM6OUXOCFOUKWA4VJEFRZROLHYNQDW_EKTLBWXEPOUIKZERYOOTHQI
---Accuracy: 3.5%
-- Repetition: 7
---Constructed labels: ______F_HL89_G4RR____F___2FP____6__X____RR___9XL_EU____L4__9____X___F9_R45F6__X7__BLJ
---True labels       : EAEVQTDOJG8RBRGONCEDHCTUIDBPUHMEM6OUXOCFOUKWA4VJEFRZROLHYNQDW_EKTLBWXEPOUIKZERYOOTHQI
---Accuracy: 3.5%
-- Repetition: 8
---Constructed labels: ______F_HL89_G4RR____F__72FPL___6_9W____RRLX_9XL_EU____L4_R9__9_X___FERR45F6__X7__BLJ
---True labels       : EAEVQTDOJG8RBRGONCEDHCTUIDBPUHMEM6OUXOCFOUKWA4VJEFRZROLHYNQDW_EKTLBWXEPOUIKZERYOOTHQI
---Accuracy: 4.7%
-- Repetition: 9
---Constructed labels: ______F_HL99_G4RR____F__72FPL___6_9W_7__RRLX99XLFEU____L4_R9__9_X___FDRR45F6__T7__HLJ
---True labels       : EAEVQTDOJG8RBRGONCEDHCTUIDBPUHMEM6OUXOCFOUKWA4VJEFRZROLHYNQDW_EKTLBWXEPOUIKZERYOOTHQI
---Accuracy: 3.5%
-- Repetition: 10
---Constructed labels: ______F9HL99_G4RP__F_F_672FPL___9_9W_7__RRLX99XIEEU____G4_R9__Q_X_6_FDRR15F6__T7__HLJ
---True labels       : EAEVQTDOJG8RBRGONCEDHCTUIDBPUHMEM6OUXOCFOUKWA4VJEFRZROLHYNQDW_EKTLBWXEPOUIKZERYOOTHQI
---Accuracy: 4.7%
-- Repetition: 11
---Constructed labels: ______F9HL89_G4RP7_F_C_672FPL___9_9W47__RRLX99XIEEU____G4_R9__M_XL8_FDRR15FN__T7__HLJ
---True labels       : EAEVQTDOJG8RBRGONCEDHCTUIDBPUHMEM6OUXOCFOUKWA4VJEFRZROLHYNQDW_EKTLBWXEPOUIKZERYOOTHQI
---Accuracy: 8.2%
-- Repetition: 12
---Constructed labels: ______FRLL89FG4OP7_D_C_672FPG6__9_9W47__RRLX99XIEEU6_5_GZ_R9__M_XL8_FDRR15FN__T7__HLJ
---True labels       : EAEVQTDOJG8RBRGONCEDHCTUIDBPUHMEM6OUXOCFOUKWA4VJEFRZROLHYNQDW_EKTLBWXEPOUIKZERYOOTHQI
---Accuracy: 10.6%
-- Repetition: 13
---Constructed labels: ______ARLL89FG4OP7_D_C_672FPG6__9_9W47__RRLX99XIEEU6_5_GZ_R_F_M_XL8_XDQR15FN__T8__HLJ
---True labels       : EAEVQTDOJG8RBRGONCEDHCTUIDBPUHMEM6OUXOCFOUKWA4VJEFRZROLHYNQDW_EKTLBWXEPOUIKZERYOOTHQI
---Accuracy: 11.8%
-- Repetition: 14
---Constructed labels: _7____ARLL89FG4OP79D_C_672FPG6__Q_9W47__RXLX99VIEFU6_5LGZ_R_F_M8XL8_XDQR15FN__T8__HRJ
---True labels       : EAEVQTDOJG8RBRGONCEDHCTUIDBPUHMEM6OUXOCFOUKWA4VJEFRZROLHYNQDW_EKTLBWXEPOUIKZERYOOTHQI
---Accuracy: 15.3%
-- Repetition: 15
---Constructed labels: L7_X__ARRL89FG4OP79D_C_672FPMH__Q_QU47__RXLX99VIEFX6_5LGZXR_F_M8XL8XXDQR15FN__T8__HRJ
---True labels       : EAEVQTDOJG8RBRGONCEDHCTUIDBPUHMEM6OUXOCFOUKWA4VJEFRZROLHYNQDW_EKTLBWXEPOUIKZERYOOTHQI
---Accuracy: 17.6%
==== End classifier: AdaBoostClassifier
==== Start classifier: KNeighborsClassifier
-- Repetition: 1
---Constructed labels: __E8__LR__8_F6H__7__L_XX9R68___9__7WX_74F__RL_6___8__1_J_X9F__F96_FLX9R_624_9__RR7X_L
---True labels       : EAEVQTDOJG8RBRGONCEDHCTUIDBPUHMEM6OUXOCFOUKWA4VJEFRZROLHYNQDW_EKTLBWXEPOUIKZERYOOTHQI
---Accuracy: 5.9%
-- Repetition: 2
---Constructed labels: _538X_LR_98_CQHRR8__L__X9RB8X8_Q5_OWX774F_LXK_6X898_R1_8_X9F9_EWTLFIX9OR623_ER_RNUTRL
---True labels       : EAEVQTDOJG8RBRGONCEDHCTUIDBPUHMEM6OUXOCFOUKWA4VJEFRZROLHYNQDW_EKTLBWXEPOUIKZERYOOTHQI
---Accuracy: 14.1%
-- Repetition: 3
---Constructed labels: 4538X_LR_98_CQHON2_RL__X9_B8X8FQX4OWX7I4F_HTK46V8983X4_8XX7F9_E9TLBWXEOO723_ER_ROUZRL
---True labels       : EAEVQTDOJG8RBRGONCEDHCTUIDBPUHMEM6OUXOCFOUKWA4VJEFRZROLHYNQDW_EKTLBWXEPOUIKZERYOOTHQI
---Accuracy: 22.4%
-- Repetition: 4
---Constructed labels: F_38XXJO_98_CRGOB1_4L__X97N8X8G3S4PWX_C4R6HWK46V99_341_8SX339_EKTLBWXEOO7IZ6E__ROTZRK
---True labels       : EAEVQTDOJG8RBRGONCEDHCTUIDBPUHMEM6OUXOCFOUKWA4VJEFRZROLHYNQDW_EKTLBWXEPOUIKZERYOOTHQI
---Accuracy: 27.1%
-- Repetition: 5
---Constructed labels: F_38W_DOR98_CRGOB294LF_X97Z8X8K3S4PWXXC4NTHWK46V84_341_8WT339_WKTLBWXEPOIIK6E__ORTZQK
---True labels       : EAEVQTDOJG8RBRGONCEDHCTUIDBPUHMEM6OUXOCFOUKWA4VJEFRZROLHYNQDW_EKTLBWXEPOUIKZERYOOTHQI
---Accuracy: 30.6%
-- Repetition: 6
---Constructed labels: F_E8W_DORK8_CRGOB294LF8X9CZ8X8K3S_P3XXC4NWHWK46VD3_941_6WT339_WKTLEWXEPRIIK6ER4ORTZQK
---True labels       : EAEVQTDOJG8RBRGONCEDHCTUIDBPUHMEM6OUXOCFOUKWA4VJEFRZROLHYNQDW_EKTLBWXEPOUIKZERYOOTHQI
---Accuracy: 30.6%
-- Repetition: 7
---Constructed labels: F_EVW_DORK8_BRGOB292HF8T7CZ8U8QES6O9XWC4OWHWK48VD3_94O_HWT328_WKTLEUXEPRIIKZER4ORTZQK
---True labels       : EAEVQTDOJG8RBRGONCEDHCTUIDBPUHMEM6OUXOCFOUKWA4VJEFRZROLHYNQDW_EKTLBWXEPOUIKZERYOOTHQI
---Accuracy: 42.4%
-- Repetition: 8
---Constructed labels: F_EVWXDORK8_BRGOBD92LC8T7CZPU8QEM6O9XWC4PWJWK48VD3_9RO_T3NQ28_EKTL3UXEPRIIKZER4OOTZQK
---True labels       : EAEVQTDOJG8RBRGONCEDHCTUIDBPUHMEM6OUXOCFOUKWA4VJEFRZROLHYNQDW_EKTLBWXEPOUIKZERYOOTHQI
---Accuracy: 48.2%
-- Repetition: 9
---Constructed labels: F_EVWXDORK8_BRGOBD82LC8T7CNPUJ9EM6O9XWC4OWKWK48VD3_QROLT3NQD8_EKTLZUXEPOTIKZER4OOTZQK
---True labels       : EAEVQTDOJG8RBRGONCEDHCTUIDBPUHMEM6OUXOCFOUKWA4VJEFRZROLHYNQDW_EKTLBWXEPOUIKZERYOOTHQI
---Accuracy: 54.1%
-- Repetition: 10
---Constructed labels: F_EVWXDOPK8_CRGOBDE2LC8T7CNVVJ9EM6O9XWC4OWKWE48VE3_QROLH3NQD8_EKTLZWXEPOUIKZER4OOTZQK
---True labels       : EAEVQTDOJG8RBRGONCEDHCTUIDBPUHMEM6OUXOCFOUKWA4VJEFRZROLHYNQDW_EKTLBWXEPOUIKZERYOOTHQI
---Accuracy: 56.5%
-- Repetition: 11
---Constructed labels: FFEVWXDOPK8_FRGONDEDHC8T7CBXUJ9EM6O9XOC4OWKWE48VE3RQROLHYNQD8LEKTLZWXEPOTIKZER4OOTZRK
---True labels       : EAEVQTDOJG8RBRGONCEDHCTUIDBPUHMEM6OUXOCFOUKWA4VJEFRZROLHYNQDW_EKTLBWXEPOUIKZERYOOTHQI
---Accuracy: 62.4%
-- Repetition: 12
---Constructed labels: FFEVWXDOPG8_FRGONDEDHC8T7CBXUJ5EM6O9XOC4OXKWE48VD4RQ4OLHYNQ28LEKTLZWXEPOTIKZER4OOTZNK
---True labels       : EAEVQTDOJG8RBRGONCEDHCTUIDBPUHMEM6OUXOCFOUKWA4VJEFRZROLHYNQDW_EKTLBWXEPOUIKZERYOOTHQI
---Accuracy: 60.0%
-- Repetition: 13
---Constructed labels: FFEVWXDOPG8_FRGONDEDHC8U7CBXUJ5EM6O9XOC_OXKWE46VD4RZ4OLHYNQ28LEKTLZWXEPOTIKZER4OOTZNK
---True labels       : EAEVQTDOJG8RBRGONCEDHCTUIDBPUHMEM6OUXOCFOUKWA4VJEFRZROLHYNQDW_EKTLBWXEPOUIKZERYOOTHQI
---Accuracy: 62.4%
-- Repetition: 14
---Constructed labels: BFEVWXDOPG8_ARGONCEDHCXU7CBRUIA9M6O9XOC_OUKWE46VD4RZROLHYNQ28LEKTLZWXEPOTIKZER4OOTZNK
---True labels       : EAEVQTDOJG8RBRGONCEDHCTUIDBPUHMEM6OUXOCFOUKWA4VJEFRZROLHYNQDW_EKTLBWXEPOUIKZERYOOTHQI
---Accuracy: 64.7%
-- Repetition: 15
---Constructed labels: BA3VWTDOPI8_ARGONCEDHCXU7CBRUIM9M6O9XOC_OUKWE46VD4RZROLHYNQ29LEKTLZWXEPOTIKZER4ROTZNK
---True labels       : EAEVQTDOJG8RBRGONCEDHCTUIDBPUHMEM6OUXOCFOUKWA4VJEFRZROLHYNQDW_EKTLBWXEPOUIKZERYOOTHQI
---Accuracy: 64.7%
==== End classifier: KNeighborsClassifier
==== Start classifier: DecisionTreeClassifier
-- Repetition: 1
---Constructed labels: E5EV__IO8K8S9R_R679FHFXUQD698HME_7_USM7FRUK_A4_8FRR4R7LHYN9F9_3KXRFWXERO7IK4W41OOVHQI
---True labels       : EAEVQTDOJG8RBRGONCEDHCTUIDBPUHMEM6OUXOCFOUKWA4VJEFRZROLHYNQDW_EKTLBWXEPOUIKZERYOOTHQI
---Accuracy: 43.5%
-- Repetition: 2
---Constructed labels: EAEVXVJO8K8XBR8ON_9DHFXUQDBVVHME79RUTOCFRUKWA498FFRZROLHY6QDW_EKWRFVXEROUIK4W417OVHQI
---True labels       : EAEVQTDOJG8RBRGONCEDHCTUIDBPUHMEM6OUXOCFOUKWA4VJEFRZROLHYNQDW_EKTLBWXEPOUIKZERYOOTHQI
---Accuracy: 60.0%
-- Repetition: 3
---Constructed labels: EAEV_TJO8G8RBRJON1FDHCTU9DBJUHQE56RUTOCFO1KWA4V8FFR4ROLT16QD9_EKTLBWXEROUIKZERY7OVHQI
---True labels       : EAEVQTDOJG8RBRGONCEDHCTUIDBPUHMEM6OUXOCFOUKWA4VJEFRZROLHYNQDW_EKTLBWXEPOUIKZERYOOTHQI
---Accuracy: 72.9%
-- Repetition: 4
---Constructed labels: EAEVRTDO8G8XBRJON1EDHCTU9DBJUHMEM6RUTOCFOUKWA4VVEFRZROLH1NQDW_EKTLBWXEPOUIKZERY7OTHQI
---True labels       : EAEVQTDOJG8RBRGONCEDHCTUIDBPUHMEM6OUXOCFOUKWA4VJEFRZROLHYNQDW_EKTLBWXEPOUIKZERYOOTHQI
---Accuracy: 85.9%
-- Repetition: 5
---Constructed labels: EAEVQTDOJG8RBRGONCEDHCTUIDBPUHMEO6RUXOCFOUKWA4VVEFRZROLH1NQDW_EKTLBWXEPOUIKZERY7OTHQI
---True labels       : EAEVQTDOJG8RBRGONCEDHCTUIDBPUHMEM6OUXOCFOUKWA4VJEFRZROLHYNQDW_EKTLBWXEPOUIKZERYOOTHQI
---Accuracy: 94.1%
-- Repetition: 6
---Constructed labels: EAEVQTDOJG8RBRGONCEDHCTUIDBPUHMEM6OUXOCFOUKWA4VJEFRZROLTYNQDW_EKTLBWXEPOUIKZERY7OTHQI
---True labels       : EAEVQTDOJG8RBRGONCEDHCTUIDBPUHMEM6OUXOCFOUKWA4VJEFRZROLHYNQDW_EKTLBWXEPOUIKZERYOOTHQI
---Accuracy: 97.6%
-- Repetition: 7
---Constructed labels: EAEVQTDOJG8RBRGONCEDHCTUIDBPUHMEM6OUXOCFOUKWA4VJEFRZROLTYNQDW_EKTLBWXEPOUIKZERYOOTHQI
---True labels       : EAEVQTDOJG8RBRGONCEDHCTUIDBPUHMEM6OUXOCFOUKWA4VJEFRZROLHYNQDW_EKTLBWXEPOUIKZERYOOTHQI
---Accuracy: 98.8%
-- Repetition: 8
---Constructed labels: EAEVQTDOJG8RBRGONCEDHCTUIDBPUHMEM6OUXOCFOUKWA4VJEFRZROLTYNQDW_EKTLBWXEPOUIKZERYOOTHQI
---True labels       : EAEVQTDOJG8RBRGONCEDHCTUIDBPUHMEM6OUXOCFOUKWA4VJEFRZROLHYNQDW_EKTLBWXEPOUIKZERYOOTHQI
---Accuracy: 98.8%
-- Repetition: 9
---Constructed labels: EAEVQTDOJG8RBRGONCEDHCTUIDBPUHMEM6OUXOCFOUKWA4VJEFRZROLHYNQDW_EKTLBWXEPOUIKZERYOOTHQI
---True labels       : EAEVQTDOJG8RBRGONCEDHCTUIDBPUHMEM6OUXOCFOUKWA4VJEFRZROLHYNQDW_EKTLBWXEPOUIKZERYOOTHQI
---Accuracy: 100.0%
-- Repetition: 10
---Constructed labels: EAEVQTDOJG8RBRGONCEDHCTUIDBPUHMEM6OUXOCFOUKWA4VJEFRZROLHYNQDW_EKTLBWXEPOUIKZERYOOTHQI
---True labels       : EAEVQTDOJG8RBRGONCEDHCTUIDBPUHMEM6OUXOCFOUKWA4VJEFRZROLHYNQDW_EKTLBWXEPOUIKZERYOOTHQI
---Accuracy: 100.0%
-- Repetition: 11
---Constructed labels: EAEVQTDOJG8RBRGONCEDHCTUIDBPUHMEM6OUXOCFOUKWA4VJEFRZROLHYNQDW_EKTLBWXEPOUIKZERYOOTHQI
---True labels       : EAEVQTDOJG8RBRGONCEDHCTUIDBPUHMEM6OUXOCFOUKWA4VJEFRZROLHYNQDW_EKTLBWXEPOUIKZERYOOTHQI
---Accuracy: 100.0%
-- Repetition: 12
---Constructed labels: EAEVQTDOJG8RBRGONCEDHCTUIDBPUHMEM6OUXOCFOUKWA4VJEFRZROLHYNQDW_EKTLBWXEPOUIKZERYOOTHQI
---True labels       : EAEVQTDOJG8RBRGONCEDHCTUIDBPUHMEM6OUXOCFOUKWA4VJEFRZROLHYNQDW_EKTLBWXEPOUIKZERYOOTHQI
---Accuracy: 100.0%
-- Repetition: 13
---Constructed labels: EAEVQTDOJG8RBRGONCEDHCTUIDBPUHMEM6OUXOCFOUKWA4VJEFRZROLHYNQDW_EKTLBWXEPOUIKZERYOOTHQI
---True labels       : EAEVQTDOJG8RBRGONCEDHCTUIDBPUHMEM6OUXOCFOUKWA4VJEFRZROLHYNQDW_EKTLBWXEPOUIKZERYOOTHQI
---Accuracy: 100.0%
-- Repetition: 14
---Constructed labels: EAEVQTDOJG8RBRGONCEDHCTUIDBPUHMEM6OUXOCFOUKWA4VJEFRZROLHYNQDW_EKTLBWXEPOUIKZERYOOTHQI
---True labels       : EAEVQTDOJG8RBRGONCEDHCTUIDBPUHMEM6OUXOCFOUKWA4VJEFRZROLHYNQDW_EKTLBWXEPOUIKZERYOOTHQI
---Accuracy: 100.0%
-- Repetition: 15
---Constructed labels: EAEVQTDOJG8RBRGONCEDHCTUIDBPUHMEM6OUXOCFOUKWA4VJEFRZROLHYNQDW_EKTLBWXEPOUIKZERYOOTHQI
---True labels       : EAEVQTDOJG8RBRGONCEDHCTUIDBPUHMEM6OUXOCFOUKWA4VJEFRZROLHYNQDW_EKTLBWXEPOUIKZERYOOTHQI
---Accuracy: 100.0%
==== End classifier: DecisionTreeClassifier
==== Start classifier: RandomForestClassifier
-- Repetition: 1
---Constructed labels: E_EV__FO8L8_BR_R679FHFXUL_687LME__7UXR7_RUKX54X8FFR4R7LHYN9F9_EKXLFXXERO7IK69_YOOXH_I
---True labels       : EAEVQTDOJG8RBRGONCEDHCTUIDBPUHMEM6OUXOCFOUKWA4VJEFRZROLHYNQDW_EKTLBWXEPOUIKZERYOOTHQI
---Accuracy: 43.5%
-- Repetition: 2
---Constructed labels: EAEV_TFOJG8RBR_ON79DHFXUL8B8UHME56OUXOC_RUKWA4V8FFRZROLHYNQDW_EKTLFXXEPOUIK6ERYOOTH9I
---True labels       : EAEVQTDOJG8RBRGONCEDHCTUIDBPUHMEM6OUXOCFOUKWA4VJEFRZROLHYNQDW_EKTLBWXEPOUIKZERYOOTHQI
---Accuracy: 77.6%
-- Repetition: 3
---Constructed labels: EAEVRTDOJG8RBRLONC9DHCTULDB8UHME56OUXOCFOUKWA4V8EFRZROLHYNQDW_EKTLBWXEPOUIK6ERYOOTHQI
---True labels       : EAEVQTDOJG8RBRGONCEDHCTUIDBPUHMEM6OUXOCFOUKWA4VJEFRZROLHYNQDW_EKTLBWXEPOUIKZERYOOTHQI
---Accuracy: 90.6%
-- Repetition: 4
---Constructed labels: EAEVRTDOJG8RBRGONC9DHCTUIDBPUHMEM6OUXOCFOUKWA4V8EFRZROLHYNQDW_EKTLBWXEPOUIKZERYOOTHQI
---True labels       : EAEVQTDOJG8RBRGONCEDHCTUIDBPUHMEM6OUXOCFOUKWA4VJEFRZROLHYNQDW_EKTLBWXEPOUIKZERYOOTHQI
---Accuracy: 96.5%
-- Repetition: 5
---Constructed labels: EAEVQTDOJG8RBRGONCEDHCTUIDBPUHMEM6OUXOCFOUKWA4VJEFRZROLHYNQDW_EKTLBWXEPOUIKZERYOOTHQI
---True labels       : EAEVQTDOJG8RBRGONCEDHCTUIDBPUHMEM6OUXOCFOUKWA4VJEFRZROLHYNQDW_EKTLBWXEPOUIKZERYOOTHQI
---Accuracy: 100.0%
-- Repetition: 6
---Constructed labels: EAEVQTDOJG8RBRGONCEDHCTUIDBPUHMEM6OUXOCFOUKWA4VJEFRZROLHYNQDW_EKTLBWXEPOUIKZERYOOTHQI
---True labels       : EAEVQTDOJG8RBRGONCEDHCTUIDBPUHMEM6OUXOCFOUKWA4VJEFRZROLHYNQDW_EKTLBWXEPOUIKZERYOOTHQI
---Accuracy: 100.0%
-- Repetition: 7
---Constructed labels: EAEVQTDOJG8RBRGONCEDHCTUIDBPUHMEM6OUXOCFOUKWA4VJEFRZROLHYNQDW_EKTLBWXEPOUIKZERYOOTHQI
---True labels       : EAEVQTDOJG8RBRGONCEDHCTUIDBPUHMEM6OUXOCFOUKWA4VJEFRZROLHYNQDW_EKTLBWXEPOUIKZERYOOTHQI
---Accuracy: 100.0%
-- Repetition: 8
---Constructed labels: EAEVQTDOJG8RBRGONCEDHCTUIDBPUHMEM6OUXOCFOUKWA4VJEFRZROLHYNQDW_EKTLBWXEPOUIKZERYOOTHQI
---True labels       : EAEVQTDOJG8RBRGONCEDHCTUIDBPUHMEM6OUXOCFOUKWA4VJEFRZROLHYNQDW_EKTLBWXEPOUIKZERYOOTHQI
---Accuracy: 100.0%
-- Repetition: 9
---Constructed labels: EAEVQTDOJG8RBRGONCEDHCTUIDBPUHMEM6OUXOCFOUKWA4VJEFRZROLHYNQDW_EKTLBWXEPOUIKZERYOOTHQI
---True labels       : EAEVQTDOJG8RBRGONCEDHCTUIDBPUHMEM6OUXOCFOUKWA4VJEFRZROLHYNQDW_EKTLBWXEPOUIKZERYOOTHQI
---Accuracy: 100.0%
-- Repetition: 10
---Constructed labels: EAEVQTDOJG8RBRGONCEDHCTUIDBPUHMEM6OUXOCFOUKWA4VJEFRZROLHYNQDW_EKTLBWXEPOUIKZERYOOTHQI
---True labels       : EAEVQTDOJG8RBRGONCEDHCTUIDBPUHMEM6OUXOCFOUKWA4VJEFRZROLHYNQDW_EKTLBWXEPOUIKZERYOOTHQI
---Accuracy: 100.0%
-- Repetition: 11
---Constructed labels: EAEVQTDOJG8RBRGONCEDHCTUIDBPUHMEM6OUXOCFOUKWA4VJEFRZROLHYNQDW_EKTLBWXEPOUIKZERYOOTHQI
---True labels       : EAEVQTDOJG8RBRGONCEDHCTUIDBPUHMEM6OUXOCFOUKWA4VJEFRZROLHYNQDW_EKTLBWXEPOUIKZERYOOTHQI
---Accuracy: 100.0%
-- Repetition: 12
---Constructed labels: EAEVQTDOJG8RBRGONCEDHCTUIDBPUHMEM6OUXOCFOUKWA4VJEFRZROLHYNQDW_EKTLBWXEPOUIKZERYOOTHQI
---True labels       : EAEVQTDOJG8RBRGONCEDHCTUIDBPUHMEM6OUXOCFOUKWA4VJEFRZROLHYNQDW_EKTLBWXEPOUIKZERYOOTHQI
---Accuracy: 100.0%
-- Repetition: 13
---Constructed labels: EAEVQTDOJG8RBRGONCEDHCTUIDBPUHMEM6OUXOCFOUKWA4VJEFRZROLHYNQDW_EKTLBWXEPOUIKZERYOOTHQI
---True labels       : EAEVQTDOJG8RBRGONCEDHCTUIDBPUHMEM6OUXOCFOUKWA4VJEFRZROLHYNQDW_EKTLBWXEPOUIKZERYOOTHQI
---Accuracy: 100.0%
-- Repetition: 14
---Constructed labels: EAEVQTDOJG8RBRGONCEDHCTUIDBPUHMEM6OUXOCFOUKWA4VJEFRZROLHYNQDW_EKTLBWXEPOUIKZERYOOTHQI
---True labels       : EAEVQTDOJG8RBRGONCEDHCTUIDBPUHMEM6OUXOCFOUKWA4VJEFRZROLHYNQDW_EKTLBWXEPOUIKZERYOOTHQI
---Accuracy: 100.0%
-- Repetition: 15
---Constructed labels: EAEVQTDOJG8RBRGONCEDHCTUIDBPUHMEM6OUXOCFOUKWA4VJEFRZROLHYNQDW_EKTLBWXEPOUIKZERYOOTHQI
---True labels       : EAEVQTDOJG8RBRGONCEDHCTUIDBPUHMEM6OUXOCFOUKWA4VJEFRZROLHYNQDW_EKTLBWXEPOUIKZERYOOTHQI
---Accuracy: 100.0%
==== End classifier: RandomForestClassifier
==== Start classifier: LinearDiscriminantAnalysis_svd_Shrinkage:None
-- Repetition: 1
---Constructed labels: __________V____R_________F___R_____X_________________________9__________7______7_____
---True labels       : EAEVQTDOJG8RBRGONCEDHCTUIDBPUHMEM6OUXOCFOUKWA4VJEFRZROLHYNQDW_EKTLBWXEPOUIKZERYOOTHQI
---Accuracy: 0.0%
-- Repetition: 2
---Constructed labels: __________V____R_________F_7_R_____X_________________________9__________7______7_____
---True labels       : EAEVQTDOJG8RBRGONCEDHCTUIDBPUHMEM6OUXOCFOUKWA4VJEFRZROLHYNQDW_EKTLBWXEPOUIKZERYOOTHQI
---Accuracy: 0.0%
-- Repetition: 3
---Constructed labels: __________V____R_________F_77R____LX___________________5_____9X__L______7______7_____
---True labels       : EAEVQTDOJG8RBRGONCEDHCTUIDBPUHMEM6OUXOCFOUKWA4VJEFRZROLHYNQDW_EKTLBWXEPOUIKZERYOOTHQI
---Accuracy: 1.2%
-- Repetition: 4
---Constructed labels: __________2____R_________F_77R____LX__________X________5_____3___L______7______7_____
---True labels       : EAEVQTDOJG8RBRGONCEDHCTUIDBPUHMEM6OUXOCFOUKWA4VJEFRZROLHYNQDW_EKTLBWXEPOUIKZERYOOTHQI
---Accuracy: 1.2%
-- Repetition: 5
---Constructed labels: __________W____R_________F_77R____LX__________X________5_6R__36__L__F___7____R_7_____
---True labels       : EAEVQTDOJG8RBRGONCEDHCTUIDBPUHMEM6OUXOCFOUKWA4VJEFRZROLHYNQDW_EKTLBWXEPOUIKZERYOOTHQI
---Accuracy: 2.4%
-- Repetition: 6
---Constructed labels: __________39___R_________F_77R____LX__________X________5_6R__36__L__F___7____R_7_____
---True labels       : EAEVQTDOJG8RBRGONCEDHCTUIDBPUHMEM6OUXOCFOUKWA4VJEFRZROLHYNQDW_EKTLBWXEPOUIKZERYOOTHQI
---Accuracy: 2.4%
-- Repetition: 7
---Constructed labels: __________39___R_________F_77R____LX__________X________5_6R__36__L__F___7____R_7_____
---True labels       : EAEVQTDOJG8RBRGONCEDHCTUIDBPUHMEM6OUXOCFOUKWA4VJEFRZROLHYNQDW_EKTLBWXEPOUIKZERYOOTHQI
---Accuracy: 2.4%
-- Repetition: 8
---Constructed labels: __________W9___R_________F_77R____KX__________X________5_6R__36__L__F___7____R_7_____
---True labels       : EAEVQTDOJG8RBRGONCEDHCTUIDBPUHMEM6OUXOCFOUKWA4VJEFRZROLHYNQDW_EKTLBWXEPOUIKZERYOOTHQI
---Accuracy: 2.4%
-- Repetition: 9
---Constructed labels: _________LW94__R_________F_77R____KX__________X________5_6R__3___L__F___7____R_7_____
---True labels       : EAEVQTDOJG8RBRGONCEDHCTUIDBPUHMEM6OUXOCFOUKWA4VJEFRZROLHYNQDW_EKTLBWXEPOUIKZERYOOTHQI
---Accuracy: 2.4%
-- Repetition: 10
---Constructed labels: _________LW94__R_________F_77R____KX__________X_9______5_6R__3F_6L__F___7____R_7_____
---True labels       : EAEVQTDOJG8RBRGONCEDHCTUIDBPUHMEM6OUXOCFOUKWA4VJEFRZROLHYNQDW_EKTLBWXEPOUIKZERYOOTHQI
---Accuracy: 2.4%
-- Repetition: 11
---Constructed labels: 9________L394__R_________F__7R____KX__________U_9______5_6R__3L_6L__F___7____R_7____F
---True labels       : EAEVQTDOJG8RBRGONCEDHCTUIDBPUHMEM6OUXOCFOUKWA4VJEFRZROLHYNQDW_EKTLBWXEPOUIKZERYOOTHQI
---Accuracy: 2.4%
-- Repetition: 12
---Constructed labels: 9________L394__R_________F__7R___8KX__________U_9______5_6R__3L_6L__F___7____R_7____F
---True labels       : EAEVQTDOJG8RBRGONCEDHCTUIDBPUHMEM6OUXOCFOUKWA4VJEFRZROLHYNQDW_EKTLBWXEPOUIKZERYOOTHQI
---Accuracy: 2.4%
-- Repetition: 13
---Constructed labels: 9________L394__R_________F__7R___8KX__________U_9______5_6R__3L_6L__F___7____R_7____F
---True labels       : EAEVQTDOJG8RBRGONCEDHCTUIDBPUHMEM6OUXOCFOUKWA4VJEFRZROLHYNQDW_EKTLBWXEPOUIKZERYOOTHQI
---Accuracy: 2.4%
-- Repetition: 14
---Constructed labels: 9________L394__R_________F__7R__R8KXL_________U_9______5_6R__3L_6L__F___7____R_7____F
---True labels       : EAEVQTDOJG8RBRGONCEDHCTUIDBPUHMEM6OUXOCFOUKWA4VJEFRZROLHYNQDW_EKTLBWXEPOUIKZERYOOTHQI
---Accuracy: 2.4%
-- Repetition: 15
---Constructed labels: 9________L394__R__4______F__7R__R8KXL_________U_9______5_6R__3L_6L__F___7____R_7____F
---True labels       : EAEVQTDOJG8RBRGONCEDHCTUIDBPUHMEM6OUXOCFOUKWA4VJEFRZROLHYNQDW_EKTLBWXEPOUIKZERYOOTHQI
---Accuracy: 2.4%
==== End classifier: LinearDiscriminantAnalysis_svd_Shrinkage:None
==== Start classifier: LinearDiscriminantAnalysis_lsqr_Shrinkage:True
-- Repetition: 1
---Constructed labels: _6_X2_4FZ__X4_89KK6X7_6_WX93_4RR_J_4__64_JW_FR_89_3K_R___9_N____9_K9_KLQ7_R591_7___9W
---True labels       : EAEVQTDOJG8RBRGONCEDHCTUIDBPUHMEM6OUXOCFOUKWA4VJEFRZROLHYNQDW_EKTLBWXEPOUIKZERYOOTHQI
---Accuracy: 1.2%
-- Repetition: 2
---Constructed labels: 48_XPX49Z__X4X69JK6X7_6_3X3ZF_RR_JQ46_NF1JWXFL389_QKR9_4_92R___18_Q9_9LN79Q5_I_WX_R9K
---True labels       : EAEVQTDOJG8RBRGONCEDHCTUIDBPUHMEM6OUXOCFOUKWA4VJEFRZROLHYNQDW_EKTLBWXEPOUIKZERYOOTHQI
---Accuracy: 3.5%
-- Repetition: 3
---Constructed labels: R68XQW49ZI7T4_N9JJ6X__6XDX944_LR_JQ46FTF1P3WFL3894QKPR_V_9OR_6_O8_R4_KLN75P__I_QX4R9K
---True labels       : EAEVQTDOJG8RBRGONCEDHCTUIDBPUHMEM6OUXOCFOUKWA4VJEFRZROLHYNQDW_EKTLBWXEPOUIKZERYOOTHQI
---Accuracy: 3.5%
-- Repetition: 4
---Constructed labels: L68VNW39ZO1T4_H9JJ6X8_6LKF944_IR_J3R6FNRZP3EFLW594RKPR_6G91__RRO8_R4_KLN7AP_FIXUX4F9K
---True labels       : EAEVQTDOJG8RBRGONCEDHCTUIDBPUHMEM6OUXOCFOUKWA4VJEFRZROLHYNQDW_EKTLBWXEPOUIKZERYOOTHQI
---Accuracy: 2.4%
-- Repetition: 5
---Constructed labels: L68VQ339Z11T4UH9JJHX866LKF9Z4_KRRJ3R_JNRZRWEFLT594RKRR_VG8O__4_QV_R4_KLN7AQLFIXWX4F9K
---True labels       : EAEVQTDOJG8RBRGONCEDHCTUIDBPUHMEM6OUXOCFOUKWA4VJEFRZROLHYNQDW_EKTLBWXEPOUIKZERYOOTHQI
---Accuracy: 4.7%
-- Repetition: 6
---Constructed labels: LB88P3W1GO1N4UJ9JIHX8_6LHA86F_HRRJ4R_JNRZRWEF4T593RKRR_VG9MR_RXQ84R48KLN7SQLFIXWX449E
---True labels       : EAEVQTDOJG8RBRGONCEDHCTUIDBPUHMEM6OUXOCFOUKWA4VJEFRZROLHYNQDW_EKTLBWXEPOUIKZERYOOTHQI
---Accuracy: 3.5%
-- Repetition: 7
---Constructed labels: LD8VV3W1GIOR4UJ9JIGF876LHA86F_NR_J4R_DTR4XWWFZTX93RKRRF8G9MR_RX184R4VKLN7WQLFIXUX4YWE
---True labels       : EAEVQTDOJG8RBRGONCEDHCTUIDBPUHMEM6OUXOCFOUKWA4VJEFRZROLHYNQDW_EKTLBWXEPOUIKZERYOOTHQI
---Accuracy: 5.9%
-- Repetition: 8
---Constructed labels: FB8V24W3GGOR4UJ9JIHF67TLVA2NF_NR_JKR6DNR4RWWFZTX93RHRMFT59MRXFX1VLR4XKLB7WQX_7_IU4ZWE
---True labels       : EAEVQTDOJG8RBRGONCEDHCTUIDBPUHMEM6OUXOCFOUKWA4VJEFRZROLHYNQDW_EKTLBWXEPOUIKZERYOOTHQI
---Accuracy: 10.6%
-- Repetition: 9
---Constructed labels: FB8V23W3JGUR4XJ5JIHB6CTLUADRR_RX_JKR6KNR4RWWFHT4E3RHRAIT59MR_FXYVLR4XKLP7WPX_I6UU4ZWK
---True labels       : EAEVQTDOJG8RBRGONCEDHCTUIDBPUHMEM6OUXOCFOUKWA4VJEFRZROLHYNQDW_EKTLBWXEPOUIKZERYOOTHQI
---Accuracy: 14.1%
-- Repetition: 10
---Constructed labels: FD9V23X3JGUR4XJ5JIHD6CTXVADRR_OX_JIR_KNR4RWWFHTVE1RHRMIT59MR_EXMVLRLXKLP7WPI4I6UULZWO
---True labels       : EAEVQTDOJG8RBRGONCEDHCTUIDBPUHMEM6OUXOCFOUKWA4VJEFRZROLHYNQDW_EKTLBWXEPOUIKZERYOOTHQI
---Accuracy: 15.3%
-- Repetition: 11
---Constructed labels: FD9V83X3JG1R4UKOJI626CTXVADRF_OX_JIRJKNR4RWWFHTJE1RHRMIT59MR9EXMVLR_XKJP7WQIFI6UULTWI
---True labels       : EAEVQTDOJG8RBRGONCEDHCTUIDBPUHMEM6OUXOCFOUKWA4VJEFRZROLHYNQDW_EKTLBWXEPOUIKZERYOOTHQI
---Accuracy: 17.6%
-- Repetition: 12
---Constructed labels: FD9V84XZJG1R4XKOJI626CTX8ABRF_OF_JIRJKO_4RWWFZTJE1RBRMIT59MR9EFMVLR_XKJP7WQIF76UU4TWI
---True labels       : EAEVQTDOJG8RBRGONCEDHCTUIDBPUHMEM6OUXOCFOUKWA4VJEFRZROLHYNQDW_EKTLBWXEPOUIKZERYOOTHQI
---Accuracy: 18.8%
-- Repetition: 13
---Constructed labels: FD9V84XZJG1R4XKOXI62_C6X8ABRD_OX_JIPJIRRZRWWFZTJE7RBRMITY9MR9EFMVLR_XKJP7WQIF76UU4TWI
---True labels       : EAEVQTDOJG8RBRGONCEDHCTUIDBPUHMEM6OUXOCFOUKWA4VJEFRZROLHYNQDW_EKTLBWXEPOUIKZERYOOTHQI
---Accuracy: 18.8%
-- Repetition: 14
---Constructed labels: FDEV84XZJG1RFXKOLIH2_CTL6ABRD4OX_JIQJITRZRWWFZTJE6RBRMI6Y9MR5EFYVLM_XKJPU3QIF76UUXTPI
---True labels       : EAEVQTDOJG8RBRGONCEDHCTUIDBPUHMEM6OUXOCFOUKWA4VJEFRZROLHYNQDW_EKTLBWXEPOUIKZERYOOTHQI
---Accuracy: 22.4%
-- Repetition: 15
---Constructed labels: FDEV24XZJI1RFXKOXIH2_CTL6ABRDDOXRJ1QJIURZRWWF4VJE7RBRGI65WMR9EXYVLM_XKJPU9Q1F75UU4TQI
---True labels       : EAEVQTDOJG8RBRGONCEDHCTUIDBPUHMEM6OUXOCFOUKWA4VJEFRZROLHYNQDW_EKTLBWXEPOUIKZERYOOTHQI
---Accuracy: 23.5%
==== End classifier: LinearDiscriminantAnalysis_lsqr_Shrinkage:True
==== Start classifier: LinearDiscriminantAnalysis_lsqr_Shrinkage:False
-- Repetition: 1
---Constructed labels: __________V____R_________F___R_____X_________________________9__________7______7_____
---True labels       : EAEVQTDOJG8RBRGONCEDHCTUIDBPUHMEM6OUXOCFOUKWA4VJEFRZROLHYNQDW_EKTLBWXEPOUIKZERYOOTHQI
---Accuracy: 0.0%
-- Repetition: 2
---Constructed labels: __________V____R_________F_7_R_____X_________________________9__________7______7_____
---True labels       : EAEVQTDOJG8RBRGONCEDHCTUIDBPUHMEM6OUXOCFOUKWA4VJEFRZROLHYNQDW_EKTLBWXEPOUIKZERYOOTHQI
---Accuracy: 0.0%
-- Repetition: 3
---Constructed labels: __________V____R_________F_77R____LX___________________5_____9X__L______7______7_____
---True labels       : EAEVQTDOJG8RBRGONCEDHCTUIDBPUHMEM6OUXOCFOUKWA4VJEFRZROLHYNQDW_EKTLBWXEPOUIKZERYOOTHQI
---Accuracy: 1.2%
-- Repetition: 4
---Constructed labels: __________2____R_________F_77R____LX__________X________5_____3___L______7______7_____
---True labels       : EAEVQTDOJG8RBRGONCEDHCTUIDBPUHMEM6OUXOCFOUKWA4VJEFRZROLHYNQDW_EKTLBWXEPOUIKZERYOOTHQI
---Accuracy: 1.2%
-- Repetition: 5
---Constructed labels: __________W____R_________F_77R____LX__________X________5_6R__36__L__F___7____R_7_____
---True labels       : EAEVQTDOJG8RBRGONCEDHCTUIDBPUHMEM6OUXOCFOUKWA4VJEFRZROLHYNQDW_EKTLBWXEPOUIKZERYOOTHQI
---Accuracy: 2.4%
-- Repetition: 6
---Constructed labels: __________39___R_________F_77R____LX__________X________5_6R__36__L__F___7____R_7_____
---True labels       : EAEVQTDOJG8RBRGONCEDHCTUIDBPUHMEM6OUXOCFOUKWA4VJEFRZROLHYNQDW_EKTLBWXEPOUIKZERYOOTHQI
---Accuracy: 2.4%
-- Repetition: 7
---Constructed labels: __________39___R_________F_77R____LX__________X________5_6R__36__L__F___7____R_7_____
---True labels       : EAEVQTDOJG8RBRGONCEDHCTUIDBPUHMEM6OUXOCFOUKWA4VJEFRZROLHYNQDW_EKTLBWXEPOUIKZERYOOTHQI
---Accuracy: 2.4%
-- Repetition: 8
---Constructed labels: __________W9___R_________F_77R____KX__________X________5_6R__36__L__F___7____R_7_____
---True labels       : EAEVQTDOJG8RBRGONCEDHCTUIDBPUHMEM6OUXOCFOUKWA4VJEFRZROLHYNQDW_EKTLBWXEPOUIKZERYOOTHQI
---Accuracy: 2.4%
-- Repetition: 9
---Constructed labels: _________LW94__R_________F_77R____KX__________X________5_6R__3___L__F___7____R_7_____
---True labels       : EAEVQTDOJG8RBRGONCEDHCTUIDBPUHMEM6OUXOCFOUKWA4VJEFRZROLHYNQDW_EKTLBWXEPOUIKZERYOOTHQI
---Accuracy: 2.4%
-- Repetition: 10
---Constructed labels: _________LW94__R_________F_77R____KX__________X_9______5_6R__3F_6L__F___7____R_7_____
---True labels       : EAEVQTDOJG8RBRGONCEDHCTUIDBPUHMEM6OUXOCFOUKWA4VJEFRZROLHYNQDW_EKTLBWXEPOUIKZERYOOTHQI
---Accuracy: 2.4%
-- Repetition: 11
---Constructed labels: 9________L394__R_________F__7R____KX__________U_9______5_6R__3L_6L__F___7____R_7____F
---True labels       : EAEVQTDOJG8RBRGONCEDHCTUIDBPUHMEM6OUXOCFOUKWA4VJEFRZROLHYNQDW_EKTLBWXEPOUIKZERYOOTHQI
---Accuracy: 2.4%
-- Repetition: 12
---Constructed labels: 9________L394__R_________F__7R___8KX__________U_9______5_6R__3L_6L__F___7____R_7____F
---True labels       : EAEVQTDOJG8RBRGONCEDHCTUIDBPUHMEM6OUXOCFOUKWA4VJEFRZROLHYNQDW_EKTLBWXEPOUIKZERYOOTHQI
---Accuracy: 2.4%
-- Repetition: 13
---Constructed labels: 9________L394__R_________F__7R___8KX__________U_9______5_6R__3L_6L__F___7____R_7____F
---True labels       : EAEVQTDOJG8RBRGONCEDHCTUIDBPUHMEM6OUXOCFOUKWA4VJEFRZROLHYNQDW_EKTLBWXEPOUIKZERYOOTHQI
---Accuracy: 2.4%
-- Repetition: 14
---Constructed labels: 9________L394__R_________F__7R__R8KXL_________U_9______5_6R__3L_6L__F___7____R_7____F
---True labels       : EAEVQTDOJG8RBRGONCEDHCTUIDBPUHMEM6OUXOCFOUKWA4VJEFRZROLHYNQDW_EKTLBWXEPOUIKZERYOOTHQI
---Accuracy: 2.4%
-- Repetition: 15
---Constructed labels: 9________L394__R__4______F__7R__R8KXL_________U_9______5_6R__3L_6L__F___7____R_7____F
---True labels       : EAEVQTDOJG8RBRGONCEDHCTUIDBPUHMEM6OUXOCFOUKWA4VJEFRZROLHYNQDW_EKTLBWXEPOUIKZERYOOTHQI
---Accuracy: 2.4%
==== End classifier: LinearDiscriminantAnalysis_lsqr_Shrinkage:False
==== Start classifier: QuadraticDiscriminantAnalysis
-- Repetition: 1
---Constructed labels: F_4X_R_Q__8R_X_P_E9_72_9__62UXRFE_RX_X7_5XK___X6___4_56J58R_9___5_F__ERR7__T9_8_O_H9_
---True labels       : EAEVQTDOJG8RBRGONCEDHCTUIDBPUHMEM6OUXOCFOUKWA4VJEFRZROLHYNQDW_EKTLBWXEPOUIKZERYOOTHQI
---Accuracy: 9.4%
-- Repetition: 2
---Constructed labels: L_4XRNFQLL8M_X7P_3_D7D_3_DF2U_RF96RX_U1_MXKWA_XH_8_4_O6J58Q8W__X5_EWXWPOO79TQ_8LO_H9L
---True labels       : EAEVQTDOJG8RBRGONCEDHCTUIDBPUHMEM6OUXOCFOUKWA4VJEFRZROLHYNQDW_EKTLBWXEPOUIKZERYOOTHQI
---Accuracy: 21.2%
-- Repetition: 3
---Constructed labels: F_XVQNFQLI8M_X7P6E_DGF_UXDX2ULRE96RX6OO_OXKWF4SH9_63XONJY8Q8W_EW6LEWXEPOOIKTER8LO_HQL
---True labels       : EAEVQTDOJG8RBRGONCEDHCTUIDBPUHMEM6OUXOCFOUKWA4VJEFRZROLHYNQDW_EKTLBWXEPOUIKZERYOOTHQI
---Accuracy: 38.8%
-- Repetition: 4
---Constructed labels: F5CVQKFQLI8MBR7ONE9DGFTUX2X2UL9F964X6OO_OX9WF4S89XZ3XONJY8Q8W_EK6LEWXEPOUI9TER8IO_HQL
---True labels       : EAEVQTDOJG8RBRGONCEDHCTUIDBPUHMEM6OUXOCFOUKWA4VJEFRZROLHYNQDW_EKTLBWXEPOUIKZERYOOTHQI
---Accuracy: 42.4%
-- Repetition: 5
---Constructed labels: 45CVQKFQII8MBR7ONC9DGFTUX2B2UKQEQ61X6OO_QX9WF4S89XZ3XMLJY6Q8W_EKTLEWXEPOUI9TER8IO6TQL
---True labels       : EAEVQTDOJG8RBRGONCEDHCTUIDBPUHMEM6OUXOCFOUKWA4VJEFRZROLHYNQDW_EKTLBWXEPOUIKZERYOOTHQI
---Accuracy: 44.7%
-- Repetition: 6
---Constructed labels: 45CVQHAQII8QBX5ONC9DGFTULDD2UKQEM61U6OC_QX9WFRS8EX43RMLVY6Q8W_EKHLEW4EPOUU9TER8IO6TQI
---True labels       : EAEVQTDOJG8RBRGONCEDHCTUIDBPUHMEM6OUXOCFOUKWA4VJEFRZROLHYNQDW_EKTLBWXEPOUIKZERYOOTHQI
---Accuracy: 45.9%
-- Repetition: 7
---Constructed labels: F5CVQHAOIJ8QBX5ORC9DGFTUL2B2UKQEM6OUXOC_QX9WF4WJEX43RMLVY6QDW_EKHLEW4EPOUUKTER8OO6HQI
---True labels       : EAEVQTDOJG8RBRGONCEDHCTUIDBPUHMEM6OUXOCFOUKWA4VJEFRZROLHYNQDW_EKTLBWXEPOUIKZERYOOTHQI
---Accuracy: 55.3%
-- Repetition: 8
---Constructed labels: F5CVQTFOKJ8QBX7ORC9DGFZULDB2UKMEM6OUXOC_OX9WFRWJEX41RMLTY6QDW_EKHLEWXEPOUUKTER8OO6HQL
---True labels       : EAEVQTDOJG8RBRGONCEDHCTUIDBPUHMEM6OUXOCFOUKWA4VJEFRZROLHYNQDW_EKTLBWXEPOUIKZERYOOTHQI
---Accuracy: 57.6%
-- Repetition: 9
---Constructed labels: F5CVQTFOJK8RBX7ONC9DGFTULDB2UHMEM6OUXOC_OX9WFRSJE_R1RML6YNQDW_EKHLEWXEPOUUKTER5OOTHQI
---True labels       : EAEVQTDOJG8RBRGONCEDHCTUIDBPUHMEM6OUXOCFOUKWA4VJEFRZROLHYNQDW_EKTLBWXEPOUIKZERYOOTHQI
---Accuracy: 68.2%
-- Repetition: 10
---Constructed labels: EACVQTFOJK8RBX5ONC9DGFTULDB2UHMEM6OUXOC_OVKWARVJE_R1RMLTYNQDW_EKHLBWXEPOUUKTER5OOTHQI
---True labels       : EAEVQTDOJG8RBRGONCEDHCTUIDBPUHMEM6OUXOCFOUKWA4VJEFRZROLHYNQDW_EKTLBWXEPOUIKZERYOOTHQI
---Accuracy: 75.3%
-- Repetition: 11
---Constructed labels: EACVQTDOJI8RBX5ONC9DHCTULDB2UHMEM6OUXOC_OVWWA4VJE_RZRMLTYNQDW_EKHLBWXEPOUUKTER5OOTHQI
---True labels       : EAEVQTDOJG8RBRGONCEDHCTUIDBPUHMEM6OUXOCFOUKWA4VJEFRZROLHYNQDW_EKTLBWXEPOUIKZERYOOTHQI
---Accuracy: 80.0%
-- Repetition: 12
---Constructed labels: EAEVQTDOJI8RBXGONC9DHFTULDB2UHMEM6OUXOC_OVWWA4VJE_RZRMLTYNQDW_EKHLBSXEPOUUKTER5OOTHQC
---True labels       : EAEVQTDOJG8RBRGONCEDHCTUIDBPUHMEM6OUXOCFOUKWA4VJEFRZROLHYNQDW_EKTLBWXEPOUIKZERYOOTHQI
---Accuracy: 78.8%
-- Repetition: 13
---Constructed labels: EACVQTDOJI8RBXGONCEDHFTULDBPUHMEM6OUXOC_OVKWA4VJE_RZRMLTYNQDW_EKHLBSXEPOUUKZER5OOTHQI
---True labels       : EAEVQTDOJG8RBRGONCEDHCTUIDBPUHMEM6OUXOCFOUKWA4VJEFRZROLHYNQDW_EKTLBWXEPOUIKZERYOOTHQI
---Accuracy: 83.5%
-- Repetition: 14
---Constructed labels: EAEVQTDOJI8RBRGONCEDHCTULDBPUHREM6OUXOC_OVKWA4VJE_RZRMLTYNQDW_EKHLBSXEPOUUK6ER5OOTHQI
---True labels       : EAEVQTDOJG8RBRGONCEDHCTUIDBPUHMEM6OUXOCFOUKWA4VJEFRZROLHYNQDW_EKTLBWXEPOUIKZERYOOTHQI
---Accuracy: 84.7%
-- Repetition: 15
---Constructed labels: EAEVQTDOJI8RBRGONCWDHCTULDBPUHREM6OUXOC_OVKWA4VJE_RZRMLTYNQDW_EKTLBSXEPOUUK6ER5OOTHQI
---True labels       : EAEVQTDOJG8RBRGONCEDHCTUIDBPUHMEM6OUXOCFOUKWA4VJEFRZROLHYNQDW_EKTLBWXEPOUIKZERYOOTHQI
---Accuracy: 84.7%
==== End classifier: QuadraticDiscriminantAnalysis
==== Start classifier: LinearSVC
-- Repetition: 1
---Constructed labels: __________V__________________R_______________________________9_______________________
---True labels       : EAEVQTDOJG8RBRGONCEDHCTUIDBPUHMEM6OUXOCFOUKWA4VJEFRZROLHYNQDW_EKTLBWXEPOUIKZERYOOTHQI
---Accuracy: 0.0%
-- Repetition: 2
---Constructed labels: __________V__________________R_______________________________9_______________________
---True labels       : EAEVQTDOJG8RBRGONCEDHCTUIDBPUHMEM6OUXOCFOUKWA4VJEFRZROLHYNQDW_EKTLBWXEPOUIKZERYOOTHQI
---Accuracy: 0.0%
-- Repetition: 3
---Constructed labels: __________V_________________7R_______________________________9_______________________
---True labels       : EAEVQTDOJG8RBRGONCEDHCTUIDBPUHMEM6OUXOCFOUKWA4VJEFRZROLHYNQDW_EKTLBWXEPOUIKZERYOOTHQI
---Accuracy: 0.0%
-- Repetition: 4
---Constructed labels: __________2_6_______________7R_______________________________3_______________________
---True labels       : EAEVQTDOJG8RBRGONCEDHCTUIDBPUHMEM6OUXOCFOUKWA4VJEFRZROLHYNQDW_EKTLBWXEPOUIKZERYOOTHQI
---Accuracy: 0.0%
-- Repetition: 5
---Constructed labels: __________W_6_______________7R___________________________6R__35______________________
---True labels       : EAEVQTDOJG8RBRGONCEDHCTUIDBPUHMEM6OUXOCFOUKWA4VJEFRZROLHYNQDW_EKTLBWXEPOUIKZERYOOTHQI
---Accuracy: 0.0%
-- Repetition: 6
---Constructed labels: __________W_6_______________7R___________________________6R__35______________________
---True labels       : EAEVQTDOJG8RBRGONCEDHCTUIDBPUHMEM6OUXOCFOUKWA4VJEFRZROLHYNQDW_EKTLBWXEPOUIKZERYOOTHQI
---Accuracy: 0.0%
-- Repetition: 7
---Constructed labels: __________W_6_______________7R___________________________6R__35______________________
---True labels       : EAEVQTDOJG8RBRGONCEDHCTUIDBPUHMEM6OUXOCFOUKWA4VJEFRZROLHYNQDW_EKTLBWXEPOUIKZERYOOTHQI
---Accuracy: 0.0%
-- Repetition: 8
---Constructed labels: __________W_6_______________7R___________________________6R__35______________________
---True labels       : EAEVQTDOJG8RBRGONCEDHCTUIDBPUHMEM6OUXOCFOUKWA4VJEFRZROLHYNQDW_EKTLBWXEPOUIKZERYOOTHQI
---Accuracy: 0.0%
-- Repetition: 9
---Constructed labels: _________LW_6_______________7R___________________________6R__3_______________________
---True labels       : EAEVQTDOJG8RBRGONCEDHCTUIDBPUHMEM6OUXOCFOUKWA4VJEFRZROLHYNQDW_EKTLBWXEPOUIKZERYOOTHQI
---Accuracy: 0.0%
-- Repetition: 10
---Constructed labels: _________LW_6_______________7R___________________________6R__3_______________________
---True labels       : EAEVQTDOJG8RBRGONCEDHCTUIDBPUHMEM6OUXOCFOUKWA4VJEFRZROLHYNQDW_EKTLBWXEPOUIKZERYOOTHQI
---Accuracy: 0.0%
-- Repetition: 11
---Constructed labels: _________LW_6_______________7R___________________________6R__3_______________________
---True labels       : EAEVQTDOJG8RBRGONCEDHCTUIDBPUHMEM6OUXOCFOUKWA4VJEFRZROLHYNQDW_EKTLBWXEPOUIKZERYOOTHQI
---Accuracy: 0.0%
-- Repetition: 12
---Constructed labels: _________LW_6_______________7R___________________________6R__3_______________________
---True labels       : EAEVQTDOJG8RBRGONCEDHCTUIDBPUHMEM6OUXOCFOUKWA4VJEFRZROLHYNQDW_EKTLBWXEPOUIKZERYOOTHQI
---Accuracy: 0.0%
-- Repetition: 13
---Constructed labels: _________LW_6_______________7R___________________________6R__3_______________________
---True labels       : EAEVQTDOJG8RBRGONCEDHCTUIDBPUHMEM6OUXOCFOUKWA4VJEFRZROLHYNQDW_EKTLBWXEPOUIKZERYOOTHQI
---Accuracy: 0.0%
-- Repetition: 14
---Constructed labels: _________LW_6_______________7R___________________________6R__3_______________________
---True labels       : EAEVQTDOJG8RBRGONCEDHCTUIDBPUHMEM6OUXOCFOUKWA4VJEFRZROLHYNQDW_EKTLBWXEPOUIKZERYOOTHQI
---Accuracy: 0.0%
-- Repetition: 15
---Constructed labels: _________LW_6_______________7R___________________________6R__3_______________________
---True labels       : EAEVQTDOJG8RBRGONCEDHCTUIDBPUHMEM6OUXOCFOUKWA4VJEFRZROLHYNQDW_EKTLBWXEPOUIKZERYOOTHQI
---Accuracy: 0.0%
==== End classifier: LinearSVC
==== Start classifier: SVC
-- Repetition: 1
---Constructed labels: __________8__________________________________________________________________________
---True labels       : EAEVQTDOJG8RBRGONCEDHCTUIDBPUHMEM6OUXOCFOUKWA4VJEFRZROLHYNQDW_EKTLBWXEPOUIKZERYOOTHQI
---Accuracy: 2.4%
-- Repetition: 2
---Constructed labels: __________8__________________________________________________________________________
---True labels       : EAEVQTDOJG8RBRGONCEDHCTUIDBPUHMEM6OUXOCFOUKWA4VJEFRZROLHYNQDW_EKTLBWXEPOUIKZERYOOTHQI
---Accuracy: 2.4%
-- Repetition: 3
---Constructed labels: __________8__________________________________________________________________________
---True labels       : EAEVQTDOJG8RBRGONCEDHCTUIDBPUHMEM6OUXOCFOUKWA4VJEFRZROLHYNQDW_EKTLBWXEPOUIKZERYOOTHQI
---Accuracy: 2.4%
-- Repetition: 4
---Constructed labels: __________8__________________________________________________________________________
---True labels       : EAEVQTDOJG8RBRGONCEDHCTUIDBPUHMEM6OUXOCFOUKWA4VJEFRZROLHYNQDW_EKTLBWXEPOUIKZERYOOTHQI
---Accuracy: 2.4%
-- Repetition: 5
---Constructed labels: __________8___________________________________________________9______________________
---True labels       : EAEVQTDOJG8RBRGONCEDHCTUIDBPUHMEM6OUXOCFOUKWA4VJEFRZROLHYNQDW_EKTLBWXEPOUIKZERYOOTHQI
---Accuracy: 2.4%
-- Repetition: 6
---Constructed labels: __________8___________________________________________________9______________________
---True labels       : EAEVQTDOJG8RBRGONCEDHCTUIDBPUHMEM6OUXOCFOUKWA4VJEFRZROLHYNQDW_EKTLBWXEPOUIKZERYOOTHQI
---Accuracy: 2.4%
-- Repetition: 7
---Constructed labels: __________8___________________________________________________9______________________
---True labels       : EAEVQTDOJG8RBRGONCEDHCTUIDBPUHMEM6OUXOCFOUKWA4VJEFRZROLHYNQDW_EKTLBWXEPOUIKZERYOOTHQI
---Accuracy: 2.4%
-- Repetition: 8
---Constructed labels: __________8___________________________________________________9______________________
---True labels       : EAEVQTDOJG8RBRGONCEDHCTUIDBPUHMEM6OUXOCFOUKWA4VJEFRZROLHYNQDW_EKTLBWXEPOUIKZERYOOTHQI
---Accuracy: 2.4%
-- Repetition: 9
---Constructed labels: __________8___________________________________________________9______________________
---True labels       : EAEVQTDOJG8RBRGONCEDHCTUIDBPUHMEM6OUXOCFOUKWA4VJEFRZROLHYNQDW_EKTLBWXEPOUIKZERYOOTHQI
---Accuracy: 2.4%
-- Repetition: 10
---Constructed labels: __________8___________________________________________________E______________________
---True labels       : EAEVQTDOJG8RBRGONCEDHCTUIDBPUHMEM6OUXOCFOUKWA4VJEFRZROLHYNQDW_EKTLBWXEPOUIKZERYOOTHQI
---Accuracy: 3.5%
-- Repetition: 11
---Constructed labels: __________8___________________________________________________E______________________
---True labels       : EAEVQTDOJG8RBRGONCEDHCTUIDBPUHMEM6OUXOCFOUKWA4VJEFRZROLHYNQDW_EKTLBWXEPOUIKZERYOOTHQI
---Accuracy: 3.5%
-- Repetition: 12
---Constructed labels: __________8___________________________________________________E______________________
---True labels       : EAEVQTDOJG8RBRGONCEDHCTUIDBPUHMEM6OUXOCFOUKWA4VJEFRZROLHYNQDW_EKTLBWXEPOUIKZERYOOTHQI
---Accuracy: 3.5%
-- Repetition: 13
---Constructed labels: __________8___________________________________________________E______________________
---True labels       : EAEVQTDOJG8RBRGONCEDHCTUIDBPUHMEM6OUXOCFOUKWA4VJEFRZROLHYNQDW_EKTLBWXEPOUIKZERYOOTHQI
---Accuracy: 3.5%
-- Repetition: 14
---Constructed labels: __________8___________________________________________________E______________________
---True labels       : EAEVQTDOJG8RBRGONCEDHCTUIDBPUHMEM6OUXOCFOUKWA4VJEFRZROLHYNQDW_EKTLBWXEPOUIKZERYOOTHQI
---Accuracy: 3.5%
-- Repetition: 15
---Constructed labels: __________8___________________________________________________E______________________
---True labels       : EAEVQTDOJG8RBRGONCEDHCTUIDBPUHMEM6OUXOCFOUKWA4VJEFRZROLHYNQDW_EKTLBWXEPOUIKZERYOOTHQI
---Accuracy: 3.5%
==== End classifier: SVC
==== Start classifier: LDA_cov
-- Repetition: 1
---Constructed labels: DJCVWE14PBVFFNHM9BNUKTS4WDH8ZOAA7FPV7MDJIP9VKJVDUFU29P4H5UJND9XCVBH9WEHR7OK28KYIOUHEQ
---True labels       : EAEVQTDOJG8RBRGONCEDHCTUIDBPUHMEM6OUXOCFOUKWA4VJEFRZROLHYNQDW_EKTLBWXEPOUIKZERYOOTHQI
---Accuracy: 11.8%
-- Repetition: 2
---Constructed labels: 8SDTSBCOPI8MLRHMOTGDIBS4WDHPBOMYTEPX6CIFOM9DGIWVKFOD9ML6JIJNE6RIVBJWTEOQ7PN2DIYIUUHEK
---True labels       : EAEVQTDOJG8RBRGONCEDHCTUIDBPUHMEM6OUXOCFOUKWA4VJEFRZROLHYNQDW_EKTLBWXEPOUIKZERYOOTHQI
---Accuracy: 17.6%
-- Repetition: 3
---Constructed labels: FG9WWEEQGH8MFRHOMULPIFSOUDH2UOGZTE2XU1CFIMEVGOVVDFQ2DMLBJHRPN9CEWLBXUKIQ7PB2EUYIOKHEK
---True labels       : EAEVQTDOJG8RBRGONCEDHCTUIDBPUHMEM6OUXOCFOUKWA4VJEFRZROLHYNQDW_EKTLBWXEPOUIKZERYOOTHQI
---Accuracy: 18.8%
-- Repetition: 4
---Constructed labels: FG9WEWEJPHPRNRGOPCFDIFXRIDI4UNGBOF2XUUCFOOEVGOWVEFQE2MLH5AOPRWEKWHBXUKMOCPJDECYIOUHEK
---True labels       : EAEVQTDOJG8RBRGONCEDHCTUIDBPUHMEM6OUXOCFOUKWA4VJEFRZROLHYNQDW_EKTLBWXEPOUIKZERYOOTHQI
---Accuracy: 28.2%
-- Repetition: 5
---Constructed labels: FG9VWBELMHVRBRGONCEDIBXOIDHRUNM3U4JVWSCFOOEVGOVVEFR9RMLA5NOPRWEK3HBWUEGOCJH1EC1IOTHQK
---True labels       : EAEVQTDOJG8RBRGONCEDHCTUIDBPUHMEM6OUXOCFOUKWA4VJEFRZROLHYNQDW_EKTLBWXEPOUIKZERYOOTHQI
---Accuracy: 41.2%
-- Repetition: 6
---Constructed labels: FG9VWBFIGH2RTRGONCEDIBSUIDH2UOMEXAJVTUCFOOEWG7VVEFRWRRLH5NOPRWKKTLDXUEGOCJHJEFYIOWHQK
---True labels       : EAEVQTDOJG8RBRGONCEDHCTUIDBPUHMEM6OUXOCFOUKWA4VJEFRZROLHYNQDW_EKTLBWXEPOUIKZERYOOTHQI
---Accuracy: 43.5%
-- Repetition: 7
---Constructed labels: FGQVWBEIGH2R9RGONCFDIBTXIDH2UOSETYJVTUCFOO3WGOVJFDRZQMRLGNOPRWEKTLBXUEJO7KTJEXUOOTHQK
---True labels       : EAEVQTDOJG8RBRGONCEDHCTUIDBPUHMEM6OUXOCFOUKWA4VJEFRZROLHYNQDW_EKTLBWXEPOUIKZERYOOTHQI
---Accuracy: 41.2%
-- Repetition: 8
---Constructed labels: FGWVWBEIJHVRERGONCEDIBTXIDHPUOMES6KUTUCFOO3WL4VJFFRZRMRBANPPRWEKTLBXUEJO7JV2EX1OOTHQI
---True labels       : EAEVQTDOJG8RBRGONCEDHCTUIDBPUHMEM6OUXOCFOUKWA4VJEFRZROLHYNQDW_EKTLBWXEPOUIKZERYOOTHQI
---Accuracy: 52.9%
-- Repetition: 9
---Constructed labels: FGWVWBFOJGVRELGONCEDIBTXIDHPUOMES5KUTUCFPOEWL4VJFERZRMRLANMPRWKKTLBXUEPOCKV2EXOOOTHQC
---True labels       : EAEVQTDOJG8RBRGONCEDHCTUIDBPUHMEM6OUXOCFOUKWA4VJEFRZROLHYNQDW_EKTLBWXEPOUIKZERYOOTHQI
---Accuracy: 49.4%
-- Repetition: 10
---Constructed labels: FGWVETFOJJVRELGONCEDIBSXIDH2UOMES5IUTOCFPOEWA1VJEERZROLLYNOARWRKTLBXUEPOUQV2ERSOOTHQC
---True labels       : EAEVQTDOJG8RBRGONCEDHCTUIDBPUHMEM6OUXOCFOUKWA4VJEFRZROLHYNQDW_EKTLBWXEPOUIKZERYOOTHQI
---Accuracy: 55.3%
-- Repetition: 11
---Constructed labels: DGWVETFUJJVRBRGONCEDIBTUIDHPUOMES5KUVOCFPOEWF4VJEFRZRMLLYNQDRXLKTLBXXEJOUKV2ERSOOTHQC
---True labels       : EAEVQTDOJG8RBRGONCEDHCTUIDBPUHMEM6OUXOCFOUKWA4VJEFRZROLHYNQDW_EKTLBWXEPOUIKZERYOOTHQI
---Accuracy: 62.4%
-- Repetition: 12
---Constructed labels: FGWVETFOJJ1RERGONCEDIBTUIDB2UNMES5IUVOCFPOEXF4VJEFRZRMLLYNQDFWLKTLBXLEJOUKJZERYOOTHQC
---True labels       : EAEVQTDOJG8RBRGONCEDHCTUIDBPUHMEM6OUXOCFOUKWA4VJEFRZROLHYNQDW_EKTLBWXEPOUIKZERYOOTHQI
---Accuracy: 62.4%
-- Repetition: 13
---Constructed labels: FGWVETFOJG1RERGONCEDIBTUIDBPUNMES8IUVOCFPOEXF4VJEFRZRMLHYNODXXKKTLBXLEJOUKJZERYOOTHQD
---True labels       : EAEVQTDOJG8RBRGONCEDHCTUIDBPUHMEM6OUXOCFOUKWA4VJEFRZROLHYNQDW_EKTLBWXEPOUIKZERYOOTHQI
---Accuracy: 64.7%
-- Repetition: 14
---Constructed labels: FG3VWTFOJGURBRGONCEDIBTUIDBPUNMER8IUVOCFPUEXC4VJEFRTRMLHYNQDXXKKTLBXLEJOUKJZERYOOTHQC
---True labels       : EAEVQTDOJG8RBRGONCEDHCTUIDBPUHMEM6OUXOCFOUKWA4VJEFRZROLHYNQDW_EKTLBWXEPOUIKZERYOOTHQI
---Accuracy: 67.1%
-- Repetition: 15
---Constructed labels: FAWVWTFOJJURBRGONCEDIBTUIDBPUOMEM8OUVOCFPOEXC4VJEFRZRMLGYNQDXXKKTLBXFKJOUKJZERSOOTHQD
---True labels       : EAEVQTDOJG8RBRGONCEDHCTUIDBPUHMEM6OUXOCFOUKWA4VJEFRZROLHYNQDW_EKTLBWXEPOUIKZERYOOTHQI
---Accuracy: 65.9%