==== Start Subject: 0
==== Start classifier: GradientBoostingClassifier_0.1
-- Repetition: 1
---Constructed labels: ______________________________________________________________E___F_____7____________
---True labels       : EAEVQTDOJG8RBRGONCEDHCTUIDBPUHMEM6OUXOCFOUKWA4VJEFRZROLHYNQDW_EKTLBWXEPOUIKZERYOOTHQI
---Accuracy: 2.4%
-- Repetition: 2
---Constructed labels: _______________________7__________________9___________________E___F_____7___________L
---True labels       : EAEVQTDOJG8RBRGONCEDHCTUIDBPUHMEM6OUXOCFOUKWA4VJEFRZROLHYNQDW_EKTLBWXEPOUIKZERYOOTHQI
---Accuracy: 2.4%
-- Repetition: 3
---Constructed labels: ____9X_________________7__________________9___________________E___F__9__7___________L
---True labels       : EAEVQTDOJG8RBRGONCEDHCTUIDBPUHMEM6OUXOCFOUKWA4VJEFRZROLHYNQDW_EKTLBWXEPOUIKZERYOOTHQI
---Accuracy: 2.4%
-- Repetition: 4
---Constructed labels: ____9X____8_6__________7__________________9___________________E___F__9__7___________L
---True labels       : EAEVQTDOJG8RBRGONCEDHCTUIDBPUHMEM6OUXOCFOUKWA4VJEFRZROLHYNQDW_EKTLBWXEPOUIKZERYOOTHQI
---Accuracy: 3.5%
-- Repetition: 5
---Constructed labels: ____9X____8_6__7_______7__________________9_______________R___E___F__9__7___________L
---True labels       : EAEVQTDOJG8RBRGONCEDHCTUIDBPUHMEM6OUXOCFOUKWA4VJEFRZROLHYNQDW_EKTLBWXEPOUIKZERYOOTHQI
---Accuracy: 3.5%
-- Repetition: 6
---Constructed labels: ___X9X____8_6__7___F___7__________________9_______________R___E___F__9__7___________L
---True labels       : EAEVQTDOJG8RBRGONCEDHCTUIDBPUHMEM6OUXOCFOUKWA4VJEFRZROLHYNQDW_EKTLBWXEPOUIKZERYOOTHQI
---Accuracy: 3.5%
-- Repetition: 7
---Constructed labels: ___X9X____8_6__7___F___7____7_____________9___8_F_________R___E___F__9__7___________L
---True labels       : EAEVQTDOJG8RBRGONCEDHCTUIDBPUHMEM6OUXOCFOUKWA4VJEFRZROLHYNQDW_EKTLBWXEPOUIKZERYOOTHQI
---Accuracy: 3.5%
-- Repetition: 8
---Constructed labels: ___X9X____8_6__7___F___7____7_____________9___8_F_________R___E_L_F__9__7___________L
---True labels       : EAEVQTDOJG8RBRGONCEDHCTUIDBPUHMEM6OUXOCFOUKWA4VJEFRZROLHYNQDW_EKTLBWXEPOUIKZERYOOTHQI
---Accuracy: 3.5%
-- Repetition: 9
---Constructed labels: ___X9X____8_6__7___F___7____7_____________9___8_F_________R___E_L_F__9__7_9_________L
---True labels       : EAEVQTDOJG8RBRGONCEDHCTUIDBPUHMEM6OUXOCFOUKWA4VJEFRZROLHYNQDW_EKTLBWXEPOUIKZERYOOTHQI
---Accuracy: 3.5%
-- Repetition: 10
---Constructed labels: ___X9X____8_6__7___F___7____7_____________9___8_F_________R___E_L_F__9__7_9_________L
---True labels       : EAEVQTDOJG8RBRGONCEDHCTUIDBPUHMEM6OUXOCFOUKWA4VJEFRZROLHYNQDW_EKTLBWXEPOUIKZERYOOTHQI
---Accuracy: 3.5%
-- Repetition: 11
---Constructed labels: ___X9X____8_6__7___F_7_7__F_7_____________9___8_F________7R___E_L_F__9__7_9_________L
---True labels       : EAEVQTDOJG8RBRGONCEDHCTUIDBPUHMEM6OUXOCFOUKWA4VJEFRZROLHYNQDW_EKTLBWXEPOUIKZERYOOTHQI
---Accuracy: 3.5%
-- Repetition: 12
---Constructed labels: ___X9X___58_6__7___F_7_7__F_7_____________9___8_F__6_____7R___E_L_F__9__7_9_________L
---True labels       : EAEVQTDOJG8RBRGONCEDHCTUIDBPUHMEM6OUXOCFOUKWA4VJEFRZROLHYNQDW_EKTLBWXEPOUIKZERYOOTHQI
---Accuracy: 3.5%
-- Repetition: 13
---Constructed labels: ___X9X___58_6__7___F_7_7__F_7_____________9___8_F__6_____7R___E_L_F__9__7_9_________L
---True labels       : EAEVQTDOJG8RBRGONCEDHCTUIDBPUHMEM6OUXOCFOUKWA4VJEFRZROLHYNQDW_EKTLBWXEPOUIKZERYOOTHQI
---Accuracy: 3.5%
-- Repetition: 14
---Constructed labels: ___X9X_7_58_6__7___D_7_7__F_7_____________9___8_F__6___L_7R___E_L_F__9__7_9_________L
---True labels       : EAEVQTDOJG8RBRGONCEDHCTUIDBPUHMEM6OUXOCFOUKWA4VJEFRZROLHYNQDW_EKTLBWXEPOUIKZERYOOTHQI
---Accuracy: 4.7%
-- Repetition: 15
---Constructed labels: ___X9X_7_58_6__7___D_7_7__F_7_____________9___8_F__6___H_7R___E_L_F__9__7_9_________L
---True labels       : EAEVQTDOJG8RBRGONCEDHCTUIDBPUHMEM6OUXOCFOUKWA4VJEFRZROLHYNQDW_EKTLBWXEPOUIKZERYOOTHQI
---Accuracy: 5.9%
==== End classifier: GradientBoostingClassifier_0.1
==== Start classifier: AdaBoostClassifier
-- Repetition: 1
---Constructed labels: ______________L5__6__F__5_6___89___T_7R__R____X_F8__6___L_________F_____7__5F__O____L
---True labels       : EAEVQTDOJG8RBRGONCEDHCTUIDBPUHMEM6OUXOCFOUKWA4VJEFRZROLHYNQDW_EKTLBWXEPOUIKZERYOOTHQI
---Accuracy: 2.4%
-- Repetition: 2
---Constructed labels: _____________RG5_C9__F_758Z__F89_X_Z_7R_9R9___W_F8__6_L_G____4K___F___R_7__5F_5O_L__H
---True labels       : EAEVQTDOJG8RBRGONCEDHCTUIDBPUHMEM6OUXOCFOUKWA4VJEFRZROLHYNQDW_EKTLBWXEPOUIKZERYOOTHQI
---Accuracy: 5.9%
-- Repetition: 3
---Constructed labels: F________G8__MG5_C9__F_7584__F89_XLZRUR_ERK__6W_F8__6_L_G____4K___F__9R_7__5F_5O_L_9H
---True labels       : EAEVQTDOJG8RBRGONCEDHCTUIDBPUHMEM6OUXOCFOUKWA4VJEFRZROLHYNQDW_EKTLBWXEPOUIKZERYOOTHQI
---Accuracy: 8.2%
-- Repetition: 4
---Constructed labels: D___6___FG8_6RGY_C9_9F_1584__F29_XJZRUR_ERK_56W_F_9_6_LLG____ZW___FF_9R_7__6F_5O5H_9H
---True labels       : EAEVQTDOJG8RBRGONCEDHCTUIDBPUHMEM6OUXOCFOUKWA4VJEFRZROLHYNQDW_EKTLBWXEPOUIKZERYOOTHQI
---Accuracy: 9.4%
-- Repetition: 5
---Constructed labels: DR9_6___FG8_TRG3_C949F_1G84R_F89_TJZRU__ERK_56W4F_9Z6_LXG_R_OZW9__XF_9R_7L_6F_5O7H_9H
---True labels       : EAEVQTDOJG8RBRGONCEDHCTUIDBPUHMEM6OUXOCFOUKWA4VJEFRZROLHYNQDW_EKTLBWXEPOUIKZERYOOTHQI
---Accuracy: 10.6%
-- Repetition: 6
---Constructed labels: DR9X6___FG8_TRG3_C949F51G8L8_F89_TJZRU__ERK_56W4F__Z6_LXG_R_UZE9__WF_9R_7LX6F_5O7H__H
---True labels       : EAEVQTDOJG8RBRGONCEDHCTUIDBPUHMEM6OUXOCFOUKWA4VJEFRZROLHYNQDW_EKTLBWXEPOUIKZERYOOTHQI
---Accuracy: 11.8%
-- Repetition: 7
---Constructed labels: DR9X9___FG8_TRG3LC949451G8H87L89_TJURU__ERK_5NW4F__Z6_LXG_RFUZE9__WF_9RR7LX6F_5O7T8_H
---True labels       : EAEVQTDOJG8RBRGONCEDHCTUIDBPUHMEM6OUXOCFOUKWA4VJEFRZROLHYNQDW_EKTLBWXEPOUIKZERYOOTHQI
---Accuracy: 14.1%
-- Repetition: 8
---Constructed labels: DR9X98__FG8_TRI3LC9F9451G8H87L89_TJURU_LERW_5ZW4F__Z6_LXG5RDUZE9L_WF_9RR7LX6F_5OCTV_H
---True labels       : EAEVQTDOJG8RBRGONCEDHCTUIDBPUHMEM6OUXOCFOUKWA4VJEFRZROLHYNQDW_EKTLBWXEPOUIKZERYOOTHQI
---Accuracy: 12.9%
-- Repetition: 9
---Constructed labels: DR9V98__FG8_TRI34C9D9451G8L87L89_TJURU__ERW_G4W4F__Z6_LXG5RFU4E9L_WFX9RR7LW6E_5OCTV_I
---True labels       : EAEVQTDOJG8RBRGONCEDHCTUIDBPUHMEM6OUXOCFOUKWA4VJEFRZROLHYNQDW_EKTLBWXEPOUIKZERYOOTHQI
---Accuracy: 18.8%
-- Repetition: 10
---Constructed labels: DR9VQ8F_FG8_TRI34C9D9451G8H87L89_T2UXU__ERW_G4W4F__Z67LLG5RFW4E9HLTFX9RR7LW6ER5OCTV_I
---True labels       : EAEVQTDOJG8RBRGONCEDHCTUIDBPUHMEM6OUXOCFOUKWA4VJEFRZROLHYNQDW_EKTLBWXEPOUIKZERYOOTHQI
---Accuracy: 24.7%
-- Repetition: 11
---Constructed labels: DR9V38F_FG8_TRI14C9D9151G8HP7L89_T2UXU__R_W_G4W4F__Z69LLG5RDW4E9HLTFX9RR7LW6ER5OCTV4I
---True labels       : EAEVQTDOJG8RBRGONCEDHCTUIDBPUHMEM6OUXOCFOUKWA4VJEFRZROLHYNQDW_EKTLBWXEPOUIKZERYOOTHQI
---Accuracy: 25.9%
-- Repetition: 12
---Constructed labels: DR9V38F_FG8_TRI14C9D9151KDHP7L897U2UXU__R_W_G4W2F__Z69LLG5RDW4E9HLTFX9RR7LW6FR6OCTVRI
---True labels       : EAEVQTDOJG8RBRGONCEDHCTUIDBPUHMEM6OUXOCFOUKWA4VJEFRZROLHYNQDW_EKTLBWXEPOUIKZERYOOTHQI
---Accuracy: 25.9%
-- Repetition: 13
---Constructed labels: DR9V38FLFG8_TRIO4C9D9451KDHP7L897U2UXU5_R_K_G4W2F__Z69LHG5RFW4E9HLTFXQR_7LW6FR5OCTVRI
---True labels       : EAEVQTDOJG8RBRGONCEDHCTUIDBPUHMEM6OUXOCFOUKWA4VJEFRZROLHYNQDW_EKTLBWXEPOUIKZERYOOTHQI
---Accuracy: 28.2%
-- Repetition: 14
---Constructed labels: DR9V38FLFG8_TRGO4C6D9451KDHP7L8Q7U2UXU6_Q_K_G4W2C__6_9LHG5RFU4E9HLTFXQR_7LW6ER5OCTTRI
---True labels       : EAEVQTDOJG8RBRGONCEDHCTUIDBPUHMEM6OUXOCFOUKWA4VJEFRZROLHYNQDW_EKTLBWXEPOUIKZERYOOTHQI
---Accuracy: 28.2%
-- Repetition: 15
---Constructed labels: DRWV98_OFG8_TRGO4C6D9461KDHPUL8Q7U2UXU6_Q_K_G4W2C__6_9LHGSQFU4E9HLTFXQR_7LW6ER5OCT6RI
---True labels       : EAEVQTDOJG8RBRGONCEDHCTUIDBPUHMEM6OUXOCFOUKWA4VJEFRZROLHYNQDW_EKTLBWXEPOUIKZERYOOTHQI
---Accuracy: 31.8%
==== End classifier: AdaBoostClassifier
==== Start classifier: KNeighborsClassifier
-- Repetition: 1
---Constructed labels: __EL_9A____X__7__9AL___7_85__H73_L___7F____X_44___6___X_YN___7X7__F____F71___R3______
---True labels       : EAEVQTDOJG8RBRGONCEDHCTUIDBPUHMEM6OUXOCFOUKWA4VJEFRZROLHYNQDW_EKTLBWXEPOUIKZERYOOTHQI
---Accuracy: 7.1%
-- Repetition: 2
---Constructed labels: __3U69A_LL8X__7F_9EJ_4_7785_9H73_L9__7F_6_9XH44_E__4__XFYN__W_E7__F7__9FI19__R37_T_SK
---True labels       : EAEVQTDOJG8RBRGONCEDHCTUIDBPUHMEM6OUXOCFOUKWA4VJEFRZROLHYNQDW_EKTLBWXEPOUIKZERYOOTHQI
---Accuracy: 14.1%
-- Repetition: 3
---Constructed labels: __EU_9D_DL84__7FR99J_1__I86_9HO3RH9__9F_Z_9TH42_95F4___FYRO4W_EI_LF7__WFI1E__R37_TLSK
---True labels       : EAEVQTDOJG8RBRGONCEDHCTUIDBPUHMEM6OUXOCFOUKWA4VJEFRZROLHYNQDW_EKTLBWXEPOUIKZERYOOTHQI
---Accuracy: 15.3%
-- Repetition: 4
---Constructed labels: _MEV_WF_JL_F6R7BR89K_1__I8H_9HS3RH9U89FF1_9TH42_95F4_O_F4RO4W_WI6LR7__WC71E_R437_TLSK
---True labels       : EAEVQTDOJG8RBRGONCEDHCTUIDBPUHMEM6OUXOCFOUKWA4VJEFRZROLHYNQDW_EKTLBWXEPOUIKZERYOOTHQI
---Accuracy: 16.5%
-- Repetition: 5
---Constructed labels: 9MEV6WD_JL_B6RUCR89K_1X_I8H_9HM3RH9U89FF7_9TK42X95R4_O_H4NO43_WI6LR9F_WC7194Q43O_TLOI
---True labels       : EAEVQTDOJG8RBRGONCEDHCTUIDBPUHMEM6OUXOCFOUKWA4VJEFRZROLHYNQDW_EKTLBWXEPOUIKZERYOOTHQI
---Accuracy: 23.5%
-- Repetition: 6
---Constructed labels: 9QEVBWDRJK8F6RUIR89K_1T_I8HR9HM3RH9U8QX4__9TK42XE5R3RO_I4NO43_WJ6LQ9X5WC7IE1QR3O_TGOI
---True labels       : EAEVQTDOJG8RBRGONCEDHCTUIDBPUHMEM6OUXOCFOUKWA4VJEFRZROLHYNQDW_EKTLBWXEPOUIKZERYOOTHQI
---Accuracy: 29.4%
-- Repetition: 7
---Constructed labels: _QEVBWDOJK8F6RUJN79K_CTXI2H_9HMWRH9U8QU4_UKTK42JE5R3RO_I4NO23_WJ6_33X5WCIIE2QR3O_TGOI
---True labels       : EAEVQTDOJG8RBRGONCEDHCTUIDBPUHMEM6OUXOCFOUKWA4VJEFRZROLHYNQDW_EKTLBWXEPOUIKZERYOOTHQI
---Accuracy: 35.3%
-- Repetition: 8
---Constructed labels: 9QEVNXDOJK8R9RUVR79K_CTXI2HP9HOWQ69U8QV4LUKTK42JE5R3RORI4NO23_EL6733X5WCIIK2ER3O_TGOI
---True labels       : EAEVQTDOJG8RBRGONCEDHCTUIDBPUHMEM6OUXOCFOUKWA4VJEFRZROLHYNQDW_EKTLBWXEPOUIKZERYOOTHQI
---Accuracy: 40.0%
-- Repetition: 9
---Constructed labels: 9QEVNXDOJK8R6RUVR79K9CTXI2HP9HOWQ69U2QC4LUKEK42JEFR3RORI4NO23_EL67E3X9WCIIKZER3O7TLQI
---True labels       : EAEVQTDOJG8RBRGONCEDHCTUIDBPUHMEM6OUXOCFOUKWA4VJEFRZROLHYNQDW_EKTLBWXEPOUIKZERYOOTHQI
---Accuracy: 44.7%
-- Repetition: 10
---Constructed labels: 9QEVNTDOJK8RBRUVRC9K91TUI2HP9HMWQ63U2QC4LU9EG42JEFR3RORI4NQ2W_EL6IE3X9WRIIKZER3O7TLQI
---True labels       : EAEVQTDOJG8RBRGONCEDHCTUIDBPUHMEM6OUXOCFOUKWA4VJEFRZROLHYNQDW_EKTLBWXEPOUIKZERYOOTHQI
---Accuracy: 50.6%
-- Repetition: 11
---Constructed labels: 9QEVNTDOJK8RBRGUNCEE9CTUI2BP9HMWQH3U2QOFLU9EG42JEFR3RORIYNQ2W_EL6IE3XEWRIIKZQR3O7TLQI
---True labels       : EAEVQTDOJG8RBRGONCEDHCTUIDBPUHMEM6OUXOCFOUKWA4VJEFRZROLHYNQDW_EKTLBWXEPOUIKZERYOOTHQI
---Accuracy: 56.5%
-- Repetition: 12
---Constructed labels: 9QEVQTDOJK8RBRGUN7EE9CTUIYBP9HMWQH3U2QOFLUKEG42JEFR3ROR74NQ23_EL6IE3XEQRIIKZER3O7TRWI
---True labels       : EAEVQTDOJG8RBRGONCEDHCTUIDBPUHMEM6OUXOCFOUKWA4VJEFRZROLHYNQDW_EKTLBWXEPOUIKZERYOOTHQI
---Accuracy: 55.3%
-- Repetition: 13
---Constructed labels: 9QEVQTDOJK8RBRGUN7EE9CTUIYBP9HMWQ63U2QOFLWKEA42JEFR4ROR7YNQ23_EL6IE3SEPOIIKZER3O7TRWK
---True labels       : EAEVQTDOJG8RBRGONCEDHCTUIDBPUHMEM6OUXOCFOUKWA4VJEFRZROLHYNQDW_EKTLBWXEPOUIKZERYOOTHQI
---Accuracy: 57.6%
-- Repetition: 14
---Constructed labels: 9QEVQTDOJK8RBRGUN7EEQCTUIYBP9HMWQ63U2QOFLUKEA42JEFR4RORIYNQ23_ELHLE3SEPOUIKZER3O7T_WK
---True labels       : EAEVQTDOJG8RBRGONCEDHCTUIDBPUHMEM6OUXOCFOUKWA4VJEFRZROLHYNQDW_EKTLBWXEPOUIKZERYOOTHQI
---Accuracy: 61.2%
-- Repetition: 15
---Constructed labels: 9QEVQTDOJK8RBRGUN7EEQCTUIYBP9HMWQH3U2QCFRUKEA42JEFR4RORIYNQ23_ELHLE3XKPOUIKZER3O7THWK
---True labels       : EAEVQTDOJG8RBRGONCEDHCTUIDBPUHMEM6OUXOCFOUKWA4VJEFRZROLHYNQDW_EKTLBWXEPOUIKZERYOOTHQI
---Accuracy: 62.4%
==== End classifier: KNeighborsClassifier
==== Start classifier: DecisionTreeClassifier
-- Repetition: 1
---Constructed labels: EFEVQXPO_G8XBR946CEFHFXVL9H9VPME_6OUXRC_R13WB4VJERRZRPLHYN9F3_3KXLFXX9RO1IK6ER31OTZQI
---True labels       : EAEVQTDOJG8RBRGONCEDHCTUIDBPUHMEM6OUXOCFOUKWA4VJEFRZROLHYNQDW_EKTLBWXEPOUIKZERYOOTHQI
---Accuracy: 51.8%
-- Repetition: 2
---Constructed labels: QAQVQTDOLG8XBR5ONCEDHCXULDHPUJMER6OUXRCFOUKWA4VJEFRZROLHYNQDW_KKTLBWX9POUIKZERYOOTZQI
---True labels       : EAEVQTDOJG8RBRGONCEDHCTUIDBPUHMEM6OUXOCFOUKWA4VJEFRZROLHYNQDW_EKTLBWXEPOUIKZERYOOTHQI
---Accuracy: 83.5%
-- Repetition: 3
---Constructed labels: EAEVQTDOJG8RBRGONCEDHCXULDBPUHMEY6OUXRCFOUKWA4VJEFRZROLHYNQDW_EKTLBWXEPOUIKZERYOOTHQI
---True labels       : EAEVQTDOJG8RBRGONCEDHCTUIDBPUHMEM6OUXOCFOUKWA4VJEFRZROLHYNQDW_EKTLBWXEPOUIKZERYOOTHQI
---Accuracy: 95.3%
-- Repetition: 4
---Constructed labels: EAEVQTDOJG8RBRGONCEDHCTUIDBPUHMEM6OUXOCFOUKWA4VJEFRZROLHYNQDW_EKTLBWXEPOUIKZERYOOTHQI
---True labels       : EAEVQTDOJG8RBRGONCEDHCTUIDBPUHMEM6OUXOCFOUKWA4VJEFRZROLHYNQDW_EKTLBWXEPOUIKZERYOOTHQI
---Accuracy: 100.0%
-- Repetition: 5
---Constructed labels: EAEVQTDOJG8RBRGONCEDHCTUIDBPUHMEM6OUXOCFOUKWA4VJEFRZROLHYNQDW_EKTLBWXEPOUIKZERYOOTHQI
---True labels       : EAEVQTDOJG8RBRGONCEDHCTUIDBPUHMEM6OUXOCFOUKWA4VJEFRZROLHYNQDW_EKTLBWXEPOUIKZERYOOTHQI
---Accuracy: 100.0%
-- Repetition: 6
---Constructed labels: EAEVQTDOJG8RBRGONCEDHCTUIDBPUHMEM6OUXOCFOUKWA4VJEFRZROLHYNQDW_EKTLBWXEPOUIKZERYOOTHQI
---True labels       : EAEVQTDOJG8RBRGONCEDHCTUIDBPUHMEM6OUXOCFOUKWA4VJEFRZROLHYNQDW_EKTLBWXEPOUIKZERYOOTHQI
---Accuracy: 100.0%
-- Repetition: 7
---Constructed labels: EAEVQTDOJG8RBRGONCEDHCTUIDBPUHMEM6OUXOCFOUKWA4VJEFRZROLHYNQDW_EKTLBWXEPOUIKZERYOOTHQI
---True labels       : EAEVQTDOJG8RBRGONCEDHCTUIDBPUHMEM6OUXOCFOUKWA4VJEFRZROLHYNQDW_EKTLBWXEPOUIKZERYOOTHQI
---Accuracy: 100.0%
-- Repetition: 8
---Constructed labels: EAEVQTDOJG8RBRGONCEDHCTUIDBPUHMEM6OUXOCFOUKWA4VJEFRZROLHYNQDW_EKTLBWXEPOUIKZERYOOTHQI
---True labels       : EAEVQTDOJG8RBRGONCEDHCTUIDBPUHMEM6OUXOCFOUKWA4VJEFRZROLHYNQDW_EKTLBWXEPOUIKZERYOOTHQI
---Accuracy: 100.0%
-- Repetition: 9
---Constructed labels: EAEVQTDOJG8RBRGONCEDHCTUIDBPUHMEM6OUXOCFOUKWA4VJEFRZROLHYNQDW_EKTLBWXEPOUIKZERYOOTHQI
---True labels       : EAEVQTDOJG8RBRGONCEDHCTUIDBPUHMEM6OUXOCFOUKWA4VJEFRZROLHYNQDW_EKTLBWXEPOUIKZERYOOTHQI
---Accuracy: 100.0%
-- Repetition: 10
---Constructed labels: EAEVQTDOJG8RBRGONCEDHCTUIDBPUHMEM6OUXOCFOUKWA4VJEFRZROLHYNQDW_EKTLBWXEPOUIKZERYOOTHQI
---True labels       : EAEVQTDOJG8RBRGONCEDHCTUIDBPUHMEM6OUXOCFOUKWA4VJEFRZROLHYNQDW_EKTLBWXEPOUIKZERYOOTHQI
---Accuracy: 100.0%
-- Repetition: 11
---Constructed labels: EAEVQTDOJG8RBRGONCEDHCTUIDBPUHMEM6OUXOCFOUKWA4VJEFRZROLHYNQDW_EKTLBWXEPOUIKZERYOOTHQI
---True labels       : EAEVQTDOJG8RBRGONCEDHCTUIDBPUHMEM6OUXOCFOUKWA4VJEFRZROLHYNQDW_EKTLBWXEPOUIKZERYOOTHQI
---Accuracy: 100.0%
-- Repetition: 12
---Constructed labels: EAEVQTDOJG8RBRGONCEDHCTUIDBPUHMEM6OUXOCFOUKWA4VJEFRZROLHYNQDW_EKTLBWXEPOUIKZERYOOTHQI
---True labels       : EAEVQTDOJG8RBRGONCEDHCTUIDBPUHMEM6OUXOCFOUKWA4VJEFRZROLHYNQDW_EKTLBWXEPOUIKZERYOOTHQI
---Accuracy: 100.0%
-- Repetition: 13
---Constructed labels: EAEVQTDOJG8RBRGONCEDHCTUIDBPUHMEM6OUXOCFOUKWA4VJEFRZROLHYNQDW_EKTLBWXEPOUIKZERYOOTHQI
---True labels       : EAEVQTDOJG8RBRGONCEDHCTUIDBPUHMEM6OUXOCFOUKWA4VJEFRZROLHYNQDW_EKTLBWXEPOUIKZERYOOTHQI
---Accuracy: 100.0%
-- Repetition: 14
---Constructed labels: EAEVQTDOJG8RBRGONCEDHCTUIDBPUHMEM6OUXOCFOUKWA4VJEFRZROLHYNQDW_EKTLBWXEPOUIKZERYOOTHQI
---True labels       : EAEVQTDOJG8RBRGONCEDHCTUIDBPUHMEM6OUXOCFOUKWA4VJEFRZROLHYNQDW_EKTLBWXEPOUIKZERYOOTHQI
---Accuracy: 100.0%
-- Repetition: 15
---Constructed labels: EAEVQTDOJG8RBRGONCEDHCTUIDBPUHMEM6OUXOCFOUKWA4VJEFRZROLHYNQDW_EKTLBWXEPOUIKZERYOOTHQI
---True labels       : EAEVQTDOJG8RBRGONCEDHCTUIDBPUHMEM6OUXOCFOUKWA4VJEFRZROLHYNQDW_EKTLBWXEPOUIKZERYOOTHQI
---Accuracy: 100.0%
==== End classifier: DecisionTreeClassifier
==== Start classifier: RandomForestClassifier
-- Repetition: 1
---Constructed labels: EFEVRXDO8L8_BR5R6CEFHFXUL868UNME_67UXRC_RUKX54VJEFR4ROLHYN9F9_KKXLFXXEROUIK69RYOOXHRI
---True labels       : EAEVQTDOJG8RBRGONCEDHCTUIDBPUHMEM6OUXOCFOUKWA4VJEFRZROLHYNQDW_EKTLBWXEPOUIKZERYOOTHQI
---Accuracy: 56.5%
-- Repetition: 2
---Constructed labels: EAEVRTDOJG8RBR5ONCEDHCXUL8BPUHME56OUXOCFOUKWA4VJEFRZROLHYNQDW_EKTLFXXEPOUIKZERYOOTHQI
---True labels       : EAEVQTDOJG8RBRGONCEDHCTUIDBPUHMEM6OUXOCFOUKWA4VJEFRZROLHYNQDW_EKTLBWXEPOUIKZERYOOTHQI
---Accuracy: 90.6%
-- Repetition: 3
---Constructed labels: EAEVQTDOJG8RBRGONCEDHCTUIDBPUHMEM6OUXOCFOUKWA4VJEFRZROLHYNQDW_EKTLBWXEPOUIKZERYOOTHQI
---True labels       : EAEVQTDOJG8RBRGONCEDHCTUIDBPUHMEM6OUXOCFOUKWA4VJEFRZROLHYNQDW_EKTLBWXEPOUIKZERYOOTHQI
---Accuracy: 100.0%
-- Repetition: 4
---Constructed labels: EAEVQTDOJG8RBRGONCEDHCTUIDBPUHMEM6OUXOCFOUKWA4VJEFRZROLHYNQDW_EKTLBWXEPOUIKZERYOOTHQI
---True labels       : EAEVQTDOJG8RBRGONCEDHCTUIDBPUHMEM6OUXOCFOUKWA4VJEFRZROLHYNQDW_EKTLBWXEPOUIKZERYOOTHQI
---Accuracy: 100.0%
-- Repetition: 5
---Constructed labels: EAEVQTDOJG8RBRGONCEDHCTUIDBPUHMEM6OUXOCFOUKWA4VJEFRZROLHYNQDW_EKTLBWXEPOUIKZERYOOTHQI
---True labels       : EAEVQTDOJG8RBRGONCEDHCTUIDBPUHMEM6OUXOCFOUKWA4VJEFRZROLHYNQDW_EKTLBWXEPOUIKZERYOOTHQI
---Accuracy: 100.0%
-- Repetition: 6
---Constructed labels: EAEVQTDOJG8RBRGONCEDHCTUIDBPUHMEM6OUXOCFOUKWA4VJEFRZROLHYNQDW_EKTLBWXEPOUIKZERYOOTHQI
---True labels       : EAEVQTDOJG8RBRGONCEDHCTUIDBPUHMEM6OUXOCFOUKWA4VJEFRZROLHYNQDW_EKTLBWXEPOUIKZERYOOTHQI
---Accuracy: 100.0%
-- Repetition: 7
---Constructed labels: EAEVQTDOJG8RBRGONCEDHCTUIDBPUHMEM6OUXOCFOUKWA4VJEFRZROLHYNQDW_EKTLBWXEPOUIKZERYOOTHQI
---True labels       : EAEVQTDOJG8RBRGONCEDHCTUIDBPUHMEM6OUXOCFOUKWA4VJEFRZROLHYNQDW_EKTLBWXEPOUIKZERYOOTHQI
---Accuracy: 100.0%
-- Repetition: 8
---Constructed labels: EAEVQTDOJG8RBRGONCEDHCTUIDBPUHMEM6OUXOCFOUKWA4VJEFRZROLHYNQDW_EKTLBWXEPOUIKZERYOOTHQI
---True labels       : EAEVQTDOJG8RBRGONCEDHCTUIDBPUHMEM6OUXOCFOUKWA4VJEFRZROLHYNQDW_EKTLBWXEPOUIKZERYOOTHQI
---Accuracy: 100.0%
-- Repetition: 9
---Constructed labels: EAEVQTDOJG8RBRGONCEDHCTUIDBPUHMEM6OUXOCFOUKWA4VJEFRZROLHYNQDW_EKTLBWXEPOUIKZERYOOTHQI
---True labels       : EAEVQTDOJG8RBRGONCEDHCTUIDBPUHMEM6OUXOCFOUKWA4VJEFRZROLHYNQDW_EKTLBWXEPOUIKZERYOOTHQI
---Accuracy: 100.0%
-- Repetition: 10
---Constructed labels: EAEVQTDOJG8RBRGONCEDHCTUIDBPUHMEM6OUXOCFOUKWA4VJEFRZROLHYNQDW_EKTLBWXEPOUIKZERYOOTHQI
---True labels       : EAEVQTDOJG8RBRGONCEDHCTUIDBPUHMEM6OUXOCFOUKWA4VJEFRZROLHYNQDW_EKTLBWXEPOUIKZERYOOTHQI
---Accuracy: 100.0%
-- Repetition: 11
---Constructed labels: EAEVQTDOJG8RBRGONCEDHCTUIDBPUHMEM6OUXOCFOUKWA4VJEFRZROLHYNQDW_EKTLBWXEPOUIKZERYOOTHQI
---True labels       : EAEVQTDOJG8RBRGONCEDHCTUIDBPUHMEM6OUXOCFOUKWA4VJEFRZROLHYNQDW_EKTLBWXEPOUIKZERYOOTHQI
---Accuracy: 100.0%
-- Repetition: 12
---Constructed labels: EAEVQTDOJG8RBRGONCEDHCTUIDBPUHMEM6OUXOCFOUKWA4VJEFRZROLHYNQDW_EKTLBWXEPOUIKZERYOOTHQI
---True labels       : EAEVQTDOJG8RBRGONCEDHCTUIDBPUHMEM6OUXOCFOUKWA4VJEFRZROLHYNQDW_EKTLBWXEPOUIKZERYOOTHQI
---Accuracy: 100.0%
-- Repetition: 13
---Constructed labels: EAEVQTDOJG8RBRGONCEDHCTUIDBPUHMEM6OUXOCFOUKWA4VJEFRZROLHYNQDW_EKTLBWXEPOUIKZERYOOTHQI
---True labels       : EAEVQTDOJG8RBRGONCEDHCTUIDBPUHMEM6OUXOCFOUKWA4VJEFRZROLHYNQDW_EKTLBWXEPOUIKZERYOOTHQI
---Accuracy: 100.0%
-- Repetition: 14
---Constructed labels: EAEVQTDOJG8RBRGONCEDHCTUIDBPUHMEM6OUXOCFOUKWA4VJEFRZROLHYNQDW_EKTLBWXEPOUIKZERYOOTHQI
---True labels       : EAEVQTDOJG8RBRGONCEDHCTUIDBPUHMEM6OUXOCFOUKWA4VJEFRZROLHYNQDW_EKTLBWXEPOUIKZERYOOTHQI
---Accuracy: 100.0%
-- Repetition: 15
---Constructed labels: EAEVQTDOJG8RBRGONCEDHCTUIDBPUHMEM6OUXOCFOUKWA4VJEFRZROLHYNQDW_EKTLBWXEPOUIKZERYOOTHQI
---True labels       : EAEVQTDOJG8RBRGONCEDHCTUIDBPUHMEM6OUXOCFOUKWA4VJEFRZROLHYNQDW_EKTLBWXEPOUIKZERYOOTHQI
---Accuracy: 100.0%
==== End classifier: RandomForestClassifier
==== Start classifier: LDA_scikitlearn
-- Repetition: 1
---Constructed labels: ____8_________L___________H__R________________________4___________F_____7____________
---True labels       : EAEVQTDOJG8RBRGONCEDHCTUIDBPUHMEM6OUXOCFOUKWA4VJEFRZROLHYNQDW_EKTLBWXEPOUIKZERYOOTHQI
---Accuracy: 1.2%
-- Repetition: 2
---Constructed labels: ____8_____7___L___________H__R______6_________________4_5_________F_____7______R__6_K
---True labels       : EAEVQTDOJG8RBRGONCEDHCTUIDBPUHMEM6OUXOCFOUKWA4VJEFRZROLHYNQDW_EKTLBWXEPOUIKZERYOOTHQI
---Accuracy: 1.2%
-- Repetition: 3
---Constructed labels: ____89____7__5L___________H_7R______6________6________4_5____55___F__9__7______R__6_K
---True labels       : EAEVQTDOJG8RBRGONCEDHCTUIDBPUHMEM6OUXOCFOUKWA4VJEFRZROLHYNQDW_EKTLBWXEPOUIKZERYOOTHQI
---Accuracy: 0.0%
-- Repetition: 4
---Constructed labels: ____89__F_7_6_L___________Z_7R___5__6__7____F6X_9_____4_5____65___F__9__7___R__R5_6_K
---True labels       : EAEVQTDOJG8RBRGONCEDHCTUIDBPUHMEM6OUXOCFOUKWA4VJEFRZROLHYNQDW_EKTLBWXEPOUIKZERYOOTHQI
---Accuracy: 0.0%
-- Repetition: 5
---Constructed labels: ____89__F_I96_L7_F________Z_7R___5__6_______F6X49_____4X5_Q__68___F_F9L_7__6R__R566_K
---True labels       : EAEVQTDOJG8RBRGONCEDHCTUIDBPUHMEM6OUXOCFOUKWA4VJEFRZROLHYNQDW_EKTLBWXEPOUIKZERYOOTHQI
---Accuracy: 1.2%
-- Repetition: 6
---Constructed labels: ____89__F_I96_L7_F_____7__Z87R___5__6____9__F6X49_____4X5_Q__68___E_F9L_7__6R4_R566_K
---True labels       : EAEVQTDOJG8RBRGONCEDHCTUIDBPUHMEM6OUXOCFOUKWA4VJEFRZROLHYNQDW_EKTLBWXEPOUIKZERYOOTHQI
---Accuracy: 1.2%
-- Repetition: 7
---Constructed labels: ____93__F_I96_L7_F_____7__Z87R___5__6____9__FNT4E___7_4X55Q__68___E_F9L_7__6R4_Q566_K
---True labels       : EAEVQTDOJG8RBRGONCEDHCTUIDBPUHMEM6OUXOCFOUKWA4VJEFRZROLHYNQDW_EKTLBWXEPOUIKZERYOOTHQI
---Accuracy: 2.4%
-- Repetition: 8
---Constructed labels: _F__93__F5I96XL7_F_____7_FZ87R___5__6__4_9__FNT4E___7_YX55Q__68_L_E_F9RR7__6R4_QA66_K
---True labels       : EAEVQTDOJG8RBRGONCEDHCTUIDBPUHMEM6OUXOCFOUKWA4VJEFRZROLHYNQDW_EKTLBWXEPOUIKZERYOOTHQI
---Accuracy: 2.4%
-- Repetition: 9
---Constructed labels: _F__93__FGI96XL7_F_8___C_FZ87R___5__6__4_9__FNT4E___7_YX55Q__68LL_E_F9RR7__6R4_QA6H_K
---True labels       : EAEVQTDOJG8RBRGONCEDHCTUIDBPUHMEM6OUXOCFOUKWA4VJEFRZROLHYNQDW_EKTLBWXEPOUIKZERYOOTHQI
---Accuracy: 4.7%
-- Repetition: 10
---Constructed labels: _F__93F_FG796XL7_F_8_4_C_FZ87R__55__T__4_9__FNT4E___7_YX55Q__N9LL_E_F9RR7__6R4_QA6H_K
---True labels       : EAEVQTDOJG8RBRGONCEDHCTUIDBPUHMEM6OUXOCFOUKWA4VJEFRZROLHYNQDW_EKTLBWXEPOUIKZERYOOTHQI
---Accuracy: 4.7%
-- Repetition: 11
---Constructed labels: _F__93F_FG796XL7_F_8_4_C_FB87R__55__T__4R7_4FNT4E___7_YX55Q__O9LL_E_F9RR7__6R4_QA6H_K
---True labels       : EAEVQTDOJG8RBRGONCEDHCTUIDBPUHMEM6OUXOCFOUKWA4VJEFRZROLHYNQDW_EKTLBWXEPOUIKZERYOOTHQI
---Accuracy: 5.9%
-- Repetition: 12
---Constructed labels: _F__93F_FG796XL7_F_8_4_C_FB87R__55__T__4R7_4FNT4E__67_4X5MQ__O9LH_E_F9RR7__6R4_QA6H_K
---True labels       : EAEVQTDOJG8RBRGONCEDHCTUIDBPUHMEM6OUXOCFOUKWA4VJEFRZROLHYNQDW_EKTLBWXEPOUIKZERYOOTHQI
---Accuracy: 5.9%
-- Repetition: 13
---Constructed labels: _F__93F_FG796XL7_F_8_4_C_FB87R__55_8T__4R7_4FNT4E__67_LX5MQ__O9LH_E_F9R_7__6R4_QATH_K
---True labels       : EAEVQTDOJG8RBRGONCEDHCTUIDBPUHMEM6OUXOCFOUKWA4VJEFRZROLHYNQDW_EKTLBWXEPOUIKZERYOOTHQI
---Accuracy: 8.2%
-- Repetition: 14
---Constructed labels: _F__93F4FG796XL7_F_8_46C_FB87R_RM5_8TR_4R7_4FNT4E__67_LH5MQ__O9LH_E_F9R_7__6R4_QATH_K
---True labels       : EAEVQTDOJG8RBRGONCEDHCTUIDBPUHMEM6OUXOCFOUKWA4VJEFRZROLHYNQDW_EKTLBWXEPOUIKZERYOOTHQI
---Accuracy: 10.6%
-- Repetition: 15
---Constructed labels: _F__93F4FG796XL7_F48_46U_FB87R_RM5R8TR_4R7_4FNT4E__67_LH5MQ__OELH_E_F9R_7__6R4_QATH_K
---True labels       : EAEVQTDOJG8RBRGONCEDHCTUIDBPUHMEM6OUXOCFOUKWA4VJEFRZROLHYNQDW_EKTLBWXEPOUIKZERYOOTHQI
---Accuracy: 12.9%
==== End classifier: LDA_scikitlearn
==== Start classifier: QuadraticDiscriminantAnalysis
-- Repetition: 1
---Constructed labels: _U_8P_NO8783E__9Z4EFH2_X__6J4X7E89_X_4___SL_G4_43FR_RP_K4Y9F9_W_8_QX_92RU_KY_X4873T_7
---True labels       : EAEVQTDOJG8RBRGONCEDHCTUIDBPUHMEM6OUXOCFOUKWA4VJEFRZROLHYNQDW_EKTLBWXEPOUIKZERYOOTHQI
---Accuracy: 14.1%
-- Repetition: 2
---Constructed labels: TR_UP9RP8183B_GQZCEE61_U_26J1JM386_VV3347SKXG4X2QFR8ROXG4Y3R__E_6_QW_QPR1LQY9X4VO369I
---True labels       : EAEVQTDOJG8RBRGONCEDHCTUIDBPUHMEM6OUXOCFOUKWA4VJEFRZROLHYNQDW_EKTLBWXEPOUIKZERYOOTHQI
---Accuracy: 23.5%
-- Repetition: 3
---Constructed labels: TN_TQ3NP2684B_HMZCED61QU_26V1JME86RVV4VR7WWXG4V8EFR2RO4GYZ349_E4TLQWXQPRULKY9X41OWH9I
---True labels       : EAEVQTDOJG8RBRGONCEDHCTUIDBPUHMEM6OUXOCFOUKWA4VJEFRZROLHYNQDW_EKTLBWXEPOUIKZERYOOTHQI
---Accuracy: 35.3%
-- Repetition: 4
---Constructed labels: T4_V9XFP2H8RBRHMZCED61QU_OHJ1JME86RVX4VFOWKXG3V8EFR8RO4GYZ34K_E4TLQWXEPOULK59RZ1OTT9I
---True labels       : EAEVQTDOJG8RBRGONCEDHCTUIDBPUHMEM6OUXOCFOUKWA4VJEFRZROLHYNQDW_EKTLBWXEPOUIKZERYOOTHQI
---Accuracy: 44.7%
-- Repetition: 5
---Constructed labels: BZ_V93FMJH8RBRH56CEEH1QULPHP1JME26RVX4VR7WKXGZ88EFR2RMLHYN3FK_E3TJQTXEPOULK59RZOOZT9I
---True labels       : EAEVQTDOJG8RBRGONCEDHCTUIDBPUHMEM6OUXOCFOUKWA4VJEFRZROLHYNQDW_EKTLBWXEPOUIKZERYOOTHQI
---Accuracy: 43.5%
-- Repetition: 6
---Constructed labels: EUWTQ3FOVH8RB4H86CEDHCEUIPHPUJME26OUX2VFOWKWG3VJEFR2RMLHYN9FK_E3TLEXXEPOULKY9RZOOTTQ7
---True labels       : EAEVQTDOJG8RBRGONCEDHCTUIDBPUHMEM6OUXOCFOUKWA4VJEFRZROLHYNQDW_EKTLBWXEPOUIKZERYOOTHQI
---Accuracy: 58.8%
-- Repetition: 7
---Constructed labels: EUWTQ3FODH8RB4H8NCEBHC9UIPBPUHME26OUX1VFOWKWGZVJEFRZROLHYN9FK_E3TLBVXEPOULKY9RYOOTTQI
---True labels       : EAEVQTDOJG8RBRGONCEDHCTUIDBPUHMEM6OUXOCFOUKWA4VJEFRZROLHYNQDW_EKTLBWXEPOUIKZERYOOTHQI
---Accuracy: 67.1%
-- Repetition: 8
---Constructed labels: EA9TQ3VODH8RB4H7NCEEHO9UIJBRUHMEZ6OUX1VFOUKWGZVJEFRZROLHYN3FK_E3TLEWXEPRULKY9RYOOTHQI
---True labels       : EAEVQTDOJG8RBRGONCEDHCTUIDBPUHMEM6OUXOCFOUKWA4VJEFRZROLHYNQDW_EKTLBWXEPOUIKZERYOOTHQI
---Accuracy: 67.1%
-- Repetition: 9
---Constructed labels: EA9VQYDOJH8RB4HONC3EH16UIJBRUHMEP6OUXOVFOUKWGZVJEFRZROLHYNQDK_EKTLEWXEPOULKY9RYOOTHQI
---True labels       : EAEVQTDOJG8RBRGONCEDHCTUIDBPUHMEM6OUXOCFOUKWA4VJEFRZROLHYNQDW_EKTLBWXEPOUIKZERYOOTHQI
---Accuracy: 76.5%
-- Repetition: 10
---Constructed labels: EA9VQSDOJH8RB4HONCEEH16UIPBPUHMEA6OUXOUFOUKWGZVJEFRZROLHYNQDW_EKTLEWXEPRULKYERYOOTHQI
---True labels       : EAEVQTDOJG8RBRGONCEDHCTUIDBPUHMEM6OUXOCFOUKWA4VJEFRZROLHYNQDW_EKTLBWXEPOUIKZERYOOTHQI
---Accuracy: 80.0%
-- Repetition: 11
---Constructed labels: EA9VQSDOJH8RBRHONCEEH16UIJBPUHMEA6OUXOUFOUKWGZVJEFRZROLHYNQDW_EKTLBWXEPOULK4ERYOOTHQI
---True labels       : EAEVQTDOJG8RBRGONCEDHCTUIDBPUHMEM6OUXOCFOUKWA4VJEFRZROLHYNQDW_EKTLBWXEPOUIKZERYOOTHQI
---Accuracy: 83.5%
-- Repetition: 12
---Constructed labels: EA9VQWDOJG8RBRHONCEEHO6UIPBPUHMEN6OUXOUFOUKWGZVJEFRZROLHYNQDW_EKTLBWXEPOULKYERYOOTHQI
---True labels       : EAEVQTDOJG8RBRGONCEDHCTUIDBPUHMEM6OUXOCFOUKWA4VJEFRZROLHYNQDW_EKTLBWXEPOUIKZERYOOTHQI
---Accuracy: 84.7%
-- Repetition: 13
---Constructed labels: EA9VQTVOJG8RBRHONCEDHC6UIDBPUHMEM6OUXOUFOUKWAZVJEFRZROLHYNQDW_EKTLBXXEPOULK4ERYOOTHQI
---True labels       : EAEVQTDOJG8RBRGONCEDHCTUIDBPUHMEM6OUXOCFOUKWA4VJEFRZROLHYNQDW_EKTLBWXEPOUIKZERYOOTHQI
---Accuracy: 89.4%
-- Repetition: 14
---Constructed labels: EAKVQTDOJG8RBRHONCEDHC6UIDBRUHMEM6OUXOUFOUKWA1VJEFRZROLHYNQDW_EKTLBWXEPOULK4ERYOOTHQI
---True labels       : EAEVQTDOJG8RBRGONCEDHCTUIDBPUHMEM6OUXOCFOUKWA4VJEFRZROLHYNQDW_EKTLBWXEPOUIKZERYOOTHQI
---Accuracy: 90.6%
-- Repetition: 15
---Constructed labels: EAKVQTDOJG8RBRHONCEDHC6UIDBPUHMEM6OUXOUFOUKWAZVJEFRZROLHYNQDW_EKTLBWXEPOULK4ERYOOTHQI
---True labels       : EAEVQTDOJG8RBRGONCEDHCTUIDBPUHMEM6OUXOCFOUKWA4VJEFRZROLHYNQDW_EKTLBWXEPOUIKZERYOOTHQI
---Accuracy: 91.8%
==== End classifier: QuadraticDiscriminantAnalysis
==== Start classifier: LinearSVC
-- Repetition: 1
---Constructed labels: ____8_____X___L___________6__R________________________4___________F_____7____________
---True labels       : EAEVQTDOJG8RBRGONCEDHCTUIDBPUHMEM6OUXOCFOUKWA4VJEFRZROLHYNQDW_EKTLBWXEPOUIKZERYOOTHQI
---Accuracy: 1.2%
-- Repetition: 2
---Constructed labels: ____8_____U___L___________6__R________________________4______5____F_____7____________
---True labels       : EAEVQTDOJG8RBRGONCEDHCTUIDBPUHMEM6OUXOCFOUKWA4VJEFRZROLHYNQDW_EKTLBWXEPOUIKZERYOOTHQI
---Accuracy: 0.0%
-- Repetition: 3
---Constructed labels: ____8_____U__5L___________6_7R__R_____________________4______5____F_____7____________
---True labels       : EAEVQTDOJG8RBRGONCEDHCTUIDBPUHMEM6OUXOCFOUKWA4VJEFRZROLHYNQDW_EKTLBWXEPOUIKZERYOOTHQI
---Accuracy: 0.0%
-- Repetition: 4
---Constructed labels: ____8_____V_6_L___________6_7R__R_____________________4______5P___F_____7____________
---True labels       : EAEVQTDOJG8RBRGONCEDHCTUIDBPUHMEM6OUXOCFOUKWA4VJEFRZROLHYNQDW_EKTLBWXEPOUIKZERYOOTHQI
---Accuracy: 0.0%
-- Repetition: 5
---Constructed labels: ____8_____V_6_L__F________6_7R__R_____________________4___R__5N___F_F_L_7__________F_
---True labels       : EAEVQTDOJG8RBRGONCEDHCTUIDBPUHMEM6OUXOCFOUKWA4VJEFRZROLHYNQDW_EKTLBWXEPOUIKZERYOOTHQI
---Accuracy: 0.0%
-- Repetition: 6
---Constructed labels: ____8_____V96_L__F_____7__6_7R__R_____________________4___R__5P___E_F_L_7__________F_
---True labels       : EAEVQTDOJG8RBRGONCEDHCTUIDBPUHMEM6OUXOCFOUKWA4VJEFRZROLHYNQDW_EKTLBWXEPOUIKZERYOOTHQI
---Accuracy: 0.0%
-- Repetition: 7
---Constructed labels: ____8_____896_L__F_____7__6_7R__R_______________F_____4___R__5V___E_F_L_7______7___F_
---True labels       : EAEVQTDOJG8RBRGONCEDHCTUIDBPUHMEM6OUXOCFOUKWA4VJEFRZROLHYNQDW_EKTLBWXEPOUIKZERYOOTHQI
---Accuracy: 1.2%
-- Repetition: 8
---Constructed labels: ____8_____896_L__F_____7__6_7R__R______4________F_____Y___R__5P_L_E_F_R_7______7___F_
---True labels       : EAEVQTDOJG8RBRGONCEDHCTUIDBPUHMEM6OUXOCFOUKWA4VJEFRZROLHYNQDW_EKTLBWXEPOUIKZERYOOTHQI
---Accuracy: 1.2%
-- Repetition: 9
---Constructed labels: ____8_____896_L__F_8___7__6_7R__R______4________F_____Y___R__5NLL_E_F_R_7______7__LF_
---True labels       : EAEVQTDOJG8RBRGONCEDHCTUIDBPUHMEM6OUXOCFOUKWA4VJEFRZROLHYNQDW_EKTLBWXEPOUIKZERYOOTHQI
---Accuracy: 1.2%
-- Repetition: 10
---Constructed labels: ____8_____896_L__F_8___7__6_7R__R______4_7______F_____YL__R__MTLL_E_F_R_7______7__LL_
---True labels       : EAEVQTDOJG8RBRGONCEDHCTUIDBPUHMEM6OUXOCFOUKWA4VJEFRZROLHYNQDW_EKTLBWXEPOUIKZERYOOTHQI
---Accuracy: 1.2%
-- Repetition: 11
---Constructed labels: ____8_____896_L7_F_8___7__B_7R__R______4_7______F_____YL__R__M9LL_E_F_R_7______7__LLF
---True labels       : EAEVQTDOJG8RBRGONCEDHCTUIDBPUHMEM6OUXOCFOUKWA4VJEFRZROLHYNQDW_EKTLBWXEPOUIKZERYOOTHQI
---Accuracy: 2.4%
-- Repetition: 12
---Constructed labels: ____8_____896_L7_F_8___7__B_7R__R______4_7______F__6__YL__R__6QLL_E_F_R_7______7__LLF
---True labels       : EAEVQTDOJG8RBRGONCEDHCTUIDBPUHMEM6OUXOCFOUKWA4VJEFRZROLHYNQDW_EKTLBWXEPOUIKZERYOOTHQI
---Accuracy: 2.4%
-- Repetition: 13
---Constructed labels: ____8_____896_L7_F_8___7__B_7R__R______4_7______F__6__GL__R__6QLL_E_F_R_7______7__LLF
---True labels       : EAEVQTDOJG8RBRGONCEDHCTUIDBPUHMEM6OUXOCFOUKWA4VJEFRZROLHYNQDW_EKTLBWXEPOUIKZERYOOTHQI
---Accuracy: 2.4%
-- Repetition: 14
---Constructed labels: ____8_____896_L7_F_8___7__B_7R__R______4_7______F__66_GL__R__6QLL_E_F_R_7______7__LLL
---True labels       : EAEVQTDOJG8RBRGONCEDHCTUIDBPUHMEM6OUXOCFOUKWA4VJEFRZROLHYNQDW_EKTLBWXEPOUIKZERYOOTHQI
---Accuracy: 2.4%
-- Repetition: 15
---Constructed labels: ____8_____896_L7_F_8___7__B_UR__R______4_7______F__66_GL__R__6QLL_E_F_R_7______7__LLL
---True labels       : EAEVQTDOJG8RBRGONCEDHCTUIDBPUHMEM6OUXOCFOUKWA4VJEFRZROLHYNQDW_EKTLBWXEPOUIKZERYOOTHQI
---Accuracy: 3.5%
==== End classifier: LinearSVC
==== Start classifier: SVC
-- Repetition: 1
---Constructed labels: EFEVRXDO8L8_BR5O6CEFHCXUL868UHME_67UXRCFRUKX54VJEFR4ROLHYN9F9_EKXLFXXEROUIK69RYOOXHRI
---True labels       : EAEVQTDOJG8RBRGONCEDHCTUIDBPUHMEM6OUXOCFOUKWA4VJEFRZROLHYNQDW_EKTLBWXEPOUIKZERYOOTHQI
---Accuracy: 62.4%
-- Repetition: 2
---Constructed labels: EAEVRTDOJG8RBR5ONCEDHCXUL8BPUHME56OUXOCFOUKWA4VJEFRZROLHYNQDW_EKTLFXXEPOUIKZERYOOTHQI
---True labels       : EAEVQTDOJG8RBRGONCEDHCTUIDBPUHMEM6OUXOCFOUKWA4VJEFRZROLHYNQDW_EKTLBWXEPOUIKZERYOOTHQI
---Accuracy: 90.6%
-- Repetition: 3
---Constructed labels: EAEVQTDOJG8RBRGONCEDHCTUKDBPUHME56OUXOCFOUKWA4VJEFRZROLHYNQDW_EKTLBWXEPOUIKZERYOOTHQI
---True labels       : EAEVQTDOJG8RBRGONCEDHCTUIDBPUHMEM6OUXOCFOUKWA4VJEFRZROLHYNQDW_EKTLBWXEPOUIKZERYOOTHQI
---Accuracy: 97.6%
-- Repetition: 4
---Constructed labels: EAEVQTDOJG8RBRGONCEDHCTUIDBPUHMEM6OUXOCFOUKWA4VJEFRZROLHYNQDW_EKTLBWXEPOUIKZERYOOTHQI
---True labels       : EAEVQTDOJG8RBRGONCEDHCTUIDBPUHMEM6OUXOCFOUKWA4VJEFRZROLHYNQDW_EKTLBWXEPOUIKZERYOOTHQI
---Accuracy: 100.0%
-- Repetition: 5
---Constructed labels: EAEVQTDOJG8RBRGONCEDHCTUIDBPUHMEM6OUXOCFOUKWA4VJEFRZROLHYNQDW_EKTLBWXEPOUIKZERYOOTHQI
---True labels       : EAEVQTDOJG8RBRGONCEDHCTUIDBPUHMEM6OUXOCFOUKWA4VJEFRZROLHYNQDW_EKTLBWXEPOUIKZERYOOTHQI
---Accuracy: 100.0%
-- Repetition: 6
---Constructed labels: EAEVQTDOJG8RBRGONCEDHCTUIDBPUHMEM6OUXOCFOUKWA4VJEFRZROLHYNQDW_EKTLBWXEPOUIKZERYOOTHQI
---True labels       : EAEVQTDOJG8RBRGONCEDHCTUIDBPUHMEM6OUXOCFOUKWA4VJEFRZROLHYNQDW_EKTLBWXEPOUIKZERYOOTHQI
---Accuracy: 100.0%
-- Repetition: 7
---Constructed labels: EAEVQTDOJG8RBRGONCEDHCTUIDBPUHMEM6OUXOCFOUKWA4VJEFRZROLHYNQDW_EKTLBWXEPOUIKZERYOOTHQI
---True labels       : EAEVQTDOJG8RBRGONCEDHCTUIDBPUHMEM6OUXOCFOUKWA4VJEFRZROLHYNQDW_EKTLBWXEPOUIKZERYOOTHQI
---Accuracy: 100.0%
-- Repetition: 8
---Constructed labels: EAEVQTDOJG8RBRGONCEDHCTUIDBPUHMEM6OUXOCFOUKWA4VJEFRZROLHYNQDW_EKTLBWXEPOUIKZERYOOTHQI
---True labels       : EAEVQTDOJG8RBRGONCEDHCTUIDBPUHMEM6OUXOCFOUKWA4VJEFRZROLHYNQDW_EKTLBWXEPOUIKZERYOOTHQI
---Accuracy: 100.0%
-- Repetition: 9
---Constructed labels: EAEVQTDOJG8RBRGONCEDHCTUIDBPUHMEM6OUXOCFOUKWA4VJEFRZROLHYNQDW_EKTLBWXEPOUIKZERYOOTHQI
---True labels       : EAEVQTDOJG8RBRGONCEDHCTUIDBPUHMEM6OUXOCFOUKWA4VJEFRZROLHYNQDW_EKTLBWXEPOUIKZERYOOTHQI
---Accuracy: 100.0%
-- Repetition: 10
---Constructed labels: EAEVQTDOJG8RBRGONCEDHCTUIDBPUHMEM6OUXOCFOUKWA4VJEFRZROLHYNQDW_EKTLBWXEPOUIKZERYOOTHQI
---True labels       : EAEVQTDOJG8RBRGONCEDHCTUIDBPUHMEM6OUXOCFOUKWA4VJEFRZROLHYNQDW_EKTLBWXEPOUIKZERYOOTHQI
---Accuracy: 100.0%
-- Repetition: 11
---Constructed labels: EAEVQTDOJG8RBRGONCEDHCTUIDBPUHMEM6OUXOCFOUKWA4VJEFRZROLHYNQDW_EKTLBWXEPOUIKZERYOOTHQI
---True labels       : EAEVQTDOJG8RBRGONCEDHCTUIDBPUHMEM6OUXOCFOUKWA4VJEFRZROLHYNQDW_EKTLBWXEPOUIKZERYOOTHQI
---Accuracy: 100.0%
-- Repetition: 12
---Constructed labels: EAEVQTDOJG8RBRGONCEDHCTUIDBPUHMEM6OUXOCFOUKWA4VJEFRZROLHYNQDW_EKTLBWXEPOUIKZERYOOTHQI
---True labels       : EAEVQTDOJG8RBRGONCEDHCTUIDBPUHMEM6OUXOCFOUKWA4VJEFRZROLHYNQDW_EKTLBWXEPOUIKZERYOOTHQI
---Accuracy: 100.0%
-- Repetition: 13
---Constructed labels: EAEVQTDOJG8RBRGONCEDHCTUIDBPUHMEM6OUXOCFOUKWA4VJEFRZROLHYNQDW_EKTLBWXEPOUIKZERYOOTHQI
---True labels       : EAEVQTDOJG8RBRGONCEDHCTUIDBPUHMEM6OUXOCFOUKWA4VJEFRZROLHYNQDW_EKTLBWXEPOUIKZERYOOTHQI
---Accuracy: 100.0%
-- Repetition: 14
---Constructed labels: EAEVQTDOJG8RBRGONCEDHCTUIDBPUHMEM6OUXOCFOUKWA4VJEFRZROLHYNQDW_EKTLBWXEPOUIKZERYOOTHQI
---True labels       : EAEVQTDOJG8RBRGONCEDHCTUIDBPUHMEM6OUXOCFOUKWA4VJEFRZROLHYNQDW_EKTLBWXEPOUIKZERYOOTHQI
---Accuracy: 100.0%
-- Repetition: 15
---Constructed labels: EAEVQTDOJG8RBRGONCEDHCTUIDBPUHMEM6OUXOCFOUKWA4VJEFRZROLHYNQDW_EKTLBWXEPOUIKZERYOOTHQI
---True labels       : EAEVQTDOJG8RBRGONCEDHCTUIDBPUHMEM6OUXOCFOUKWA4VJEFRZROLHYNQDW_EKTLBWXEPOUIKZERYOOTHQI
---Accuracy: 100.0%
==== End classifier: SVC
==== Start classifier: LDA_wyrm
-- Repetition: 1
---Constructed labels: 5TIJDPCRJB1VEMGOJI6XKBSUSDH8QRAK5FDU21PFRJ3EPKVCE2O6RG4B_XENE_1UVGFW4EINCMKMJCHOU76QH
---True labels       : EAEVQTDOJG8RBRGONCEDHCTUIDBPUHMEM6OUXOCFOUKWA4VJEFRZROLHYNQDW_EKTLBWXEPOUIKZERYOOTHQI
---Accuracy: 18.8%
-- Repetition: 2
---Constructed labels: JQCVDODOJB1AJMGGPC6DWCS1_DHPBPMY6KQ1ZOOR7DKFIQW7D2Q6RMLHG8_NWTC7WUBWXDPRCONGD44O1O6QK
---True labels       : EAEVQTDOJG8RBRGONCEDHCTUIDBPUHMEM6OUXOCFOUKWA4VJEFRZROLHYNQDW_EKTLBWXEPOUIKZERYOOTHQI
---Accuracy: 27.1%
-- Repetition: 3
---Constructed labels: RNAP5WERFG7EDMGMPC6D9CSX7DHN1NYLNHJ1NOCF7PKAJQV8D2L6RMLHG6ROW5AFWGBXXEPL7CB5DFYOO9TQK
---True labels       : EAEVQTDOJG8RBRGONCEDHCTUIDBPUHMEM6OUXOCFOUKWA4VJEFRZROLHYNQDW_EKTLBWXEPOUIKZERYOOTHQI
---Accuracy: 27.1%
-- Repetition: 4
---Constructed labels: BRCV5KFOFY1RBRGOPCED9BSX7DHRCNYJSJOKNOCR1OKWJQWJEEL6RMLHG6ROW5D5WHBXXEJOCCBSDL4OO9HQH
---True labels       : EAEVQTDOJG8RBRGONCEDHCTUIDBPUHMEM6OUXOCFOUKWA4VJEFRZROLHYNQDW_EKTLBWXEPOUIKZERYOOTHQI
---Accuracy: 35.3%
-- Repetition: 5
---Constructed labels: FREVMUFODG1RBRGONCEDKBSU7DHPU65JTDPUXOCF1CKUJ9V2EFL6RMLGG6QOWMD9WHBXUEJOCIBUDLZOO6HEH
---True labels       : EAEVQTDOJG8RBRGONCEDHCTUIDBPUHMEM6OUXOCFOUKWA4VJEFRZROLHYNQDW_EKTLBWXEPOUIKZERYOOTHQI
---Accuracy: 43.5%
-- Repetition: 6
---Constructed labels: DMEV5UFOFG1QBRGONCEDHBSU7DHPUN5JSBPUZOFF1CKWG3WJEFR6RMLHG6QOWMDKWHBXUEJOCIBHD4ZOOZHEH
---True labels       : EAEVQTDOJG8RBRGONCEDHCTUIDBPUHMEM6OUXOCFOUKWA4VJEFRZROLHYNQDW_EKTLBWXEPOUIKZERYOOTHQI
---Accuracy: 45.9%
-- Repetition: 7
---Constructed labels: DNEVQTFODG2QBRGONCBDHBSXIDHPUN5KS6OUZOCF1CKWGRVJEFR6RMLHGHQOXMDKWHBXTEJO7IBTDLZOOZHEH
---True labels       : EAEVQTDOJG8RBRGONCEDHCTUIDBPUHMEM6OUXOCFOUKWA4VJEFRZROLHYNQDW_EKTLBWXEPOUIKZERYOOTHQI
---Accuracy: 50.6%
-- Repetition: 8
---Constructed labels: D6EV9VFODG2RBRGONCEDHBSU7DHPUN5ES6OUZOCFOCKWG4VJEFL6RMLHG6QFXMDEWLBWTEPOCIBTDXZOOZHEH
---True labels       : EAEVQTDOJG8RBRGONCEDHCTUIDBPUHMEM6OUXOCFOUKWA4VJEFRZROLHYNQDW_EKTLBWXEPOUIKZERYOOTHQI
---Accuracy: 55.3%
-- Repetition: 9
---Constructed labels: DZEVQTFOJG8RBRGONCEDHBTX7DBPUNAES8OUTOCFOCKWG4VJEFLZRMLHGMQFWMEKTLBWXEPOCIKTDXZOO3HEH
---True labels       : EAEVQTDOJG8RBRGONCEDHCTUIDBPUHMEM6OUXOCFOUKWA4VJEFRZROLHYNQDW_EKTLBWXEPOUIKZERYOOTHQI
---Accuracy: 68.2%
-- Repetition: 10
---Constructed labels: FBEV9TFODG8RBRGONCEDHBTW7DBPUNAES8OUTOFFOCKWG4VJEFFZRMLHYMQFWMWKTLBWXEPOCIKTDXZOOZHEH
---True labels       : EAEVQTDOJG8RBRGONCEDHCTUIDBPUHMEM6OUXOCFOUKWA4VJEFRZROLHYNQDW_EKTLBWXEPOUIKZERYOOTHQI
---Accuracy: 64.7%
-- Repetition: 11
---Constructed labels: EAEV9TFODG8RBRGONCBDHBTWIDBPUNAES6OUTOFFOCKWG4WJEFFZRMLHYMQFWMEKTLBWXEPOCIHTDXZOOZHQH
---True labels       : EAEVQTDOJG8RBRGONCEDHCTUIDBPUHMEM6OUXOCFOUKWA4VJEFRZROLHYNQDW_EKTLBWXEPOUIKZERYOOTHQI
---Accuracy: 68.2%
-- Repetition: 12
---Constructed labels: FAEV9TDOJG8RBRGONCEDHBTUIDBPUHMES6OUTOCFOCJWG4VJEFFZRMLHYMQFWMEKTLBWXEPOCIHTEXZOOZHQH
---True labels       : EAEVQTDOJG8RBRGONCEDHCTUIDBPUHMEM6OUXOCFOUKWA4VJEFRZROLHYNQDW_EKTLBWXEPOUIKZERYOOTHQI
---Accuracy: 76.5%
-- Repetition: 13
---Constructed labels: FAEVQTFOJG8RBRGONCEDHBTUIDBPUHADS6OUTOFFOCKWJ4VJEFFZRMLHYMQFWMEKTLBWXEPOIIHHEXZOOZHQH
---True labels       : EAEVQTDOJG8RBRGONCEDHCTUIDBPUHMEM6OUXOCFOUKWA4VJEFRZROLHYNQDW_EKTLBWXEPOUIKZERYOOTHQI
---Accuracy: 74.1%
-- Repetition: 14
---Constructed labels: FCEV9TDOJG8RBRGONCEDHBTXIDBPUHAEM6OUTOFFOUKWG4VJE_FZRMLHYNQFWMEKTLBWXEPO1IBZEXZOOZHQI
---True labels       : EAEVQTDOJG8RBRGONCEDHCTUIDBPUHMEM6OUXOCFOUKWA4VJEFRZROLHYNQDW_EKTLBWXEPOUIKZERYOOTHQI
---Accuracy: 77.6%
-- Repetition: 15
---Constructed labels: EAEV9TDOJG8RBRGONCBDHBTUIDBPUHMEM8OUXOFFOUKWG4VJEFFZRMLHYNQFWMEKTLBWXEPO1IBZEXZOOZHQI
---True labels       : EAEVQTDOJG8RBRGONCEDHCTUIDBPUHMEM6OUXOCFOUKWA4VJEFRZROLHYNQDW_EKTLBWXEPOUIKZERYOOTHQI
---Accuracy: 82.4%
==== Start Subject: 1
==== Start classifier: GradientBoostingClassifier_0.1
-- Repetition: 1
---Constructed labels: ____5______L___________9_______________________R________________________R______6____7
---True labels       : VGREAAH8TVRHBYN_UGCOLO4EUERDOOHCIFOMDNU6LQCPKEIREKOYRQIDJXPBKOJDWZEUEWWFOEBHXTQTTZUMO
---Accuracy: 2.4%
-- Repetition: 2
---Constructed labels: ____5____8_L___________9_________________9_____R______7____________X____R______6____7
---True labels       : VGREAAH8TVRHBYN_UGCOLO4EUERDOOHCIFOMDNU6LQCPKEIREKOYRQIDJXPBKOJDWZEUEWWFOEBHXTQTTZUMO
---Accuracy: 2.4%
-- Repetition: 3
---Constructed labels: ____5____8_L___________9___F______R______9_____R______7__________4_X____R9_____6____7
---True labels       : VGREAAH8TVRHBYN_UGCOLO4EUERDOOHCIFOMDNU6LQCPKEIREKOYRQIDJXPBKOJDWZEUEWWFOEBHXTQTTZUMO
---Accuracy: 2.4%
-- Repetition: 4
---Constructed labels: ____5____8_L___________9___F_R____R______9_____R______7__________4_X_X__R9_____6____7
---True labels       : VGREAAH8TVRHBYN_UGCOLO4EUERDOOHCIFOMDNU6LQCPKEIREKOYRQIDJXPBKOJDWZEUEWWFOEBHXTQTTZUMO
---Accuracy: 2.4%
-- Repetition: 5
---Constructed labels: ____5F___8_L___________9___F_R____R______9_R___R______7__________4_X_XX_R9_____6____7
---True labels       : VGREAAH8TVRHBYN_UGCOLO4EUERDOOHCIFOMDNU6LQCPKEIREKOYRQIDJXPBKOJDWZEUEWWFOEBHXTQTTZUMO
---Accuracy: 2.4%
-- Repetition: 6
---Constructed labels: ____5F___V_L___________9___F_R_7_FR______9_R___RF_____7__________4_X_XX_R9_____6___57
---True labels       : VGREAAH8TVRHBYN_UGCOLO4EUERDOOHCIFOMDNU6LQCPKEIREKOYRQIDJXPBKOJDWZEUEWWFOEBHXTQTTZUMO
---Accuracy: 4.7%
-- Repetition: 7
---Constructed labels: ____5F__6V_L_________7_9___F_R_7_FR______9_R__7RF_____7__________4_X_XX_R9___X_6___57
---True labels       : VGREAAH8TVRHBYN_UGCOLO4EUERDOOHCIFOMDNU6LQCPKEIREKOYRQIDJXPBKOJDWZEUEWWFOEBHXTQTTZUMO
---Accuracy: 4.7%
-- Repetition: 8
---Constructed labels: ____5F__6V_L_________7_9___F1R_7_FR______9_R__7RF_____7__________4_X_XX_R9___X_6___57
---True labels       : VGREAAH8TVRHBYN_UGCOLO4EUERDOOHCIFOMDNU6LQCPKEIREKOYRQIDJXPBKOJDWZEUEWWFOEBHXTQTTZUMO
---Accuracy: 4.7%
-- Repetition: 9
---Constructed labels: ____5F__6V_L_________7_9___F1R_7_FR______9_R__7RF__L_R7F_____7___4_X_XX_R9___X_6___57
---True labels       : VGREAAH8TVRHBYN_UGCOLO4EUERDOOHCIFOMDNU6LQCPKEIREKOYRQIDJXPBKOJDWZEUEWWFOEBHXTQTTZUMO
---Accuracy: 4.7%
-- Repetition: 10
---Constructed labels: ___F5F__6V_L_________7_9___F1R_7_FR______9_R__7RF__L_R7F_____7___4FX_XX_R9___X_6___57
---True labels       : VGREAAH8TVRHBYN_UGCOLO4EUERDOOHCIFOMDNU6LQCPKEIREKOYRQIDJXPBKOJDWZEUEWWFOEBHXTQTTZUMO
---Accuracy: 4.7%
-- Repetition: 11
---Constructed labels: __LF5F__6V_L_________7_9___F1R___FR______9_R__7RF__L_R7F__R__7___4FX_XX_R9___X_6___57
---True labels       : VGREAAH8TVRHBYN_UGCOLO4EUERDOOHCIFOMDNU6LQCPKEIREKOYRQIDJXPBKOJDWZEUEWWFOEBHXTQTTZUMO
---Accuracy: 4.7%
-- Repetition: 12
---Constructed labels: __LF5F__6V_L_________7_9___F1R___FR______9_R__7RF__L_R7F__R__7___4FX_XX_RE___X_6___57
---True labels       : VGREAAH8TVRHBYN_UGCOLO4EUERDOOHCIFOMDNU6LQCPKEIREKOYRQIDJXPBKOJDWZEUEWWFOEBHXTQTTZUMO
---Accuracy: 5.9%
-- Repetition: 13
---Constructed labels: __LF5F__6V_L_________7_9_F_F1R___FR______9_R__7RF__L_R7F__R__7__X4FX_XX_RE_F_X_6___57
---True labels       : VGREAAH8TVRHBYN_UGCOLO4EUERDOOHCIFOMDNU6LQCPKEIREKOYRQIDJXPBKOJDWZEUEWWFOEBHXTQTTZUMO
---Accuracy: 5.9%
-- Repetition: 14
---Constructed labels: __LF5F__6V_L_________7_9_F_F1R___FR______9_R__7RF_7L_O7F__R__7__XZEX_XX_RE_F_X_T___57
---True labels       : VGREAAH8TVRHBYN_UGCOLO4EUERDOOHCIFOMDNU6LQCPKEIREKOYRQIDJXPBKOJDWZEUEWWFOEBHXTQTTZUMO
---Accuracy: 9.4%
-- Repetition: 15
---Constructed labels: __LF5F__6V_L_________7_E_F_F1R_7IFR______9_R__7RF_7L_O7F__R__7__XZEX_XX_RE_F_X_T___57
---True labels       : VGREAAH8TVRHBYN_UGCOLO4EUERDOOHCIFOMDNU6LQCPKEIREKOYRQIDJXPBKOJDWZEUEWWFOEBHXTQTTZUMO
---Accuracy: 11.8%
==== End classifier: GradientBoostingClassifier_0.1
==== Start classifier: AdaBoostClassifier
-- Repetition: 1
---Constructed labels: ___9__FFR_______4____R_L_______X_9_____6__F___7R__R___R____6_7_L__4_F___M7_5X__6__7_7
---True labels       : VGREAAH8TVRHBYN_UGCOLO4EUERDOOHCIFOMDNU6LQCPKEIREKOYRQIDJXPBKOJDWZEUEWWFOEBHXTQTTZUMO
---Accuracy: 4.7%
-- Repetition: 2
---Constructed labels: ___9__FFR8______4____R4LX_____IX_9_R___6_JF___74__R___O__7XN_7_L_X4XF___R7_9X__66_7_7
---True labels       : VGREAAH8TVRHBYN_UGCOLO4EUERDOOHCIFOMDNU6LQCPKEIREKOYRQIDJXPBKOJDWZEUEWWFOEBHXTQTTZUMO
---Accuracy: 4.7%
-- Repetition: 3
---Constructed labels: __LW__FFR8___Y__4___XO4LX_____KX_9OM8__6_JF___74__RR__O__7XB_794_44XFX_XR7_9X__66X8_7
---True labels       : VGREAAH8TVRHBYN_UGCOLO4EUERDOOHCIFOMDNU6LQCPKEIREKOYRQIDJXPBKOJDWZEUEWWFOEBHXTQTTZUMO
---Accuracy: 10.6%
-- Repetition: 4
---Constructed labels: _5LWXLFFR8___Y__444_XO4LX_X_XRKX_9OMD__6_KF_9F74_FRR_XO__7XB_O94_44XFX_XR7_9__966X8_7
---True labels       : VGREAAH8TVRHBYN_UGCOLO4EUERDOOHCIFOMDNU6LQCPKEIREKOYRQIDJXPBKOJDWZEUEWWFOEBHXTQTTZUMO
---Accuracy: 11.8%
-- Repetition: 5
---Constructed labels: _5LWXRDBR8___Y___44_XO4LX_X_XRKX_9OMDR76_KF_9F74FFOR_W7__7XB_OE4_44XFXX4R7_9__966X8_7
---True labels       : VGREAAH8TVRHBYN_UGCOLO4EUERDOOHCIFOMDNU6LQCPKEIREKOYRQIDJXPBKOJDWZEUEWWFOEBHXTQTTZUMO
---Accuracy: 12.9%
-- Repetition: 6
---Constructed labels: _5LWXL8BRV__7Y__X41_WO4LX8X_XRKU89OMDR76_KF_9D74FFOR_W7_L7RB_OE4_4ZUFXX4R759__9ZZX8_7
---True labels       : VGREAAH8TVRHBYN_UGCOLO4EUERDOOHCIFOMDNU6LQCPKEIREKOYRQIDJXPBKOJDWZEUEWWFOEBHXTQTTZUMO
---Accuracy: 15.3%
-- Repetition: 7
---Constructed labels: _5LWWL8BN2__73__U41_WO4HX8X_XRKU89OODR76_KF_9E74FFOR_W7_LORB_OE4_4ZUEXX4R759__9ZZX8_7
---True labels       : VGREAAH8TVRHBYN_UGCOLO4EUERDOOHCIFOMDNU6LQCPKEIREKOYRQIDJXPBKOJDWZEUEWWFOEBHXTQTTZUMO
---Accuracy: 15.3%
-- Repetition: 8
---Constructed labels: _5LWWL8BN2__73__U41_WO4HX8X8XXKU8EOODR76_KF_9E74FEOR_W78LQRB_OE1_4ZUEXX4R759__9ZZX8RC
---True labels       : VGREAAH8TVRHBYN_UGCOLO4EUERDOOHCIFOMDNU6LQCPKEIREKOYRQIDJXPBKOJDWZEUEWWFOEBHXTQTTZUMO
---Accuracy: 15.3%
-- Repetition: 9
---Constructed labels: _5LWWL8BN2__C3__W41_WO4HX8R8XXKU8EOODR7N_QF_9974FEOR_W78LWRB6OE2_4ZUEXX4R959_69ZZS8RC
---True labels       : VGREAAH8TVRHBYN_UGCOLO4EUERDOOHCIFOMDNU6LQCPKEIREKOYRQIDJXPBKOJDWZEUEWWFOEBHXTQTTZUMO
---Accuracy: 14.1%
-- Repetition: 10
---Constructed labels: X5_WWL8BN2_7C36_WY1RWO4HS8R8XXKU8EOODN7Q_QFRE974FEOR_W78LWRB6OEJ_4ZUEXX4R95E_69ZZS8RC
---True labels       : VGREAAH8TVRHBYN_UGCOLO4EUERDOOHCIFOMDNU6LQCPKEIREKOYRQIDJXPBKOJDWZEUEWWFOEBHXTQTTZUMO
---Accuracy: 15.3%
-- Repetition: 11
---Constructed labels: S5LWWL8BN2_7C36_WY1RWO4HS8R8XXKX8EOODN7Q_QFRE974FEOR_W78LWRB9OEJ_4ZUEXX4R95E_69ZZS8RC
---True labels       : VGREAAH8TVRHBYN_UGCOLO4EUERDOOHCIFOMDNU6LQCPKEIREKOYRQIDJXPBKOJDWZEUEWWFOEBHXTQTTZUMO
---Accuracy: 15.3%
-- Repetition: 12
---Constructed labels: S5L3WL8BN2_7C36_WY1RWO4KS8R8XXKX8EOODN7Q_QFRE974FEOR_W78LWRB9OEJ_4ZUEXX4R95E_69ZZS8RC
---True labels       : VGREAAH8TVRHBYN_UGCOLO4EUERDOOHCIFOMDNU6LQCPKEIREKOYRQIDJXPBKOJDWZEUEWWFOEBHXTQTTZUMO
---Accuracy: 15.3%
-- Repetition: 13
---Constructed labels: S5L3WL8BN2_7F36_WY1RWO4KSDR8XXLX8EOODN7Q_QFRE974FEOR_W78LWRB9OEJ_ZZUEXX4R95EX69ZZS8RC
---True labels       : VGREAAH8TVRHBYN_UGCOLO4EUERDOOHCIFOMDNU6LQCPKEIREKOYRQIDJXPBKOJDWZEUEWWFOEBHXTQTTZUMO
---Accuracy: 17.6%
-- Repetition: 14
---Constructed labels: S5L3WL8BN2_7F36_WY1RWO4KSDRDXXLX8E1ODN7Q_QFRE974F9OR_U78IWRB9OEJ923UEXXFR95EX69TZS8RC
---True labels       : VGREAAH8TVRHBYN_UGCOLO4EUERDOOHCIFOMDNU6LQCPKEIREKOYRQIDJXPBKOJDWZEUEWWFOEBHXTQTTZUMO
---Accuracy: 18.8%
-- Repetition: 15
---Constructed labels: S5R3WL8BN2_7F3T_WY1RWO4KSDRDXXLX8E1ODN79_QFRE974F9OR_U78I3RB9OEVK23UEXXFR95EX69TZS8RC
---True labels       : VGREAAH8TVRHBYN_UGCOLO4EUERDOOHCIFOMDNU6LQCPKEIREKOYRQIDJXPBKOJDWZEUEWWFOEBHXTQTTZUMO
---Accuracy: 20.0%
==== End classifier: AdaBoostClassifier
==== Start classifier: KNeighborsClassifier
-- Repetition: 1
---Constructed labels: __79AF___R_6R_____7__74_X__8R__7__RR4__97QL_K_5_E_R59L_6____9_L_76_OAX_F_E6____X_6_A_
---True labels       : VGREAAH8TVRHBYN_UGCOLO4EUERDOOHCIFOMDNU6LQCPKEIREKOYRQIDJXPBKOJDWZEUEWWFOEBHXTQTTZUMO
---Accuracy: 9.4%
-- Repetition: 2
---Constructed labels: _479BF8_WR_9N_7_7SC__O49T9_2R_617_OR4__6_QU_K95_WLOY9K78I__H9_L_76FUAX_F_E6X__LTX6_CF
---True labels       : VGREAAH8TVRHBYN_UGCOLO4EUERDOOHCIFOMDNU6LQCPKEIREKOYRQIDJXPBKOJDWZEUEWWFOEBHXTQTTZUMO
---Accuracy: 16.5%
-- Repetition: 3
---Constructed labels: 7479BF8_WP_9N_7_7SC__O4EU9R2RO6178URYRJ6_QU_Q98_WLOY_Q78J__HKRL7U3EUAX_F_E6W_XLTX65CO
---True labels       : VGREAAH8TVRHBYN_UGCOLO4EUERDOOHCIFOMDNU6LQCPKEIREKOYRQIDJXPBKOJDWZEUEWWFOEBHXTQTTZUMO
---Accuracy: 24.7%
-- Repetition: 4
---Constructed labels: 7479BF8_WQ_9N_7_7SC__O4EU942MP617DONYRJ6_QU_KEJ_WLRY_Q78P_UBKOL9U3EUAX_F_E6W_ULTX677O
---True labels       : VGREAAH8TVRHBYN_UGCOLO4EUERDOOHCIFOMDNU6LQCPKEIREKOYRQIDJXPBKOJDWZEUEWWFOEBHXTQTTZUMO
---Accuracy: 25.9%
-- Repetition: 5
---Constructed labels: 7479BF8_TQ_9N_7_7SC__O_EUE42MON17DONYRJ6_QU8KEJ4ELOY4Q78P_OBKOJDU3EUAW_FC3ZW_XITT675O
---True labels       : VGREAAH8TVRHBYN_UGCOLO4EUERDOOHCIFOMDNU6LQCPKEIREKOYRQIDJXPBKOJDWZEUEWWFOEBHXTQTTZUMO
---Accuracy: 34.1%
-- Repetition: 6
---Constructed labels: 747EAF6_TV_9Z_C_7SCR_O_WUE42MON17FON2RV6_Q18KEG4ELOY4Q78J_OBKOPDU3EUCW_FC3ZW_XKTW675O
---True labels       : VGREAAH8TVRHBYN_UGCOLO4EUERDOOHCIFOMDNU6LQCPKEIREKOYRQIDJXPBKOJDWZEUEWWFOEBHXTQTTZUMO
---Accuracy: 36.5%
-- Repetition: 7
---Constructed labels: 7GREABH_TVR61_B_7SCR_O_EUE42PON17FON2RV6_Q1PKEGREKOY4Q78J_MTKOPDU3EUCW_FC3ZW_TQTW675O
---True labels       : VGREAAH8TVRHBYN_UGCOLO4EUERDOOHCIFOMDNU6LQCPKEIREKOYRQIDJXPBKOJDWZEUEWWFOEBHXTQTTZUMO
---Accuracy: 47.1%
-- Repetition: 8
---Constructed labels: 7GREABH_TV_61_Z_7SCR_O_EUER2PON1IFONVRV6_Q1PKEGREKOY4Q78J_MBKOLDUZEUAW_FF3ZH_TQTWZ7MO
---True labels       : VGREAAH8TVRHBYN_UGCOLO4EUERDOOHCIFOMDNU6LQCPKEIREKOYRQIDJXPBKOJDWZEUEWWFOEBHXTQTTZUMO
---Accuracy: 54.1%
-- Repetition: 9
---Constructed labels: UGXEABH_TV_614Z_7SCR_O_EUER2QON1IFONVRU6_Q1PKEGREKOY4Q78JXMBKOLDWZEUAW_FF3ZHXTQTTZ7MO
---True labels       : VGREAAH8TVRHBYN_UGCOLO4EUERDOOHCIFOMDNU6LQCPKEIREKOYRQIDJXPBKOJDWZEUEWWFOEBHXTQTTZUMO
---Accuracy: 58.8%
-- Repetition: 10
---Constructed labels: UGXEABH_TV_HC4Z_7GCR_O_3UER2QON1IFONVRU6_Q1PKEGREKOYRQ78JXPBQOLDWZEUAW9FO3ZHXTQTTZ7MO
---True labels       : VGREAAH8TVRHBYN_UGCOLO4EUERDOOHCIFOMDNU6LQCPKEIREKOYRQIDJXPBKOJDWZEUEWWFOEBHXTQTTZUMO
---Accuracy: 62.4%
-- Repetition: 11
---Constructed labels: UGXEABH_TV_HC4Z_7GCO_O_3UER2Q1N1IFONVRU6_Q1PKEIREKOYRQIDJXPBQOJDWZEUAW9FOEZHXTQTTZ7MO
---True labels       : VGREAAH8TVRHBYN_UGCOLO4EUERDOOHCIFOMDNU6LQCPKEIREKOYRQIDJXPBKOJDWZEUEWWFOEBHXTQTTZUMO
---Accuracy: 68.2%
-- Repetition: 12
---Constructed labels: UGXEABH_TV_HA4Z_7GCO_O_3UER2Q1N1IFONSRU6LQ1PKEIREKOYRQI2JXPBQOJDWZEUAW9FRE6HXTQTTZ7MO
---True labels       : VGREAAH8TVRHBYN_UGCOLO4EUERDOOHCIFOMDNU6LQCPKEIREKOYRQIDJXPBKOJDWZEUEWWFOEBHXTQTTZUMO
---Accuracy: 67.1%
-- Repetition: 13
---Constructed labels: UGXEAAH_TV_HA4N_UGCO_O_3UER2Q1N1IFONSRU6LQ1PKEIREKOYRQIDJXPBQOJDWZEUEW9FREBHXTQT6Z7MO
---True labels       : VGREAAH8TVRHBYN_UGCOLO4EUERDOOHCIFOMDNU6LQCPKEIREKOYRQIDJXPBKOJDWZEUEWWFOEBHXTQTTZUMO
---Accuracy: 72.9%
-- Repetition: 14
---Constructed labels: UGXEAAH_TV_HA4N_UGCO_O43UER2Q1N1IFONVRU6LQ1PKEIREKOYRQIDJXPBQOJDWZEUEW9F_EBHXTQT6ZUMO
---True labels       : VGREAAH8TVRHBYN_UGCOLO4EUERDOOHCIFOMDNU6LQCPKEIREKOYRQIDJXPBKOJDWZEUEWWFOEBHXTQTTZUMO
---Accuracy: 75.3%
-- Repetition: 15
---Constructed labels: UGXEAAH_TVRHAZN_UGCO_O43UER2O1H1IFONVRU6LQ1PKEIREKOYRQUDJXPB3OJDWZEUEW9F_EBHXTQT6ZUMO
---True labels       : VGREAAH8TVRHBYN_UGCOLO4EUERDOOHCIFOMDNU6LQCPKEIREKOYRQIDJXPBKOJDWZEUEWWFOEBHXTQTTZUMO
---Accuracy: 77.6%
==== End classifier: KNeighborsClassifier
==== Start classifier: DecisionTreeClassifier
-- Repetition: 1
---Constructed labels: 84REABJ8TXRL6_N_X17O_O4EUWR8UO_C7FOM4T86_QOPKE_RE9OYR47DJXPF4C3DXZE9QXWFREB6_T3X63UM7
---True labels       : VGREAAH8TVRHBYN_UGCOLO4EUERDOOHCIFOMDNU6LQCPKEIREKOYRQIDJXPBKOJDWZEUEWWFOEBHXTQTTZUMO
---Accuracy: 50.6%
-- Repetition: 2
---Constructed labels: VYREAAH8TVRHB5N_UGCOLO4EUERDOOHC7FOMFNU6LQCPKEUREKOYR39DJX2BKOLDWZEUEWWFOEB6XTQTTZUMC
---True labels       : VGREAAH8TVRHBYN_UGCOLO4EUERDOOHCIFOMDNU6LQCPKEIREKOYRQIDJXPBKOJDWZEUEWWFOEBHXTQTTZUMO
---Accuracy: 87.1%
-- Repetition: 3
---Constructed labels: VGREAAH8TVRHBYT_UGCOLO4EUERDOOHCIFOMFNU6LQCMKEIRKKOYR3IDJXPBKOJDWZEUEWWFOEBHXTQTTZUMO
---True labels       : VGREAAH8TVRHBYN_UGCOLO4EUERDOOHCIFOMDNU6LQCPKEIREKOYRQIDJXPBKOJDWZEUEWWFOEBHXTQTTZUMO
---Accuracy: 94.1%
-- Repetition: 4
---Constructed labels: VGREAAH8TVRHBYN_UGCOLO4EUERDOOHCIFOMDNU6LQCPKEIREKOYRQIDJXPBKOJDWZEUEWWFOEBHXTQTTZUMO
---True labels       : VGREAAH8TVRHBYN_UGCOLO4EUERDOOHCIFOMDNU6LQCPKEIREKOYRQIDJXPBKOJDWZEUEWWFOEBHXTQTTZUMO
---Accuracy: 100.0%
-- Repetition: 5
---Constructed labels: VGREAAH8TVRHBYN_UGCOLO4EUERDOOHCIFOMDNU6LQCPKEIREKOYRQIDJXPBKOJDWZEUEWWFOEBHXTQTTZUMO
---True labels       : VGREAAH8TVRHBYN_UGCOLO4EUERDOOHCIFOMDNU6LQCPKEIREKOYRQIDJXPBKOJDWZEUEWWFOEBHXTQTTZUMO
---Accuracy: 100.0%
-- Repetition: 6
---Constructed labels: VGREAAH8TVRHBYN_UGCOLO4EUERDOOHCIFOMDNU6LQCPKEIREKOYRQIDJXPBKOJDWZEUEWWFOEBHXTQTTZUMO
---True labels       : VGREAAH8TVRHBYN_UGCOLO4EUERDOOHCIFOMDNU6LQCPKEIREKOYRQIDJXPBKOJDWZEUEWWFOEBHXTQTTZUMO
---Accuracy: 100.0%
-- Repetition: 7
---Constructed labels: VGREAAH8TVRHBYN_UGCOLO4EUERDOOHCIFOMDNU6LQCPKEIREKOYRQIDJXPBKOJDWZEUEWWFOEBHXTQTTZUMO
---True labels       : VGREAAH8TVRHBYN_UGCOLO4EUERDOOHCIFOMDNU6LQCPKEIREKOYRQIDJXPBKOJDWZEUEWWFOEBHXTQTTZUMO
---Accuracy: 100.0%
-- Repetition: 8
---Constructed labels: VGREAAH8TVRHBYN_UGCOLO4EUERDOOHCIFOMDNU6LQCPKEIREKOYRQIDJXPBKOJDWZEUEWWFOEBHXTQTTZUMO
---True labels       : VGREAAH8TVRHBYN_UGCOLO4EUERDOOHCIFOMDNU6LQCPKEIREKOYRQIDJXPBKOJDWZEUEWWFOEBHXTQTTZUMO
---Accuracy: 100.0%
-- Repetition: 9
---Constructed labels: VGREAAH8TVRHBYN_UGCOLO4EUERDOOHCIFOMDNU6LQCPKEIREKOYRQIDJXPBKOJDWZEUEWWFOEBHXTQTTZUMO
---True labels       : VGREAAH8TVRHBYN_UGCOLO4EUERDOOHCIFOMDNU6LQCPKEIREKOYRQIDJXPBKOJDWZEUEWWFOEBHXTQTTZUMO
---Accuracy: 100.0%
-- Repetition: 10
---Constructed labels: VGREAAH8TVRHBYN_UGCOLO4EUERDOOHCIFOMDNU6LQCPKEIREKOYRQIDJXPBKOJDWZEUEWWFOEBHXTQTTZUMO
---True labels       : VGREAAH8TVRHBYN_UGCOLO4EUERDOOHCIFOMDNU6LQCPKEIREKOYRQIDJXPBKOJDWZEUEWWFOEBHXTQTTZUMO
---Accuracy: 100.0%
-- Repetition: 11
---Constructed labels: VGREAAH8TVRHBYN_UGCOLO4EUERDOOHCIFOMDNU6LQCPKEIREKOYRQIDJXPBKOJDWZEUEWWFOEBHXTQTTZUMO
---True labels       : VGREAAH8TVRHBYN_UGCOLO4EUERDOOHCIFOMDNU6LQCPKEIREKOYRQIDJXPBKOJDWZEUEWWFOEBHXTQTTZUMO
---Accuracy: 100.0%
-- Repetition: 12
---Constructed labels: VGREAAH8TVRHBYN_UGCOLO4EUERDOOHCIFOMDNU6LQCPKEIREKOYRQIDJXPBKOJDWZEUEWWFOEBHXTQTTZUMO
---True labels       : VGREAAH8TVRHBYN_UGCOLO4EUERDOOHCIFOMDNU6LQCPKEIREKOYRQIDJXPBKOJDWZEUEWWFOEBHXTQTTZUMO
---Accuracy: 100.0%
-- Repetition: 13
---Constructed labels: VGREAAH8TVRHBYN_UGCOLO4EUERDOOHCIFOMDNU6LQCPKEIREKOYRQIDJXPBKOJDWZEUEWWFOEBHXTQTTZUMO
---True labels       : VGREAAH8TVRHBYN_UGCOLO4EUERDOOHCIFOMDNU6LQCPKEIREKOYRQIDJXPBKOJDWZEUEWWFOEBHXTQTTZUMO
---Accuracy: 100.0%
-- Repetition: 14
---Constructed labels: VGREAAH8TVRHBYN_UGCOLO4EUERDOOHCIFOMDNU6LQCPKEIREKOYRQIDJXPBKOJDWZEUEWWFOEBHXTQTTZUMO
---True labels       : VGREAAH8TVRHBYN_UGCOLO4EUERDOOHCIFOMDNU6LQCPKEIREKOYRQIDJXPBKOJDWZEUEWWFOEBHXTQTTZUMO
---Accuracy: 100.0%
-- Repetition: 15
---Constructed labels: VGREAAH8TVRHBYN_UGCOLO4EUERDOOHCIFOMDNU6LQCPKEIREKOYRQIDJXPBKOJDWZEUEWWFOEBHXTQTTZUMO
---True labels       : VGREAAH8TVRHBYN_UGCOLO4EUERDOOHCIFOMDNU6LQCPKEIREKOYRQIDJXPBKOJDWZEUEWWFOEBHXTQTTZUMO
---Accuracy: 100.0%
==== End classifier: DecisionTreeClassifier
==== Start classifier: RandomForestClassifier
-- Repetition: 1
---Constructed labels: 8_REAAH8TXRH6_6_XG7R_O4EUE_FOO_C7FOMFN76_QCPKE_RE9OYR_7DJXPFL7JDXZE7EX9FREB6_TQT6ZUM7
---True labels       : VGREAAH8TVRHBYN_UGCOLO4EUERDOOHCIFOMDNU6LQCPKEIREKOYRQIDJXPBKOJDWZEUEWWFOEBHXTQTTZUMO
---Accuracy: 61.2%
-- Repetition: 2
---Constructed labels: VGREAAH8TVRHB56_UGCRLO4EUERDOOHCIFOMFNU6LQCPKEIREKOYRQ7DJXPBKOJDWZEUEW9FOEB6XTQTTZUM7
---True labels       : VGREAAH8TVRHBYN_UGCOLO4EUERDOOHCIFOMDNU6LQCPKEIREKOYRQIDJXPBKOJDWZEUEWWFOEBHXTQTTZUMO
---Accuracy: 90.6%
-- Repetition: 3
---Constructed labels: VGREAAH8TVRHBY6_UGCOLO4EUERDOOHCIFOMDNU6LQCPKEIREKOYRQIDJXPBKOJDWZEUEWWFOEBHXTQTTZUMO
---True labels       : VGREAAH8TVRHBYN_UGCOLO4EUERDOOHCIFOMDNU6LQCPKEIREKOYRQIDJXPBKOJDWZEUEWWFOEBHXTQTTZUMO
---Accuracy: 98.8%
-- Repetition: 4
---Constructed labels: VGREAAH8TVRHBYN_UGCOLO4EUERDOOHCIFOMDNU6LQCPKEIREKOYRQIDJXPBKOJDWZEUEWWFOEBHXTQTTZUMO
---True labels       : VGREAAH8TVRHBYN_UGCOLO4EUERDOOHCIFOMDNU6LQCPKEIREKOYRQIDJXPBKOJDWZEUEWWFOEBHXTQTTZUMO
---Accuracy: 100.0%
-- Repetition: 5
---Constructed labels: VGREAAH8TVRHBYN_UGCOLO4EUERDOOHCIFOMDNU6LQCPKEIREKOYRQIDJXPBKOJDWZEUEWWFOEBHXTQTTZUMO
---True labels       : VGREAAH8TVRHBYN_UGCOLO4EUERDOOHCIFOMDNU6LQCPKEIREKOYRQIDJXPBKOJDWZEUEWWFOEBHXTQTTZUMO
---Accuracy: 100.0%
-- Repetition: 6
---Constructed labels: VGREAAH8TVRHBYN_UGCOLO4EUERDOOHCIFOMDNU6LQCPKEIREKOYRQIDJXPBKOJDWZEUEWWFOEBHXTQTTZUMO
---True labels       : VGREAAH8TVRHBYN_UGCOLO4EUERDOOHCIFOMDNU6LQCPKEIREKOYRQIDJXPBKOJDWZEUEWWFOEBHXTQTTZUMO
---Accuracy: 100.0%
-- Repetition: 7
---Constructed labels: VGREAAH8TVRHBYN_UGCOLO4EUERDOOHCIFOMDNU6LQCPKEIREKOYRQIDJXPBKOJDWZEUEWWFOEBHXTQTTZUMO
---True labels       : VGREAAH8TVRHBYN_UGCOLO4EUERDOOHCIFOMDNU6LQCPKEIREKOYRQIDJXPBKOJDWZEUEWWFOEBHXTQTTZUMO
---Accuracy: 100.0%
-- Repetition: 8
---Constructed labels: VGREAAH8TVRHBYN_UGCOLO4EUERDOOHCIFOMDNU6LQCPKEIREKOYRQIDJXPBKOJDWZEUEWWFOEBHXTQTTZUMO
---True labels       : VGREAAH8TVRHBYN_UGCOLO4EUERDOOHCIFOMDNU6LQCPKEIREKOYRQIDJXPBKOJDWZEUEWWFOEBHXTQTTZUMO
---Accuracy: 100.0%
-- Repetition: 9
---Constructed labels: VGREAAH8TVRHBYN_UGCOLO4EUERDOOHCIFOMDNU6LQCPKEIREKOYRQIDJXPBKOJDWZEUEWWFOEBHXTQTTZUMO
---True labels       : VGREAAH8TVRHBYN_UGCOLO4EUERDOOHCIFOMDNU6LQCPKEIREKOYRQIDJXPBKOJDWZEUEWWFOEBHXTQTTZUMO
---Accuracy: 100.0%
-- Repetition: 10
---Constructed labels: VGREAAH8TVRHBYN_UGCOLO4EUERDOOHCIFOMDNU6LQCPKEIREKOYRQIDJXPBKOJDWZEUEWWFOEBHXTQTTZUMO
---True labels       : VGREAAH8TVRHBYN_UGCOLO4EUERDOOHCIFOMDNU6LQCPKEIREKOYRQIDJXPBKOJDWZEUEWWFOEBHXTQTTZUMO
---Accuracy: 100.0%
-- Repetition: 11
---Constructed labels: VGREAAH8TVRHBYN_UGCOLO4EUERDOOHCIFOMDNU6LQCPKEIREKOYRQIDJXPBKOJDWZEUEWWFOEBHXTQTTZUMO
---True labels       : VGREAAH8TVRHBYN_UGCOLO4EUERDOOHCIFOMDNU6LQCPKEIREKOYRQIDJXPBKOJDWZEUEWWFOEBHXTQTTZUMO
---Accuracy: 100.0%
-- Repetition: 12
---Constructed labels: VGREAAH8TVRHBYN_UGCOLO4EUERDOOHCIFOMDNU6LQCPKEIREKOYRQIDJXPBKOJDWZEUEWWFOEBHXTQTTZUMO
---True labels       : VGREAAH8TVRHBYN_UGCOLO4EUERDOOHCIFOMDNU6LQCPKEIREKOYRQIDJXPBKOJDWZEUEWWFOEBHXTQTTZUMO
---Accuracy: 100.0%
-- Repetition: 13
---Constructed labels: VGREAAH8TVRHBYN_UGCOLO4EUERDOOHCIFOMDNU6LQCPKEIREKOYRQIDJXPBKOJDWZEUEWWFOEBHXTQTTZUMO
---True labels       : VGREAAH8TVRHBYN_UGCOLO4EUERDOOHCIFOMDNU6LQCPKEIREKOYRQIDJXPBKOJDWZEUEWWFOEBHXTQTTZUMO
---Accuracy: 100.0%
-- Repetition: 14
---Constructed labels: VGREAAH8TVRHBYN_UGCOLO4EUERDOOHCIFOMDNU6LQCPKEIREKOYRQIDJXPBKOJDWZEUEWWFOEBHXTQTTZUMO
---True labels       : VGREAAH8TVRHBYN_UGCOLO4EUERDOOHCIFOMDNU6LQCPKEIREKOYRQIDJXPBKOJDWZEUEWWFOEBHXTQTTZUMO
---Accuracy: 100.0%
-- Repetition: 15
---Constructed labels: VGREAAH8TVRHBYN_UGCOLO4EUERDOOHCIFOMDNU6LQCPKEIREKOYRQIDJXPBKOJDWZEUEWWFOEBHXTQTTZUMO
---True labels       : VGREAAH8TVRHBYN_UGCOLO4EUERDOOHCIFOMDNU6LQCPKEIREKOYRQIDJXPBKOJDWZEUEWWFOEBHXTQTTZUMO
---Accuracy: 100.0%
==== End classifier: RandomForestClassifier
==== Start classifier: LDA_scikitlearn
-- Repetition: 1
---Constructed labels: ___________________6___________X__R____________R__R_____7__H____________R____________
---True labels       : VGREAAH8TVRHBYN_UGCOLO4EUERDOOHCIFOMDNU6LQCPKEIREKOYRQIDJXPBKOJDWZEUEWWFOEBHXTQTTZUMO
---Accuracy: 2.4%
-- Repetition: 2
---Constructed labels: ___________________6_74_______6X__R____________R__R_____77XH___F___X____R_______6____
---True labels       : VGREAAH8TVRHBYN_UGCOLO4EUERDOOHCIFOMDNU6LQCPKEIREKOYRQIDJXPBKOJDWZEUEWWFOEBHXTQTTZUMO
---Accuracy: 3.5%
-- Repetition: 3
---Constructed labels: _____________5_____6_74____F__6X__R____________R_LRR____I7XH_R_F___X_X__Q_______6____
---True labels       : VGREAAH8TVRHBYN_UGCOLO4EUERDOOHCIFOMDNU6LQCPKEIREKOYRQIDJXPBKOJDWZEUEWWFOEBHXTQTTZUMO
---Accuracy: 3.5%
-- Repetition: 4
---Constructed labels: ___F_____F___5____76_O4____F7RZX5_R________F___R_LRR9___I7XH_R_F_8_X_X__Q___5_9_6___7
---True labels       : VGREAAH8TVRHBYN_UGCOLO4EUERDOOHCIFOMDNU6LQCPKEIREKOYRQIDJXPBKOJDWZEUEWWFOEBHXTQTTZUMO
---Accuracy: 4.7%
-- Repetition: 5
---Constructed labels: _5_F_R66_F___5____76_O1____F7RZU5_R_F______F___R_LRQ9___I7XH_R_F_8_X_V4_Q___5_9_6___7
---True labels       : VGREAAH8TVRHBYN_UGCOLO4EUERDOOHCIFOMDNU6LQCPKEIREKOYRQIDJXPBKOJDWZEUEWWFOEBHXTQTTZUMO
---Accuracy: 3.5%
-- Repetition: 6
---Constructed labels: _55F_R66_F___5____76_O1_X8_F7RZU5_O_F_L____F___R_LRQ9___I7XHLR_F_8_X_V4_Q___5X9_6___7
---True labels       : VGREAAH8TVRHBYN_UGCOLO4EUERDOOHCIFOMDNU6LQCPKEIREKOYRQIDJXPBKOJDWZEUEWWFOEBHXTQTTZUMO
---Accuracy: 4.7%
-- Repetition: 7
---Constructed labels: _85E4R66_F___5____76_O16X8_F7RZU5_O_F_L____F___R5LRQ9___IOXHLO_F_85X_V4_Q___5X9_6___7
---True labels       : VGREAAH8TVRHBYN_UGCOLO4EUERDOOHCIFOMDNU6LQCPKEIREKOYRQIDJXPBKOJDWZEUEWWFOEBHXTQTTZUMO
---Accuracy: 7.1%
-- Repetition: 8
---Constructed labels: _D5E4R66_F_L_5____76_O1ZX8_F1RZU5_O_F_L____F_L_R5LRR9__RIQXHLO_F_85X_V4_Q___5X9_6___7
---True labels       : VGREAAH8TVRHBYN_UGCOLO4EUERDOOHCIFOMDNU6LQCPKEIREKOYRQIDJXPBKOJDWZEUEWWFOEBHXTQTTZUMO
---Accuracy: 7.1%
-- Repetition: 9
---Constructed labels: _D5E4R66_D_L_Y5___O64O1ZXD_F1RZU5FO_F_L__R9F_L_R5LRR9__RIQXH6O_F_8AX_V1_Q___5T9_6___7
---True labels       : VGREAAH8TVRHBYN_UGCOLO4EUERDOOHCIFOMDNU6LQCPKEIREKOYRQIDJXPBKOJDWZEUEWWFOEBHXTQTTZUMO
---Accuracy: 10.6%
-- Repetition: 10
---Constructed labels: _D5E4R69_D_I_Y5__5O64O11XD_41RZU5FO_F_LR_R9F_L_R5LRR9__ROQXH6R_L_8AX_V1_Q___5T9_6___7
---True labels       : VGREAAH8TVRHBYN_UGCOLO4EUERDOOHCIFOMDNU6LQCPKEIREKOYRQIDJXPBKOJDWZEUEWWFOEBHXTQTTZUMO
---Accuracy: 9.4%
-- Repetition: 11
---Constructed labels: _DGE4R69_D_I_Y58_5O64O11XD_41RZXYFO_F_LR_R9F_L_R5LRR9__ROQXH6R_F98AX_V1_Q___5T9_6_X_7
---True labels       : VGREAAH8TVRHBYN_UGCOLO4EUERDOOHCIFOMDNU6LQCPKEIREKOYRQIDJXPBKOJDWZEUEWWFOEBHXTQTTZUMO
---Accuracy: 8.2%
-- Repetition: 12
---Constructed labels: _DGE4R69_D_I_Y58_5O64O11XD_41RZXYFO_F_LR_R9F_L_R5LRR9__ROQXH6R_F98BX_V1_Q___5T9_6_X_7
---True labels       : VGREAAH8TVRHBYN_UGCOLO4EUERDOOHCIFOMDNU6LQCPKEIREKOYRQIDJXPBKOJDWZEUEWWFOEBHXTQTTZUMO
---Accuracy: 8.2%
-- Repetition: 13
---Constructed labels: LDME4R69_D_I_Y5855O64O11XD_41R4XYFO_F_LR_R9L_L_R5LRR9__ROQRH6R_FW8BX_V1_Q__F5T9_T_X_7
---True labels       : VGREAAH8TVRHBYN_UGCOLO4EUERDOOHCIFOMDNU6LQCPKEIREKOYRQIDJXPBKOJDWZEUEWWFOEBHXTQTTZUMO
---Accuracy: 10.6%
-- Repetition: 14
---Constructed labels: LDME4R69_D_I_Y5855ON4O11XDR41R4XYFR_F_LR_R9L_L_R5LRR977ROQRH6R_FW8BT_V1_Q__F5T96T_X_7
---True labels       : VGREAAH8TVRHBYN_UGCOLO4EUERDOOHCIFOMDNU6LQCPKEIREKOYRQIDJXPBKOJDWZEUEWWFOEBHXTQTTZUMO
---Accuracy: 10.6%
-- Repetition: 15
---Constructed labels: LDME2R69_D_I_Y5855ON4O71XDR41R4X1FR_F_LR_R9L_L_R5LRR977ROQRH6R_FWDBT_V1_Q__F5T96T_X57
---True labels       : VGREAAH8TVRHBYN_UGCOLO4EUERDOOHCIFOMDNU6LQCPKEIREKOYRQIDJXPBKOJDWZEUEWWFOEBHXTQTTZUMO
---Accuracy: 10.6%
==== End classifier: LDA_scikitlearn
==== Start classifier: QuadraticDiscriminantAnalysis
-- Repetition: 1
---Constructed labels: ___3A4__VX4H6____G__7_4__9X2R__F7_RMF_7_9QL_9__R_9R5___F__Q65__9X_E_____R7F7_TKZ6__R_
---True labels       : VGREAAH8TVRHBYN_UGCOLO4EUERDOOHCIFOMDNU6LQCPKEIREKOYRQIDJXPBKOJDWZEUEWWFOEBHXTQTTZUMO
---Accuracy: 11.8%
-- Repetition: 2
---Constructed labels: _L_3C4H_TX4HB_7_UG4_7949_9XDR76F7XRMF_U_XQFRK97R_9M5RQRFF_PBW7_9X3EXX_9_O7F7_V9TT47O_
---True labels       : VGREAAH8TVRHBYN_UGCOLO4EUERDOOHCIFOMDNU6LQCPKEIREKOYRQIDJXPBKOJDWZEUEWWFOEBHXTQTTZUMO
---Accuracy: 25.9%
-- Repetition: 3
---Constructed labels: _G_3C4J8TX4HBY7_UG4R_74EUERDR7HF7DOMDXU9XQFQK9IR_9OYRQRDDDPBW76PX3EXXW9RQ7FFXT9TT47RO
---True labels       : VGREAAH8TVRHBYN_UGCOLO4EUERDOOHCIFOMDNU6LQCPKEIREKOYRQIDJXPBKOJDWZEUEWWFOEBHXTQTTZUMO
---Accuracy: 44.7%
-- Repetition: 4
---Constructed labels: XG_3T2H8TV4KBY6_UG1R_74EUQRDPONFIDOMDTU9XQFQK9IR_9O5RQRDDDPBW76PX3EXXW9ROKF4XT9TT47OO
---True labels       : VGREAAH8TVRHBYN_UGCOLO4EUERDOOHCIFOMDNU6LQCPKEIREKOYRQIDJXPBKOJDWZEUEWWFOEBHXTQTTZUMO
---Accuracy: 45.9%
-- Repetition: 5
---Constructed labels: XGRET8H8TW4KBY6_UG1R_74EUQRDPONCIFOQDNU9XQFQK9IRF9OYRQRDDXPBE78DW3EXFWWFQKFZXT9TT47OO
---True labels       : VGREAAH8TVRHBYN_UGCOLO4EUERDOOHCIFOMDNU6LQCPKEIREKOYRQIDJXPBKOJDWZEUEWWFOEBHXTQTTZUMO
---Accuracy: 55.3%
-- Repetition: 6
---Constructed labels: XG4ET5H8TV4KFY6_UGCR_94EU3RDOONDUFOMDNU_XQFPKEIRE9OYRQRDJXPBEO8DW3EXFWWFQKFZXT9TTZUMO
---True labels       : VGREAAH8TVRHBYN_UGCOLO4EUERDOOHCIFOMDNU6LQCPKEIREKOYRQIDJXPBKOJDWZEUEWWFOEBHXTQTTZUMO
---Accuracy: 64.7%
-- Repetition: 7
---Constructed labels: XGRE3AH8TVRHBY6_UGCR_74EU3RDOONCUFOM2TU_XQFPKEIREKOYRQODL_PBEO_DW3EXEWWFQKFHXT9TTZUMO
---True labels       : VGREAAH8TVRHBYN_UGCOLO4EUERDOOHCIFOMDNU6LQCPKEIREKOYRQIDJXPBKOJDWZEUEWWFOEBHXTQTTZUMO
---Accuracy: 70.6%
-- Repetition: 8
---Constructed labels: XGRE3AH8TVRHBY6_UGCR_74EUERDOONCIFOM2NU_LQFPK3IREKOYRQODLXPBEO5DW3EUEWWFQEFHXT9TTZUMO
---True labels       : VGREAAH8TVRHBYN_UGCOLO4EUERDOOHCIFOMDNU6LQCPKEIREKOYRQIDJXPBKOJDWZEUEWWFOEBHXTQTTZUMO
---Accuracy: 77.6%
-- Repetition: 9
---Constructed labels: XGREEAH8TVRHBY6_UGCP_74EUERDOONCIFOMDNU_LQFPK9IREKOYRQODLXPBEO5DW3EUEWWFOEFHXT9TTZUMO
---True labels       : VGREAAH8TVRHBYN_UGCOLO4EUERDOOHCIFOMDNU6LQCPKEIREKOYRQIDJXPBKOJDWZEUEWWFOEBHXTQTTZUMO
---Accuracy: 80.0%
-- Repetition: 10
---Constructed labels: XGREEAH8TVRIBY6_UGCP_74EUERDOONCIFOMDNU6LQFPK9IREKOYRQODJXPBEO5DW3EUEWWFOEBHXTQTTZUMO
---True labels       : VGREAAH8TVRHBYN_UGCOLO4EUERDOOHCIFOMDNU6LQCPKEIREKOYRQIDJXPBKOJDWZEUEWWFOEBHXTQTTZUMO
---Accuracy: 83.5%
-- Repetition: 11
---Constructed labels: SGREEAH8TVRHBY6_UGCP_74EUERDOOHCIFOMDNUHLQCPK9IREKOYRQODIXPBKO5DW3EUEWWFOEBHXT9TTZUMO
---True labels       : VGREAAH8TVRHBYN_UGCOLO4EUERDOOHCIFOMDNU6LQCPKEIREKOYRQIDJXPBKOJDWZEUEWWFOEBHXTQTTZUMO
---Accuracy: 84.7%
-- Repetition: 12
---Constructed labels: SGREEAH8TVRHBYZ_UGCP_74EUERDOOHCIFOMDNUHLQCPKKIREKOYRQODJXPBKOGDWZEUEWWFOEBHXTQTTZUMO
---True labels       : VGREAAH8TVRHBYN_UGCOLO4EUERDOOHCIFOMDNU6LQCPKEIREKOYRQIDJXPBKOJDWZEUEWWFOEBHXTQTTZUMO
---Accuracy: 88.2%
-- Repetition: 13
---Constructed labels: SGREEAH8TVRHBYZ_UGCP_O4EUERDOOHCIFOMDNU6LQCPKKIREKOYRQODJXPBWOJDWZEUEWWFOEBHXTQTTZUMO
---True labels       : VGREAAH8TVRHBYN_UGCOLO4EUERDOOHCIFOMDNU6LQCPKEIREKOYRQIDJXPBKOJDWZEUEWWFOEBHXTQTTZUMO
---Accuracy: 90.6%
-- Repetition: 14
---Constructed labels: SGREEAH8TVRHBYZ_UGCPLO4EUERDOOHCIFOMDNU6LQCPKKIREKOYRQODIXPBWOJDWZEUEWWFOEBHXTQTTZUMO
---True labels       : VGREAAH8TVRHBYN_UGCOLO4EUERDOOHCIFOMDNU6LQCPKEIREKOYRQIDJXPBKOJDWZEUEWWFOEBHXTQTTZUMO
---Accuracy: 90.6%
-- Repetition: 15
---Constructed labels: VGREEAH8TVRHB2N_UGCPLO4EUERDOOHCIFOMDNU6LQCPKKIREKOYRQODIXPBWOJDWZEUEWWFOEBHXTQTTZUMO
---True labels       : VGREAAH8TVRHBYN_UGCOLO4EUERDOOHCIFOMDNU6LQCPKEIREKOYRQIDJXPBKOJDWZEUEWWFOEBHXTQTTZUMO
---Accuracy: 91.8%
==== End classifier: QuadraticDiscriminantAnalysis
==== Start classifier: LinearSVC
-- Repetition: 1
---Constructed labels: ___________________6_________________________________________________________________
---True labels       : VGREAAH8TVRHBYN_UGCOLO4EUERDOOHCIFOMDNU6LQCPKEIREKOYRQIDJXPBKOJDWZEUEWWFOEBHXTQTTZUMO
---Accuracy: 1.2%
-- Repetition: 2
---Constructed labels: ___________________6__________6____________________________F_______X_________________
---True labels       : VGREAAH8TVRHBYN_UGCOLO4EUERDOOHCIFOMDNU6LQCPKEIREKOYRQIDJXPBKOJDWZEUEWWFOEBHXTQTTZUMO
---Accuracy: 1.2%
-- Repetition: 3
---Constructed labels: ___________________6__________6____________________________F_______X_________________
---True labels       : VGREAAH8TVRHBYN_UGCOLO4EUERDOOHCIFOMDNU6LQCPKEIREKOYRQIDJXPBKOJDWZEUEWWFOEBHXTQTTZUMO
---Accuracy: 1.2%
-- Repetition: 4
---Constructed labels: ___F_______________6__________6____________________________F_______X________5________
---True labels       : VGREAAH8TVRHBYN_UGCOLO4EUERDOOHCIFOMDNU6LQCPKEIREKOYRQIDJXPBKOJDWZEUEWWFOEBHXTQTTZUMO
---Accuracy: 1.2%
-- Repetition: 5
---Constructed labels: ___F__6____________6__________6____________________________F_______X__X_____5________
---True labels       : VGREAAH8TVRHBYN_UGCOLO4EUERDOOHCIFOMDNU6LQCPKEIREKOYRQIDJXPBKOJDWZEUEWWFOEBHXTQTTZUMO
---Accuracy: 1.2%
-- Repetition: 6
---Constructed labels: ___F__6____________6__________6____________________________F_______X__X_____5________
---True labels       : VGREAAH8TVRHBYN_UGCOLO4EUERDOOHCIFOMDNU6LQCPKEIREKOYRQIDJXPBKOJDWZEUEWWFOEBHXTQTTZUMO
---Accuracy: 1.2%
-- Repetition: 7
---Constructed labels: ___F__6____________6__________6____________________________F_______X__X_____5________
---True labels       : VGREAAH8TVRHBYN_UGCOLO4EUERDOOHCIFOMDNU6LQCPKEIREKOYRQIDJXPBKOJDWZEUEWWFOEBHXTQTTZUMO
---Accuracy: 1.2%
-- Repetition: 8
---Constructed labels: ___F__6____________6__________6______________L_____________F_______X__X_____5________
---True labels       : VGREAAH8TVRHBYN_UGCOLO4EUERDOOHCIFOMDNU6LQCPKEIREKOYRQIDJXPBKOJDWZEUEWWFOEBHXTQTTZUMO
---Accuracy: 1.2%
-- Repetition: 9
---Constructed labels: ___F__6______4_____6__________6___________9__L_____________F_R_____X__X_____5________
---True labels       : VGREAAH8TVRHBYN_UGCOLO4EUERDOOHCIFOMDNU6LQCPKEIREKOYRQIDJXPBKOJDWZEUEWWFOEBHXTQTTZUMO
---Accuracy: 1.2%
-- Repetition: 10
---Constructed labels: ___F__6______4_____6__________6___________9__L_____________F_R_____X__X_____5________
---True labels       : VGREAAH8TVRHBYN_UGCOLO4EUERDOOHCIFOMDNU6LQCPKEIREKOYRQIDJXPBKOJDWZEUEWWFOEBHXTQTTZUMO
---Accuracy: 1.2%
-- Repetition: 11
---Constructed labels: __LF__6______4_____6__________6___________9__L_____________F_R__9__X__X_____5________
---True labels       : VGREAAH8TVRHBYN_UGCOLO4EUERDOOHCIFOMDNU6LQCPKEIREKOYRQIDJXPBKOJDWZEUEWWFOEBHXTQTTZUMO
---Accuracy: 1.2%
-- Repetition: 12
---Constructed labels: __LF__6______4_____6__________6___________9__L_____________F_R__9__X__X_____5________
---True labels       : VGREAAH8TVRHBYN_UGCOLO4EUERDOOHCIFOMDNU6LQCPKEIREKOYRQIDJXPBKOJDWZEUEWWFOEBHXTQTTZUMO
---Accuracy: 1.2%
-- Repetition: 13
---Constructed labels: __RF__6______4_____6__________6___________9__L_____________F_R__9__X__X_____5________
---True labels       : VGREAAH8TVRHBYN_UGCOLO4EUERDOOHCIFOMDNU6LQCPKEIREKOYRQIDJXPBKOJDWZEUEWWFOEBHXTQTTZUMO
---Accuracy: 2.4%
-- Repetition: 14
---Constructed labels: __RF__6______4_____6__________6___________9__L_______7_____F_R__98_X__X_____5________
---True labels       : VGREAAH8TVRHBYN_UGCOLO4EUERDOOHCIFOMDNU6LQCPKEIREKOYRQIDJXPBKOJDWZEUEWWFOEBHXTQTTZUMO
---Accuracy: 2.4%
-- Repetition: 15
---Constructed labels: __RF__6______4_____6__________6_7_________9__L_______7_____F_R__98_X__X_____5______5_
---True labels       : VGREAAH8TVRHBYN_UGCOLO4EUERDOOHCIFOMDNU6LQCPKEIREKOYRQIDJXPBKOJDWZEUEWWFOEBHXTQTTZUMO
---Accuracy: 2.4%
==== End classifier: LinearSVC
==== Start classifier: SVC
-- Repetition: 1
---Constructed labels: 8_REAAH8TXRH6_6_XG7R_O4EUE_FOO_C7FOMFN76_QCPKE_RE9OYR_7DJXPFL7JDXZE7EX9FREB6_TQT6ZUM7
---True labels       : VGREAAH8TVRHBYN_UGCOLO4EUERDOOHCIFOMDNU6LQCPKEIREKOYRQIDJXPBKOJDWZEUEWWFOEBHXTQTTZUMO
---Accuracy: 61.2%
-- Repetition: 2
---Constructed labels: VGREAAH8TVRHB56_UGCRLO4EUERDOOHCIFOMFNU6LQCPKEIREKOYRQ7DJXPBKOJDWZEUEW9FOEB6XTQTTZUM7
---True labels       : VGREAAH8TVRHBYN_UGCOLO4EUERDOOHCIFOMDNU6LQCPKEIREKOYRQIDJXPBKOJDWZEUEWWFOEBHXTQTTZUMO
---Accuracy: 90.6%
-- Repetition: 3
---Constructed labels: VGREAAH8TVRHBY6_UGCOLO4EUERDOOHCIFOMDNU6LQCPKEIREKOYRQIDJXPBKOJDWZEUEWWFOEBHXTQTTZUMO
---True labels       : VGREAAH8TVRHBYN_UGCOLO4EUERDOOHCIFOMDNU6LQCPKEIREKOYRQIDJXPBKOJDWZEUEWWFOEBHXTQTTZUMO
---Accuracy: 98.8%
-- Repetition: 4
---Constructed labels: VGREAAH8TVRHBYN_UGCOLO4EUERDOOHCIFOMDNU6LQCPKEIREKOYRQIDJXPBKOJDWZEUEWWFOEBHXTQTTZUMO
---True labels       : VGREAAH8TVRHBYN_UGCOLO4EUERDOOHCIFOMDNU6LQCPKEIREKOYRQIDJXPBKOJDWZEUEWWFOEBHXTQTTZUMO
---Accuracy: 100.0%
-- Repetition: 5
---Constructed labels: VGREAAH8TVRHBYN_UGCOLO4EUERDOOHCIFOMDNU6LQCPKEIREKOYRQIDJXPBKOJDWZEUEWWFOEBHXTQTTZUMO
---True labels       : VGREAAH8TVRHBYN_UGCOLO4EUERDOOHCIFOMDNU6LQCPKEIREKOYRQIDJXPBKOJDWZEUEWWFOEBHXTQTTZUMO
---Accuracy: 100.0%
-- Repetition: 6
---Constructed labels: VGREAAH8TVRHBYN_UGCOLO4EUERDOOHCIFOMDNU6LQCPKEIREKOYRQIDJXPBKOJDWZEUEWWFOEBHXTQTTZUMO
---True labels       : VGREAAH8TVRHBYN_UGCOLO4EUERDOOHCIFOMDNU6LQCPKEIREKOYRQIDJXPBKOJDWZEUEWWFOEBHXTQTTZUMO
---Accuracy: 100.0%
-- Repetition: 7
---Constructed labels: VGREAAH8TVRHBYN_UGCOLO4EUERDOOHCIFOMDNU6LQCPKEIREKOYRQIDJXPBKOJDWZEUEWWFOEBHXTQTTZUMO
---True labels       : VGREAAH8TVRHBYN_UGCOLO4EUERDOOHCIFOMDNU6LQCPKEIREKOYRQIDJXPBKOJDWZEUEWWFOEBHXTQTTZUMO
---Accuracy: 100.0%
-- Repetition: 8
---Constructed labels: VGREAAH8TVRHBYN_UGCOLO4EUERDOOHCIFOMDNU6LQCPKEIREKOYRQIDJXPBKOJDWZEUEWWFOEBHXTQTTZUMO
---True labels       : VGREAAH8TVRHBYN_UGCOLO4EUERDOOHCIFOMDNU6LQCPKEIREKOYRQIDJXPBKOJDWZEUEWWFOEBHXTQTTZUMO
---Accuracy: 100.0%
-- Repetition: 9
---Constructed labels: VGREAAH8TVRHBYN_UGCOLO4EUERDOOHCIFOMDNU6LQCPKEIREKOYRQIDJXPBKOJDWZEUEWWFOEBHXTQTTZUMO
---True labels       : VGREAAH8TVRHBYN_UGCOLO4EUERDOOHCIFOMDNU6LQCPKEIREKOYRQIDJXPBKOJDWZEUEWWFOEBHXTQTTZUMO
---Accuracy: 100.0%
-- Repetition: 10
---Constructed labels: VGREAAH8TVRHBYN_UGCOLO4EUERDOOHCIFOMDNU6LQCPKEIREKOYRQIDJXPBKOJDWZEUEWWFOEBHXTQTTZUMO
---True labels       : VGREAAH8TVRHBYN_UGCOLO4EUERDOOHCIFOMDNU6LQCPKEIREKOYRQIDJXPBKOJDWZEUEWWFOEBHXTQTTZUMO
---Accuracy: 100.0%
-- Repetition: 11
---Constructed labels: VGREAAH8TVRHBYN_UGCOLO4EUERDOOHCIFOMDNU6LQCPKEIREKOYRQIDJXPBKOJDWZEUEWWFOEBHXTQTTZUMO
---True labels       : VGREAAH8TVRHBYN_UGCOLO4EUERDOOHCIFOMDNU6LQCPKEIREKOYRQIDJXPBKOJDWZEUEWWFOEBHXTQTTZUMO
---Accuracy: 100.0%
-- Repetition: 12
---Constructed labels: VGREAAH8TVRHBYN_UGCOLO4EUERDOOHCIFOMDNU6LQCPKEIREKOYRQIDJXPBKOJDWZEUEWWFOEBHXTQTTZUMO
---True labels       : VGREAAH8TVRHBYN_UGCOLO4EUERDOOHCIFOMDNU6LQCPKEIREKOYRQIDJXPBKOJDWZEUEWWFOEBHXTQTTZUMO
---Accuracy: 100.0%
-- Repetition: 13
---Constructed labels: VGREAAH8TVRHBYN_UGCOLO4EUERDOOHCIFOMDNU6LQCPKEIREKOYRQIDJXPBKOJDWZEUEWWFOEBHXTQTTZUMO
---True labels       : VGREAAH8TVRHBYN_UGCOLO4EUERDOOHCIFOMDNU6LQCPKEIREKOYRQIDJXPBKOJDWZEUEWWFOEBHXTQTTZUMO
---Accuracy: 100.0%
-- Repetition: 14
---Constructed labels: VGREAAH8TVRHBYN_UGCOLO4EUERDOOHCIFOMDNU6LQCPKEIREKOYRQIDJXPBKOJDWZEUEWWFOEBHXTQTTZUMO
---True labels       : VGREAAH8TVRHBYN_UGCOLO4EUERDOOHCIFOMDNU6LQCPKEIREKOYRQIDJXPBKOJDWZEUEWWFOEBHXTQTTZUMO
---Accuracy: 100.0%
-- Repetition: 15
---Constructed labels: VGREAAH8TVRHBYN_UGCOLO4EUERDOOHCIFOMDNU6LQCPKEIREKOYRQIDJXPBKOJDWZEUEWWFOEBHXTQTTZUMO
---True labels       : VGREAAH8TVRHBYN_UGCOLO4EUERDOOHCIFOMDNU6LQCPKEIREKOYRQIDJXPBKOJDWZEUEWWFOEBHXTQTTZUMO
---Accuracy: 100.0%
==== End classifier: SVC
==== Start classifier: LDA_wyrm
-- Repetition: 1
---Constructed labels: J8LEZ3MFNW2RGPP_UYMHVR29TJVDZNTXIQOM512NLUXNADLRMJRAZNO8CTJHS7P3P14OEYQLO1MCUNATTV78X
---True labels       : VGREAAH8TVRHBYN_UGCOLO4EUERDOOHCIFOMDNU6LQCPKEIREKOYRQIDJXPBKOJDWZEUEWWFOEBHXTQTTZUMO
---Accuracy: 15.3%
-- Repetition: 2
---Constructed labels: V6REICN5NJRLY2O7U2CNVO49TJ2ANWHWHKOOGXWNXIUPEFIR3VMAR3O7C7PHS7PEPUYUD3W_OPM1UNMTHVCMM
---True labels       : VGREAAH8TVRHBYN_UGCOLO4EUERDOOHCIFOMDNU6LQCPKEIREKOYRQIDJXPBKOJDWZEUEWWFOEBHXTQTTZUMO
---Accuracy: 23.5%
-- Repetition: 3
---Constructed labels: V6XWHYH7NVPLYYI4UJONX115T82D3WHWSJOOJS36LI7PELIR3KMARQO7INPBTOPDPUYUDWW_OQM3UHQTTV7MM
---True labels       : VGREAAH8TVRHBYN_UGCOLO4EUERDOOHCIFOMDNU6LQCPKEIREKOYRQIDJXPBKOJDWZEUEWWFOEBHXTQTTZUMO
---Accuracy: 32.9%
-- Repetition: 4
---Constructed labels: V5RETCH7NJPLYYI4UGUNXOZAUD2D1MIWSLOOJP36LKUPDDHR3JROQKODICPBSOPEPVEUEUW_O3N3UNQTT3IMO
---True labels       : VGREAAH8TVRHBYN_UGCOLO4EUERDOOHCIFOMDNU6LQCPKEIREKOYRQIDJXPBKOJDWZEUEWWFOEBHXTQTTZUMO
---Accuracy: 34.1%
-- Repetition: 5
---Constructed labels: V5RETCN8MSPGYSI47JUMXO1EUDWD1MIUSFOODP37RQUPDDIRQJRQQKODICPBTOPEPVEUDVW_OENKXTQTT2IMO
---True labels       : VGREAAH8TVRHBYN_UGCOLO4EUERDOOHCIFOMDNU6LQCPKEIREKOYRQIDJXPBKOJDWZEUEWWFOEBHXTQTTZUMO
---Accuracy: 36.5%
-- Repetition: 6
---Constructed labels: V5RECBHPMTRGYYI_UKIMWOZEUDLD1MIUSLOMDPK6RQCODDIREJRQQW7DIUPBTOJERVEUJWW_OENKXTQTT2UMO
---True labels       : VGREAAH8TVRHBYN_UGCOLO4EUERDOOHCIFOMDNU6LQCPKEIREKOYRQIDJXPBKOJDWZEUEWWFOEBHXTQTTZUMO
---Accuracy: 47.1%
-- Repetition: 7
---Constructed labels: V5REZAN8TVPGYYI_UKIMWO15UDRDCYIUSFOMDM97LQCODDIRKJ4QQWODIOPHTOPEQVEUEWWLOENKXTQTTVUMO
---True labels       : VGREAAH8TVRHBYN_UGCOLO4EUERDOOHCIFOMDNU6LQCPKEIREKOYRQIDJXPBKOJDWZEUEWWFOEBHXTQTTZUMO
---Accuracy: 48.2%
-- Repetition: 8
---Constructed labels: V5RE6AH8TVPG65O4UGIMXOZ9UDRDZYIUSFOMDM97LQUPJJIRKKRQQWODIOPBWOJDQ2EUEWW_OEHKXTQTTVUMO
---True labels       : VGREAAH8TVRHBYN_UGCOLO4EUERDOOHCIFOMDNU6LQCPKEIREKOYRQIDJXPBKOJDWZEUEWWFOEBHXTQTTZUMO
---Accuracy: 52.9%
-- Repetition: 9
---Constructed labels: V5RE6AH8TVRGBYM_UGIOXOZ9UDRD1YHCSFOMDM9ZLQUOJJIRKKRQQWIDIOPBTOJDQ2EUDWWFOEHKXTQTTVUMO
---True labels       : VGREAAH8TVRHBYN_UGCOLO4EUERDOOHCIFOMDNU6LQCPKEIREKOYRQIDJXPBKOJDWZEUEWWFOEBHXTQTTZUMO
---Accuracy: 61.2%
-- Repetition: 10
---Constructed labels: V5RE6MH8TVRGBYG4UGIO4OZEUERDC1HCSFOMDM9ZLQUPJJIRKKOQQEUDIOPBHOJDQ2EUDWWFOEHKXTQTT2UMO
---True labels       : VGREAAH8TVRHBYN_UGCOLO4EUERDOOHCIFOMDNU6LQCPKEIREKOYRQIDJXPBKOJDWZEUEWWFOEBHXTQTTZUMO
---Accuracy: 62.4%
-- Repetition: 11
---Constructed labels: VGRE6MH8TVRGBYM_UGCO4OZEUDRD11HUAFOMDMIZLQCPJDIRKKOQQWIDIOPBHOJDQ2EUEWWFOEHKXTQTT2UMO
---True labels       : VGREAAH8TVRHBYN_UGCOLO4EUERDOOHCIFOMDNU6LQCPKEIREKOYRQIDJXPBKOJDWZEUEWWFOEBHXTQTTZUMO
---Accuracy: 67.1%
-- Repetition: 12
---Constructed labels: VGRE6AH8TVRGBYM_UKIO4OZEUERD11HCGFOMDMI6LQCPJDIRKKNRQWIDIXPBBOJDQ2EUDWWFOEHKXTQTT2UMO
---True labels       : VGREAAH8TVRHBYN_UGCOLO4EUERDOOHCIFOMDNU6LQCPKEIREKOYRQIDJXPBKOJDWZEUEWWFOEBHXTQTTZUMO
---Accuracy: 68.2%
-- Repetition: 13
---Constructed labels: V5RE6AH8TVRGBYM_UKCO4OZEUERDC1HCGFOMDM76LQIPJDIRQKNRR31DIQPBTOJDQVEUEWWFOEHKXTQTT2UMO
---True labels       : VGREAAH8TVRHBYN_UGCOLO4EUERDOOHCIFOMDNU6LQCPKEIREKOYRQIDJXPBKOJDWZEUEWWFOEBHXTQTTZUMO
---Accuracy: 67.1%
-- Repetition: 14
---Constructed labels: VGRE6AH8TVRGBYO_UGCO4OZEUERDC1HCGFOMDMIZLQIPJJIRQKOORW1DIQPBWOJDQVEUEWWFOEGKXTQTT2UMO
---True labels       : VGREAAH8TVRHBYN_UGCOLO4EUERDOOHCIFOMDNU6LQCPKEIREKOYRQIDJXPBKOJDWZEUEWWFOEBHXTQTTZUMO
---Accuracy: 69.4%
-- Repetition: 15
---Constructed labels: VGREBAH8TVRGBYO_UGCO4O4EUERDC1HCGFOMDMI6LQIPJDIRQKOORW1DIQPBWOJDQVEUEWWFOEHKXTQTT2UMO
---True labels       : VGREAAH8TVRHBYN_UGCOLO4EUERDOOHCIFOMDNU6LQCPKEIREKOYRQIDJXPBKOJDWZEUEWWFOEBHXTQTTZUMO
---Accuracy: 71.8%