==== Start Subject: 0
==== Start classifier: GradientBoostingClassifier_0.1
-- Repetition: 1
---Constructed labels: ___________________________________________________R____________________________________9___________
---True labels       : WQXPLZCOMRKO97YFZDEZ1DPI9NNVGRQDJCUVRMEUOOOJD2UFYPOO6J7LDGYEGOA5VHNEHBTXOO1TDOILUEE5BFAEEXAW_K4R3MRU
---Accuracy: 1.0%
-- Repetition: 2
---Constructed labels: ___________________________________________________R____________________________________9___________
---True labels       : WQXPLZCOMRKO97YFZDEZ1DPI9NNVGRQDJCUVRMEUOOOJD2UFYPOO6J7LDGYEGOA5VHNEHBTXOO1TDOILUEE5BFAEEXAW_K4R3MRU
---Accuracy: 1.0%
-- Repetition: 3
---Constructed labels: ___________________________________________________R____________________________________9___________
---True labels       : WQXPLZCOMRKO97YFZDEZ1DPI9NNVGRQDJCUVRMEUOOOJD2UFYPOO6J7LDGYEGOA5VHNEHBTXOO1TDOILUEE5BFAEEXAW_K4R3MRU
---Accuracy: 1.0%
-- Repetition: 4
---Constructed labels: ___________________________________________________R____________________________________9___________
---True labels       : WQXPLZCOMRKO97YFZDEZ1DPI9NNVGRQDJCUVRMEUOOOJD2UFYPOO6J7LDGYEGOA5VHNEHBTXOO1TDOILUEE5BFAEEXAW_K4R3MRU
---Accuracy: 1.0%
-- Repetition: 5
---Constructed labels: ___________7______________________________R________R____________________________________9___________
---True labels       : WQXPLZCOMRKO97YFZDEZ1DPI9NNVGRQDJCUVRMEUOOOJD2UFYPOO6J7LDGYEGOA5VHNEHBTXOO1TDOILUEE5BFAEEXAW_K4R3MRU
---Accuracy: 1.0%
-- Repetition: 6
---Constructed labels: ___________7___________________________X__R________R____________________________________9___________
---True labels       : WQXPLZCOMRKO97YFZDEZ1DPI9NNVGRQDJCUVRMEUOOOJD2UFYPOO6J7LDGYEGOA5VHNEHBTXOO1TDOILUEE5BFAEEXAW_K4R3MRU
---Accuracy: 1.0%
-- Repetition: 7
---Constructed labels: ___________7___________________________X__R________R____________________________________9___________
---True labels       : WQXPLZCOMRKO97YFZDEZ1DPI9NNVGRQDJCUVRMEUOOOJD2UFYPOO6J7LDGYEGOA5VHNEHBTXOO1TDOILUEE5BFAEEXAW_K4R3MRU
---Accuracy: 1.0%
-- Repetition: 8
---Constructed labels: ___________7___________________________X__R________R______________________6_____________9___________
---True labels       : WQXPLZCOMRKO97YFZDEZ1DPI9NNVGRQDJCUVRMEUOOOJD2UFYPOO6J7LDGYEGOA5VHNEHBTXOO1TDOILUEE5BFAEEXAW_K4R3MRU
---Accuracy: 1.0%
-- Repetition: 9
---Constructed labels: ___________7_____________________5_____X__R________R__________9___________6_____________9___________
---True labels       : WQXPLZCOMRKO97YFZDEZ1DPI9NNVGRQDJCUVRMEUOOOJD2UFYPOO6J7LDGYEGOA5VHNEHBTXOO1TDOILUEE5BFAEEXAW_K4R3MRU
---Accuracy: 1.0%
-- Repetition: 10
---Constructed labels: ______R____7_____________________5_____X__R________R__________9___________6_____________9___________
---True labels       : WQXPLZCOMRKO97YFZDEZ1DPI9NNVGRQDJCUVRMEUOOOJD2UFYPOO6J7LDGYEGOA5VHNEHBTXOO1TDOILUEE5BFAEEXAW_K4R3MRU
---Accuracy: 1.0%
-- Repetition: 11
---Constructed labels: ____L_R____7_____________________5____8X__R________R__________9___________6_____________9___________
---True labels       : WQXPLZCOMRKO97YFZDEZ1DPI9NNVGRQDJCUVRMEUOOOJD2UFYPOO6J7LDGYEGOA5VHNEHBTXOO1TDOILUEE5BFAEEXAW_K4R3MRU
---Accuracy: 2.0%
-- Repetition: 12
---Constructed labels: ____L_R____7______________F______5____8X__R________R__________9___________6___________X_9___________
---True labels       : WQXPLZCOMRKO97YFZDEZ1DPI9NNVGRQDJCUVRMEUOOOJD2UFYPOO6J7LDGYEGOA5VHNEHBTXOO1TDOILUEE5BFAEEXAW_K4R3MRU
---Accuracy: 2.0%
-- Repetition: 13
---Constructed labels: ____L_R____7______________F______5____8X__R________R__________9___________6___________X_9___________
---True labels       : WQXPLZCOMRKO97YFZDEZ1DPI9NNVGRQDJCUVRMEUOOOJD2UFYPOO6J7LDGYEGOA5VHNEHBTXOO1TDOILUEE5BFAEEXAW_K4R3MRU
---Accuracy: 2.0%
-- Repetition: 14
---Constructed labels: ____L_R____7______________F______5____8X__R________R_______8__9___________6___________X_9___________
---True labels       : WQXPLZCOMRKO97YFZDEZ1DPI9NNVGRQDJCUVRMEUOOOJD2UFYPOO6J7LDGYEGOA5VHNEHBTXOO1TDOILUEE5BFAEEXAW_K4R3MRU
---Accuracy: 2.0%
-- Repetition: 15
---Constructed labels: ____L_R____7______________F______5____8X__R________R_______8__9___________6___________X_9___________
---True labels       : WQXPLZCOMRKO97YFZDEZ1DPI9NNVGRQDJCUVRMEUOOOJD2UFYPOO6J7LDGYEGOA5VHNEHBTXOO1TDOILUEE5BFAEEXAW_K4R3MRU
---Accuracy: 2.0%
==== End classifier: GradientBoostingClassifier_0.1
==== Start classifier: AdaBoostClassifier
-- Repetition: 1
---Constructed labels: ___XO_O_______4____4F____________F_________8_8_____6___F______5___________7A____________9__9___F___7
---True labels       : WQXPLZCOMRKO97YFZDEZ1DPI9NNVGRQDJCUVRMEUOOOJD2UFYPOO6J7LDGYEGOA5VHNEHBTXOO1TDOILUEE5BFAEEXAW_K4R3MRU
---Accuracy: 1.0%
-- Repetition: 2
---Constructed labels: _R9XO_O_5_____4___F4F____________C_________8_8___X_6___L6_____M__L__X_____1D_____3___L8_9RAE__4F___7
---True labels       : WQXPLZCOMRKO97YFZDEZ1DPI9NNVGRQDJCUVRMEUOOOJD2UFYPOO6J7LDGYEGOA5VHNEHBTXOO1TDOILUEE5BFAEEXAW_K4R3MRU
---Accuracy: 6.0%
-- Repetition: 3
---Constructed labels: _R9XO_OR5__X__4___F4F_L_______9__C___5____78_8__RU_6_5_H6_3__RM_9L__X_____1D_9___3___LD_EXAEF_4F_5_7
---True labels       : WQXPLZCOMRKO97YFZDEZ1DPI9NNVGRQDJCUVRMEUOOOJD2UFYPOO6J7LDGYEGOA5VHNEHBTXOO1TDOILUEE5BFAEEXAW_K4R3MRU
---Accuracy: 6.0%
-- Repetition: 4
---Constructed labels: LR9WO_OR5L_X__Z_X_F4F_L_4____69_JC___SE__878_8__RU66_5_H6_3F_RM_3L_3XF____1D_9_X438__LD_EXAEF_4R_5_7
---True labels       : WQXPLZCOMRKO97YFZDEZ1DPI9NNVGRQDJCUVRMEUOOOJD2UFYPOO6J7LDGYEGOA5VHNEHBTXOO1TDOILUEE5BFAEEXAW_K4R3MRU
---Accuracy: 9.0%
-- Repetition: 5
---Constructed labels: L_KWO_OR5L_U__Z8X_F4F3LL4_____E_JCX_4SE_78O8_8__RU6N95_H6_3F_RM_3L_3XB____1D99_X438__LDFEXA9F_3R_5_7
---True labels       : WQXPLZCOMRKO97YFZDEZ1DPI9NNVGRQDJCUVRMEUOOOJD2UFYPOO6J7LDGYEGOA5VHNEHBTXOO1TDOILUEE5BFAEEXAW_K4R3MRU
---Accuracy: 10.0%
-- Repetition: 6
---Constructed labels: L_KWO_OX5L_U_R12X_F413LL4_____K_JCX_4SEX78O8_8__RUZN95_J6_3A7RM_3LL3XB____1D99FX438__LLFEX59F_3R45_7
---True labels       : WQXPLZCOMRKO97YFZDEZ1DPI9NNVGRQDJCUVRMEUOOOJD2UFYPOO6J7LDGYEGOA5VHNEHBTXOO1TDOILUEE5BFAEEXAW_K4R3MRU
---Accuracy: 10.0%
-- Repetition: 7
---Constructed labels: L_K91_OX5L_1_R1DX_F_13LL3__66_K_JCX_4SEX78O8_8U_RU2N9Y9J843A7RM_3LL3XB_X__1D99FX438__LLFEX59F43R4__9
---True labels       : WQXPLZCOMRKO97YFZDEZ1DPI9NNVGRQDJCUVRMEUOOOJD2UFYPOO6J7LDGYEGOA5VHNEHBTXOO1TDOILUEE5BFAEEXAW_K4R3MRU
---Accuracy: 12.0%
-- Repetition: 8
---Constructed labels: L_K91_RXSR41_R1DX8F413LL38_66_E8JCXL4SEX78O8_8U_RU8N9Y9J843A7RM_3LL94B_X7_1D99FX438__LLCEX59F43R___W
---True labels       : WQXPLZCOMRKO97YFZDEZ1DPI9NNVGRQDJCUVRMEUOOOJD2UFYPOO6J7LDGYEGOA5VHNEHBTXOO1TDOILUEE5BFAEEXAW_K4R3MRU
---Accuracy: 13.0%
-- Repetition: 9
---Constructed labels: K_Q91_RXSR41_R12XDF413LI38_66_E8JCXP4SEXC8R2_8U_RU8N9Y9J843A7RM_3LJ94B_V7F1DE9F4132__LFCEX59F43RZ__U
---True labels       : WQXPLZCOMRKO97YFZDEZ1DPI9NNVGRQDJCUVRMEUOOOJD2UFYPOO6J7LDGYEGOA5VHNEHBTXOO1TDOILUEE5BFAEEXAW_K4R3MRU
---Accuracy: 14.0%
-- Repetition: 10
---Constructed labels: K_Q94_RXSR41_R12XDF213LI38_66_E8JCXP4SEXC8R2_8U_RU8N9Y9J843A7RM_3LP94B_V7F1DE9F4134__LFCEX59F43RZ__U
---True labels       : WQXPLZCOMRKO97YFZDEZ1DPI9NNVGRQDJCUVRMEUOOOJD2UFYPOO6J7LDGYEGOA5VHNEHBTXOO1TDOILUEE5BFAEEXAW_K4R3MRU
---Accuracy: 14.0%
-- Repetition: 11
---Constructed labels: K_Q94_RXSR41_RZ2XDF213LI_8_66FE8JCXP4SEUCVR2_8U_RX8N_19H843A9RM_3LP94B_V7F1DE9F4134__LFCEX59R43RZ__U
---True labels       : WQXPLZCOMRKO97YFZDEZ1DPI9NNVGRQDJCUVRMEUOOOJD2UFYPOO6J7LDGYEGOA5VHNEHBTXOO1TDOILUEE5BFAEEXAW_K4R3MRU
---Accuracy: 15.0%
-- Repetition: 12
---Constructed labels: K_Q94_RXSR416RZ4XDF213LI_8_66FE8JCXP4SEUCVR2_8X_QX6N_19H841A7RM_3LP94B_V7F1DE9F41349_LXCEX5_RL3RZ__U
---True labels       : WQXPLZCOMRKO97YFZDEZ1DPI9NNVGRQDJCUVRMEUOOOJD2UFYPOO6J7LDGYEGOA5VHNEHBTXOO1TDOILUEE5BFAEEXAW_K4R3MRU
---Accuracy: 14.0%
-- Repetition: 13
---Constructed labels: K_Q94_RXVR41HRZ4XDF21ELI_8_6HFE8JCXP4SEUCVR288XRQX6N_19H841A7RM_4LP94E_V7F1DEQF41949_LXCEX5ERL3RZ5_U
---True labels       : WQXPLZCOMRKO97YFZDEZ1DPI9NNVGRQDJCUVRMEUOOOJD2UFYPOO6J7LDGYEGOA5VHNEHBTXOO1TDOILUEE5BFAEEXAW_K4R3MRU
---Accuracy: 13.0%
-- Repetition: 14
---Constructed labels: WQQ946RXXR41HRZ4XDF21ELL_8_6HFE8JCXP4SEUCVR288XRQ_6N_19L9L1E5RM_4LP94ERV7F1DEQF41949_LXCEX5ERL3RZ5_U
---True labels       : WQXPLZCOMRKO97YFZDEZ1DPI9NNVGRQDJCUVRMEUOOOJD2UFYPOO6J7LDGYEGOA5VHNEHBTXOO1TDOILUEE5BFAEEXAW_K4R3MRU
---Accuracy: 16.0%
-- Repetition: 15
---Constructed labels: WQW9_6RXXR47HRZ4XDF21EL__8L8HFE8JCXP4SE7CVR288XRQ_6N_19L9L1E5OM_4LP94ERVOC1FEQFF1949_LXCEX5EML3RZ5_U
---True labels       : WQXPLZCOMRKO97YFZDEZ1DPI9NNVGRQDJCUVRMEUOOOJD2UFYPOO6J7LDGYEGOA5VHNEHBTXOO1TDOILUEE5BFAEEXAW_K4R3MRU
---Accuracy: 17.0%
==== End classifier: AdaBoostClassifier
==== Start classifier: KNeighborsClassifier
-- Repetition: 1
---Constructed labels: _7_7_P_L7G8V_8GLR937F_R_X9L_69__5___7D5_____F__7__R65_7_F___J_99RR_____69X______97D_5X__9XN4PP__4_R_
---True labels       : WQXPLZCOMRKO97YFZDEZ1DPI9NNVGRQDJCUVRMEUOOOJD2UFYPOO6J7LDGYEGOA5VHNEHBTXOO1TDOILUEE5BFAEEXAW_K4R3MRU
---Accuracy: 3.0%
-- Repetition: 2
---Constructed labels: _7_75P7LCGLVLJG_RQ3UF6R_X9R_69__5__47V5T_XR_EUX7_9R75_JXBX_PJR99RO48L_F998__8U_F97D_YX4_9XN4PQX_4FR_
---True labels       : WQXPLZCOMRKO97YFZDEZ1DPI9NNVGRQDJCUVRMEUOOOJD2UFYPOO6J7LDGYEGOA5VHNEHBTXOO1TDOILUEE5BFAEEXAW_K4R3MRU
---Accuracy: 2.0%
-- Repetition: 3
---Constructed labels: 9998Y87REG_VXJY6MQ9UC6P_X_R_69__YFL47W5W_XP_EVX7R9R79_JXBV_8JR9VQV_8L9F_98_68WLF97D6YX48WRN4PP_94KP_
---True labels       : WQXPLZCOMRKO97YFZDEZ1DPI9NNVGRQDJCUVRMEUOOOJD2UFYPOO6J7LDGYEGOA5VHNEHBTXOO1TDOILUEE5BFAEEXAW_K4R3MRU
---Accuracy: 2.0%
-- Repetition: 4
---Constructed labels: 9992887PEG_VXJ66OQ9UIZP_X_V_894_5FL47Q9W_XP_EVU7R9OP9LIUBW_52REVXP_VH9O_9__68WLX_7D6YX489RN4QRX94QP_
---True labels       : WQXPLZCOMRKO97YFZDEZ1DPI9NNVGRQDJCUVRMEUOOOJD2UFYPOO6J7LDGYEGOA5VHNEHBTXOO1TDOILUEE5BFAEEXAW_K4R3MRU
---Accuracy: 4.0%
-- Repetition: 5
---Constructed labels: 9KK28P7XQS_UXKZ6OQ91U9R6W_V_894L6ER4OQ9W_WP_EWU7R5OP9LI9XW152REVXQ_V9WO69__68WIV_7D6AX4_9RN4QXT94QP9
---True labels       : WQXPLZCOMRKO97YFZDEZ1DPI9NNVGRQDJCUVRMEUOOOJD2UFYPOO6J7LDGYEGOA5VHNEHBTXOO1TDOILUEE5BFAEEXAW_K4R3MRU
---Accuracy: 3.0%
-- Repetition: 6
---Constructed labels: _5K27P7X9W_UXKZBPQ3713R6W78_894L6ER_QQ9W_WR8E9WOR5OP9LI9XW152RE8XQ4V9WR99_4N8WLVLUA6AX48_RN4RXTG4QP_
---True labels       : WQXPLZCOMRKO97YFZDEZ1DPI9NNVGRQDJCUVRMEUOOOJD2UFYPOO6J7LDGYEGOA5VHNEHBTXOO1TDOILUEE5BFAEEXAW_K4R3MRU
---Accuracy: 2.0%
-- Repetition: 7
---Constructed labels: _7K21P94_S_U7I4CPQ3U13R7W784_9LL6QR_QQEW_WO8E9XNRSOV34I9XW1521F84Q4V9WR99_4N_WLVLWA6AX4P_RN4MXWG4RP9
---True labels       : WQXPLZCOMRKO97YFZDEZ1DPI9NNVGRQDJCUVRMEUOOOJD2UFYPOO6J7LDGYEGOA5VHNEHBTXOO1TDOILUEE5BFAEEXAW_K4R3MRU
---Accuracy: 4.0%
-- Repetition: 8
---Constructed labels: _7K21P94LS_U7I4BP92UO3R7978469L__WR_QWCK_WO8E8WNPSOV3FIEXV1521_84Q1V9WO99_4N4WLVLWA6BXRP_RN4MRWG4RP_
---True labels       : WQXPLZCOMRKO97YFZDEZ1DPI9NNVGRQDJCUVRMEUOOOJD2UFYPOO6J7LDGYEGOA5VHNEHBTXOO1TDOILUEE5BFAEEXAW_K4R3MRU
---Accuracy: 4.0%
-- Repetition: 9
---Constructed labels: _5K2YP9RLS_U7IY6JE2UO4R7978469L_6XR2OQCK_3R2KPENPSOV3_IEXJ1521_84Q4V9WO9983R4WLV4WA6B4RP_RN4MRXK4F2_
---True labels       : WQXPLZCOMRKO97YFZDEZ1DPI9NNVGRQDJCUVRMEUOOOJD2UFYPOO6J7LDGYEGOA5VHNEHBTXOO1TDOILUEE5BFAEEXAW_K4R3MRU
---Accuracy: 4.0%
-- Repetition: 10
---Constructed labels: _5JYYP9RRS_U71Y8JE2U7ZR_977469L_ZXR2_QCK_3R1KPENVAOV9_IE4J1521684Q4V9WO_983R4ULV4WA6Z14P_RN4YRXK4B2_
---True labels       : WQXPLZCOMRKO97YFZDEZ1DPI9NNVGRQDJCUVRMEUOOOJD2UFYPOO6J7LDGYEGOA5VHNEHBTXOO1TDOILUEE5BFAEEXAW_K4R3MRU
---Accuracy: 3.0%
-- Repetition: 11
---Constructed labels: _5JYYP9R_S_UI1Y8JE2UI6R_7I7469L_ZXL2_QDK_3O1KPKNVAQ89_IF4J152O684Q4V9WO_983R4WLV1WA6Z14P_RN44RXL4A2_
---True labels       : WQXPLZCOMRKO97YFZDEZ1DPI9NNVGRQDJCUVRMEUOOOJD2UFYPOO6J7LDGYEGOA5VHNEHBTXOO1TDOILUEE5BFAEEXAW_K4R3MRU
---Accuracy: 3.0%
-- Repetition: 12
---Constructed labels: _9J2YP9R_S_UI258JD2UOZR_7IC369L_6XL2_QDKLXO1K8X6KAQ89_7E4J152O684Q4V9WOW983N4WLV7XA6114P_RT44RXL4M2_
---True labels       : WQXPLZCOMRKO97YFZDEZ1DPI9NNVGRQDJCUVRMEUOOOJD2UFYPOO6J7LDGYEGOA5VHNEHBTXOO1TDOILUEE5BFAEEXAW_K4R3MRU
---Accuracy: 5.0%
-- Repetition: 13
---Constructed labels: _9J2YP9R_X_UI258JD2CO5R_7IC369L_6XL2_QDKLSO1KPWNIAQ86L7EXJ152O683Q4V9WOW993N_W7WLXE6914R9RW44RXL452_
---True labels       : WQXPLZCOMRKO97YFZDEZ1DPI9NNVGRQDJCUVRMEUOOOJD2UFYPOO6J7LDGYEGOA5VHNEHBTXOO1TDOILUEE5BFAEEXAW_K4R3MRU
---Accuracy: 6.0%
-- Repetition: 14
---Constructed labels: _9JYYP9R_X_UI258GD3CO5R_7IC36EL96XL27QDKLSO1KPWNISQ89L7E4JI52168KQ4V9WOW933N_W7WLXE6914R9RW44RXL452_
---True labels       : WQXPLZCOMRKO97YFZDEZ1DPI9NNVGRQDJCUVRMEUOOOJD2UFYPOO6J7LDGYEGOA5VHNEHBTXOO1TDOILUEE5BFAEEXAW_K4R3MRU
---Accuracy: 4.0%
-- Repetition: 15
---Constructed labels: _9J21PKR_X_UI258SD3CO5R_6IC463L98XL27QDKLSO1KPWNISQ89L7E4JI5Y168KQ4V9WOX933N_W73LXE6Z22R9RW445XL452_
---True labels       : WQXPLZCOMRKO97YFZDEZ1DPI9NNVGRQDJCUVRMEUOOOJD2UFYPOO6J7LDGYEGOA5VHNEHBTXOO1TDOILUEE5BFAEEXAW_K4R3MRU
---Accuracy: 5.0%
==== End classifier: KNeighborsClassifier
==== Start classifier: DecisionTreeClassifier
-- Repetition: 1
---Constructed labels: RVUX_FX_F_8X_YL876_Q_64J_RL46__689O_88_X_4_ZA7_____8_VS_K37V_F7VX2_24RX_99R67_4_W8_89_H5F_8W___X____
---True labels       : WQXPLZCOMRKO97YFZDEZ1DPI9NNVGRQDJCUVRMEUOOOJD2UFYPOO6J7LDGYEGOA5VHNEHBTXOO1TDOILUEE5BFAEEXAW_K4R3MRU
---Accuracy: 2.0%
-- Repetition: 2
---Constructed labels: O3BV__X_F_8W_2L_784I_B3J_4L18__636RR___XL2_ZFC__45F8_8VGL33V4BI2U3524RVL99R67F74W2LV9_NVX_2W4_4X_9__
---True labels       : WQXPLZCOMRKO97YFZDEZ1DPI9NNVGRQDJCUVRMEUOOOJD2UFYPOO6J7LDGYEGOA5VHNEHBTXOO1TDOILUEE5BFAEEXAW_K4R3MRU
---Accuracy: 2.0%
-- Repetition: 3
---Constructed labels: O2BZ__X_F_PWF2L_5J2P9B4J_4L2_RW_36_____XF27ZFC_R4646_8TGL43X46IVU3_44RXP99R8OF7_W2_W5_BV4_YW4Z1RLO_X
---True labels       : WQXPLZCOMRKO97YFZDEZ1DPI9NNVGRQDJCUVRMEUOOOJD2UFYPOO6J7LDGYEGOA5VHNEHBTXOO1TDOILUEE5BFAEEXAW_K4R3MRU
---Accuracy: 3.0%
-- Repetition: 4
---Constructed labels: R2B6_7R__5PWX3L95J2P9BYJ_4LZ__WF367__4XX42_ZAK_R46_6_8THLY3XF6IV79_44RVJQ9P81F7_W3_P9_BV4_YW4Z4RLO_X
---True labels       : WQXPLZCOMRKO97YFZDEZ1DPI9NNVGRQDJCUVRMEUOOOJD2UFYPOO6J7LDGYEGOA5VHNEHBTXOO1TDOILUEE5BFAEEXAW_K4R3MRU
---Accuracy: 3.0%
-- Repetition: 5
---Constructed labels: R2B9_9R__5RWX3LEYV479ZYJ_3HZ__W496U__1QX32_ZCK_RF6_6F8TGKY3XF6IV79_4ZRVLQ9282F74W29P9_N84_YWXZ4R4O5X
---True labels       : WQXPLZCOMRKO97YFZDEZ1DPI9NNVGRQDJCUVRMEUOOOJD2UFYPOO6J7LDGYEGOA5VHNEHBTXOO1TDOILUEE5BFAEEXAW_K4R3MRU
---Accuracy: 4.0%
-- Repetition: 6
---Constructed labels: R3B6_9R_G5PWX3L_YVF73ZYJ83LZ__X4_6U__4RXE2_ZCK_RV646F5TYKY3XF8IV7374ZR2LQ9P82F7_W29P9_N84XYWXZ4R_R8X
---True labels       : WQXPLZCOMRKO97YFZDEZ1DPI9NNVGRQDJCUVRMEUOOOJD2UFYPOO6J7LDGYEGOA5VHNEHBTXOO1TDOILUEE5BFAEEXAW_K4R3MRU
---Accuracy: 5.0%
-- Repetition: 7
---Constructed labels: RYB6_9RRGY2KX3L_YVC73H2K99LZ_8X496U__IRXE1_ZCK_RV846F8TGK31WE9IV7374ZR8XQ9272F7_W29P9_N844YWX44O_RJX
---True labels       : WQXPLZCOMRKO97YFZDEZ1DPI9NNVGRQDJCUVRMEUOOOJD2UFYPOO6J7LDGYEGOA5VHNEHBTXOO1TDOILUEE5BFAEEXAW_K4R3MRU
---Accuracy: 5.0%
-- Repetition: 8
---Constructed labels: OYB6_9RRSY2KX3L_ZJ273H2E99LZ68X436U__IRXI1_ZFK_RP946F8TYK3UWE8IVU3_4ZPVXQ9P72F6_WY9P9_O244YXX44O_RJX
---True labels       : WQXPLZCOMRKO97YFZDEZ1DPI9NNVGRQDJCUVRMEUOOOJD2UFYPOO6J7LDGYEGOA5VHNEHBTXOO1TDOILUEE5BFAEEXAW_K4R3MRU
---Accuracy: 5.0%
-- Repetition: 9
---Constructed labels: QYF9_9F_S22K_ZL_1J473Z2BL9HE68W436U__1RXC1_ZFW_RPW46F8TYL31WQ9JV7374NPVLQ9O72X6_WY9P9_OM34YXX44O_FJX
---True labels       : WQXPLZCOMRKO97YFZDEZ1DPI9NNVGRQDJCUVRMEUOOOJD2UFYPOO6J7LDGYEGOA5VHNEHBTXOO1TDOILUEE5BFAEEXAW_K4R3MRU
---Accuracy: 2.0%
-- Repetition: 10
---Constructed labels: PYF9L9F_S22I_2LR1J473Z2HL9HE69W436X_E1RXI1_ZFW_RPV47F8TYFW1W38GP7374NQV_Q9O72X6_W29O__OY3_YXX44O_FVX
---True labels       : WQXPLZCOMRKO97YFZDEZ1DPI9NNVGRQDJCUVRMEUOOOJD2UFYPOO6J7LDGYEGOA5VHNEHBTXOO1TDOILUEE5BFAEEXAW_K4R3MRU
---Accuracy: 2.0%
-- Repetition: 11
---Constructed labels: PYR9L9L_S22I_3IR1J47KZ2H_9HE63W436X9E3RXI1_ZFQXRPVY7F8TGFW1W38GPW37XNQV_L9O72X6_W29OW_OYL_YXX44O_M8X
---True labels       : WQXPLZCOMRKO97YFZDEZ1DPI9NNVGRQDJCUVRMEUOOOJD2UFYPOO6J7LDGYEGOA5VHNEHBTXOO1TDOILUEE5BFAEEXAW_K4R3MRU
---Accuracy: 3.0%
-- Repetition: 12
---Constructed labels: PYR9L6L_SZ2I_3KQCJ47KZ2H_9HE69WZ96X_E3RXI1_ZFQXRPVY7FDTGFW1W48GPWP7XNMV7K9Q72F6_W29OW_NYLLYUX44O_M5X
---True labels       : WQXPLZCOMRKO97YFZDEZ1DPI9NNVGRQDJCUVRMEUOOOJD2UFYPOO6J7LDGYEGOA5VHNEHBTXOO1TDOILUEE5BFAEEXAW_K4R3MRU
---Accuracy: 3.0%
-- Repetition: 13
---Constructed labels: PYR9L6L_SB8I_3KWCJ47IZ2H_5HE68WZ96X_9KRXC1FTFWXRP8Y7FDNLFW1WF8GPWP7XNM2_Q9QU2F6_WP8OQ_QYKLYUX44O_M5X
---True labels       : WQXPLZCOMRKO97YFZDEZ1DPI9NNVGRQDJCUVRMEUOOOJD2UFYPOO6J7LDGYEGOA5VHNEHBTXOO1TDOILUEE5BFAEEXAW_K4R3MRU
---Accuracy: 4.0%
-- Repetition: 14
---Constructed labels: PYF9L6L_SB8I_3KXCJ46IZ2L_5LE69WY96UX9KWXC1FTDVXRPVY7FDN4EWWSF8GPWP7XNQ2_Q9QW2F64VP9OS_QMKLYWX44O_MGX
---True labels       : WQXPLZCOMRKO97YFZDEZ1DPI9NNVGRQDJCUVRMEUOOOJD2UFYPOO6J7LDGYEGOA5VHNEHBTXOO1TDOILUEE5BFAEEXAW_K4R3MRU
---Accuracy: 6.0%
-- Repetition: 15
---Constructed labels: PYR9L6L_558O_1GXCJ46IZ2L_5LE64WY96UX3KWXE1FTDPXRVV37XDQLBW3SF8GPXP7XN3P_Q9QW2F64VP9OS_QMK_YWX44O_MGX
---True labels       : WQXPLZCOMRKO97YFZDEZ1DPI9NNVGRQDJCUVRMEUOOOJD2UFYPOO6J7LDGYEGOA5VHNEHBTXOO1TDOILUEE5BFAEEXAW_K4R3MRU
---Accuracy: 8.0%
==== End classifier: DecisionTreeClassifier
==== Start classifier: RandomForestClassifier
-- Repetition: 1
---Constructed labels: ____________________________________________________________________________________________________
---True labels       : WQXPLZCOMRKO97YFZDEZ1DPI9NNVGRQDJCUVRMEUOOOJD2UFYPOO6J7LDGYEGOA5VHNEHBTXOO1TDOILUEE5BFAEEXAW_K4R3MRU
---Accuracy: 1.0%
-- Repetition: 2
---Constructed labels: __________________________________________________________________________6_________________________
---True labels       : WQXPLZCOMRKO97YFZDEZ1DPI9NNVGRQDJCUVRMEUOOOJD2UFYPOO6J7LDGYEGOA5VHNEHBTXOO1TDOILUEE5BFAEEXAW_K4R3MRU
---Accuracy: 1.0%
-- Repetition: 3
---Constructed labels: __________________________________________________________________________6_________________________
---True labels       : WQXPLZCOMRKO97YFZDEZ1DPI9NNVGRQDJCUVRMEUOOOJD2UFYPOO6J7LDGYEGOA5VHNEHBTXOO1TDOILUEE5BFAEEXAW_K4R3MRU
---Accuracy: 1.0%
-- Repetition: 4
---Constructed labels: __________________________________________________________________________6_________________________
---True labels       : WQXPLZCOMRKO97YFZDEZ1DPI9NNVGRQDJCUVRMEUOOOJD2UFYPOO6J7LDGYEGOA5VHNEHBTXOO1TDOILUEE5BFAEEXAW_K4R3MRU
---Accuracy: 1.0%
-- Repetition: 5
---Constructed labels: __________________________________________________________________________6_________________________
---True labels       : WQXPLZCOMRKO97YFZDEZ1DPI9NNVGRQDJCUVRMEUOOOJD2UFYPOO6J7LDGYEGOA5VHNEHBTXOO1TDOILUEE5BFAEEXAW_K4R3MRU
---Accuracy: 1.0%
-- Repetition: 6
---Constructed labels: __________________________________________________________________________6_________________________
---True labels       : WQXPLZCOMRKO97YFZDEZ1DPI9NNVGRQDJCUVRMEUOOOJD2UFYPOO6J7LDGYEGOA5VHNEHBTXOO1TDOILUEE5BFAEEXAW_K4R3MRU
---Accuracy: 1.0%
-- Repetition: 7
---Constructed labels: __________________________________________________________________________6_________________________
---True labels       : WQXPLZCOMRKO97YFZDEZ1DPI9NNVGRQDJCUVRMEUOOOJD2UFYPOO6J7LDGYEGOA5VHNEHBTXOO1TDOILUEE5BFAEEXAW_K4R3MRU
---Accuracy: 1.0%
-- Repetition: 8
---Constructed labels: ________________________________X_________________________________________6_________________________
---True labels       : WQXPLZCOMRKO97YFZDEZ1DPI9NNVGRQDJCUVRMEUOOOJD2UFYPOO6J7LDGYEGOA5VHNEHBTXOO1TDOILUEE5BFAEEXAW_K4R3MRU
---Accuracy: 1.0%
-- Repetition: 9
---Constructed labels: ________________________________X_________________________________________6_________________________
---True labels       : WQXPLZCOMRKO97YFZDEZ1DPI9NNVGRQDJCUVRMEUOOOJD2UFYPOO6J7LDGYEGOA5VHNEHBTXOO1TDOILUEE5BFAEEXAW_K4R3MRU
---Accuracy: 1.0%
-- Repetition: 10
---Constructed labels: ________________________________X_________________________________________6_________________________
---True labels       : WQXPLZCOMRKO97YFZDEZ1DPI9NNVGRQDJCUVRMEUOOOJD2UFYPOO6J7LDGYEGOA5VHNEHBTXOO1TDOILUEE5BFAEEXAW_K4R3MRU
---Accuracy: 1.0%
-- Repetition: 11
---Constructed labels: ________________________________X_________________________________________6_________________________
---True labels       : WQXPLZCOMRKO97YFZDEZ1DPI9NNVGRQDJCUVRMEUOOOJD2UFYPOO6J7LDGYEGOA5VHNEHBTXOO1TDOILUEE5BFAEEXAW_K4R3MRU
---Accuracy: 1.0%
-- Repetition: 12
---Constructed labels: ________________________________X_________________________________________6_________________________
---True labels       : WQXPLZCOMRKO97YFZDEZ1DPI9NNVGRQDJCUVRMEUOOOJD2UFYPOO6J7LDGYEGOA5VHNEHBTXOO1TDOILUEE5BFAEEXAW_K4R3MRU
---Accuracy: 1.0%
-- Repetition: 13
---Constructed labels: ________________________________X_________________________________________6_________________________
---True labels       : WQXPLZCOMRKO97YFZDEZ1DPI9NNVGRQDJCUVRMEUOOOJD2UFYPOO6J7LDGYEGOA5VHNEHBTXOO1TDOILUEE5BFAEEXAW_K4R3MRU
---Accuracy: 1.0%
-- Repetition: 14
---Constructed labels: ________________________________X_________________________________________6_________________________
---True labels       : WQXPLZCOMRKO97YFZDEZ1DPI9NNVGRQDJCUVRMEUOOOJD2UFYPOO6J7LDGYEGOA5VHNEHBTXOO1TDOILUEE5BFAEEXAW_K4R3MRU
---Accuracy: 1.0%
-- Repetition: 15
---Constructed labels: ________________________________X_________________________________________6_________________________
---True labels       : WQXPLZCOMRKO97YFZDEZ1DPI9NNVGRQDJCUVRMEUOOOJD2UFYPOO6J7LDGYEGOA5VHNEHBTXOO1TDOILUEE5BFAEEXAW_K4R3MRU
---Accuracy: 1.0%
==== End classifier: RandomForestClassifier
==== Start classifier: LDA
-- Repetition: 1
---Constructed labels: ___9R4R___98__44__F_____9___LR_9__7_____F_____7_5R_R_9_F_X5_____X4___6_51_85R_F__XF___5___9_9____4__
---True labels       : WQXPLZCOMRKO97YFZDEZ1DPI9NNVGRQDJCUVRMEUOOOJD2UFYPOO6J7LDGYEGOA5VHNEHBTXOO1TDOILUEE5BFAEEXAW_K4R3MRU
---Accuracy: 2.0%
-- Repetition: 2
---Constructed labels: ___9R4R___9V7_4__FF6_D9_9_4_LR_9J_7__R__DW____7_5ROO69_FDX59_7M7X1__L6_51_86RFH_XWF8__5___9_9L4____U
---True labels       : WQXPLZCOMRKO97YFZDEZ1DPI9NNVGRQDJCUVRMEUOOOJD2UFYPOO6J7LDGYEGOA5VHNEHBTXOO1TDOILUEE5BFAEEXAW_K4R3MRU
---Accuracy: 10.0%
-- Repetition: 3
---Constructed labels: _95_RZR_6_9VU74__DF64E9L9_4PLR8EJC1__PF5DW88__7_5ROO694LDXY9_7M7X1VLL6_51_86_FHGXXF88_5_F_999I_9_5_U
---True labels       : WQXPLZCOMRKO97YFZDEZ1DPI9NNVGRQDJCUVRMEUOOOJD2UFYPOO6J7LDGYEGOA5VHNEHBTXOO1TDOILUEE5BFAEEXAW_K4R3MRU
---Accuracy: 14.0%
-- Repetition: 4
---Constructed labels: _959RZF_64QVU74__JFZ4J9L9L4RLR8EJC1__PF5D888__7_NROO691LDGY9_1M7X1VKL6451_26_RHGXTF88_55F_999I_Q_5_U
---True labels       : WQXPLZCOMRKO97YFZDEZ1DPI9NNVGRQDJCUVRMEUOOOJD2UFYPOO6J7LDGYEGOA5VHNEHBTXOO1TDOILUEE5BFAEEXAW_K4R3MRU
---Accuracy: 15.0%
-- Repetition: 5
---Constructed labels: 9959L3F_64QVU74_4JFZ4J9J9G42LR8DJD1_4PF5V888F_7_NRUO6E3LDI4E_1M7X1VK_64M1_2B9RHLXTF88F5RE_E9QI_Q_M_U
---True labels       : WQXPLZCOMRKO97YFZDEZ1DPI9NNVGRQDJCUVRMEUOOOJD2UFYPOO6J7LDGYEGOA5VHNEHBTXOO1TDOILUEE5BFAEEXAW_K4R3MRU
---Accuracy: 17.0%
-- Repetition: 6
---Constructed labels: W95WL3F_N4QVU74_4FFZ1J9J9H4VLR8DJD1_4PF5V878B_7FTROO6E3LDI4K_1M741VK_H4M182B9NHLXTF88F5RE_EQQI4Q4M_U
---True labels       : WQXPLZCOMRKO97YFZDEZ1DPI9NNVGRQDJCUVRMEUOOOJD2UFYPOO6J7LDGYEGOA5VHNEHBTXOO1TDOILUEE5BFAEEXAW_K4R3MRU
---Accuracy: 22.0%
-- Repetition: 7
---Constructed labels: WW79L3F_N4Q2U74_4FCZ1JQJ9H4VLR8DJD1_4PF5WV78B_7FTROONE3LDG4KROM721TK_H4X182F9OHLXXF_845RE_AQQI4Q4M_U
---True labels       : WQXPLZCOMRKO97YFZDEZ1DPI9NNVGRQDJCUVRMEUOOOJD2UFYPOO6J7LDGYEGOA5VHNEHBTXOO1TDOILUEE5BFAEEXAW_K4R3MRU
---Accuracy: 25.0%
-- Repetition: 8
---Constructed labels: WW79LZF_N4QPU7Y_4DCZ1JPJ9642LR9DJD1_4PF5WV78B_7FTPUO6E3LDG4KROM7V1TK_H4X182B9RHLXXC584AREXAQQK_Q_M_U
---True labels       : WQXPLZCOMRKO97YFZDEZ1DPI9NNVGRQDJCUVRMEUOOOJD2UFYPOO6J7LDGYEGOA5VHNEHBTXOO1TDOILUEE5BFAEEXAW_K4R3MRU
---Accuracy: 32.0%
-- Repetition: 9
---Constructed labels: WW7QL3F_S4QP1OY_4DCZ1JPJ96ZVLR9DJD184PF5WVOJD_7FSPUO6E3LDKYKROM7V1TK_H4X1P2TERHLXXC_84AREXAQQK_R_M4U
---True labels       : WQXPLZCOMRKO97YFZDEZ1DPI9NNVGRQDJCUVRMEUOOOJD2UFYPOO6J7LDGYEGOA5VHNEHBTXOO1TDOILUEE5BFAEEXAW_K4R3MRU
---Accuracy: 35.0%
-- Repetition: 10
---Constructed labels: WW7QL3FCS4QP17Y_ZDCZ1JPJ96ZVLR9DKD184PF5WVOJJ_7FSPUO6E3LDKYKROM7V1TK_HZX1P2TCRHLXXFF84AREXAQQK4R4M4U
---True labels       : WQXPLZCOMRKO97YFZDEZ1DPI9NNVGRQDJCUVRMEUOOOJD2UFYPOO6J7LDGYEGOA5VHNEHBTXOO1TDOILUEE5BFAEEXAW_K4R3MRU
---Accuracy: 36.0%
-- Repetition: 11
---Constructed labels: WW_QL3ACT4QP37Y4ZFDZ1DPJ96ZVLR9DKD184PFSQVOJJ_7FSRUO8E9LDGYWROM7V1TK_HZXOP2TCRHLXLFF845REXAQQK4R4M_U
---True labels       : WQXPLZCOMRKO97YFZDEZ1DPI9NNVGRQDJCUVRMEUOOOJD2UFYPOO6J7LDGYEGOA5VHNEHBTXOO1TDOILUEE5BFAEEXAW_K4R3MRU
---Accuracy: 35.0%
-- Repetition: 12
---Constructed labels: WW_QL3ACSRWP37Y4ZFDZ1DPJ96ZVGR9DKD184PFSOVOJJ_7FSROO8E7LDGYWXOM7V1TK6H2XOP2TCRHLXFEF845RFXAQQK4R4M_U
---True labels       : WQXPLZCOMRKO97YFZDEZ1DPI9NNVGRQDJCUVRMEUOOOJD2UFYPOO6J7LDGYEGOA5VHNEHBTXOO1TDOILUEE5BFAEEXAW_K4R3MRU
---Accuracy: 40.0%
-- Repetition: 13
---Constructed labels: WQ_QLZACSRK277Y4ZDDZ1DPJW6ZVGR9DKD18_PFUOVOJJ_7FSRUO6E7LDGYWLOM7V1TK6H2XOP1TCOHLUFEF845RFXAQQK4R1M_U
---True labels       : WQXPLZCOMRKO97YFZDEZ1DPI9NNVGRQDJCUVRMEUOOOJD2UFYPOO6J7LDGYEGOA5VHNEHBTXOO1TDOILUEE5BFAEEXAW_K4R3MRU
---Accuracy: 47.0%
-- Repetition: 14
---Constructed labels: WQ_QLZACMRK297Y4ZDDZ1DPJ966VGR9DKD18_PFUOVOJJ_OFYPUO6E7LDGYWGOM7V6TK6B2XOP1TCOHLUEEF8F5RFXAQQK4R1M_U
---True labels       : WQXPLZCOMRKO97YFZDEZ1DPI9NNVGRQDJCUVRMEUOOOJD2UFYPOO6J7LDGYEGOA5VHNEHBTXOO1TDOILUEE5BFAEEXAW_K4R3MRU
---Accuracy: 56.0%
-- Repetition: 15
---Constructed labels: WQXQLZCCMRK297YFZDDZ1DPJ966VGR3DKD18_PFUOVOJ8_OFYPUO6Q7LDGYWGOM7V6TK6B2XOO1TCOHLUEEFDF5RFXAQQK4R1M_U
---True labels       : WQXPLZCOMRKO97YFZDEZ1DPI9NNVGRQDJCUVRMEUOOOJD2UFYPOO6J7LDGYEGOA5VHNEHBTXOO1TDOILUEE5BFAEEXAW_K4R3MRU
---Accuracy: 60.0%
==== End classifier: LDA
==== Start classifier: QuadraticDiscriminantAnalysis
-- Repetition: 1
---Constructed labels: ____________________________________________________________________________________________________
---True labels       : WQXPLZCOMRKO97YFZDEZ1DPI9NNVGRQDJCUVRMEUOOOJD2UFYPOO6J7LDGYEGOA5VHNEHBTXOO1TDOILUEE5BFAEEXAW_K4R3MRU
---Accuracy: 1.0%
-- Repetition: 2
---Constructed labels: _____________________________________8___________F__________________________________________________
---True labels       : WQXPLZCOMRKO97YFZDEZ1DPI9NNVGRQDJCUVRMEUOOOJD2UFYPOO6J7LDGYEGOA5VHNEHBTXOO1TDOILUEE5BFAEEXAW_K4R3MRU
---Accuracy: 1.0%
-- Repetition: 3
---Constructed labels: _____________________________________8___________F______________R_____________________L_____________
---True labels       : WQXPLZCOMRKO97YFZDEZ1DPI9NNVGRQDJCUVRMEUOOOJD2UFYPOO6J7LDGYEGOA5VHNEHBTXOO1TDOILUEE5BFAEEXAW_K4R3MRU
---Accuracy: 1.0%
-- Repetition: 4
---Constructed labels: _____________________________________8___________F______________R_____________________L_____________
---True labels       : WQXPLZCOMRKO97YFZDEZ1DPI9NNVGRQDJCUVRMEUOOOJD2UFYPOO6J7LDGYEGOA5VHNEHBTXOO1TDOILUEE5BFAEEXAW_K4R3MRU
---Accuracy: 1.0%
-- Repetition: 5
---Constructed labels: _____________________________________8___________F______________R_____________________L_____________
---True labels       : WQXPLZCOMRKO97YFZDEZ1DPI9NNVGRQDJCUVRMEUOOOJD2UFYPOO6J7LDGYEGOA5VHNEHBTXOO1TDOILUEE5BFAEEXAW_K4R3MRU
---Accuracy: 1.0%
-- Repetition: 6
---Constructed labels: _____________________________________8___________F______________R__3__________________L_____________
---True labels       : WQXPLZCOMRKO97YFZDEZ1DPI9NNVGRQDJCUVRMEUOOOJD2UFYPOO6J7LDGYEGOA5VHNEHBTXOO1TDOILUEE5BFAEEXAW_K4R3MRU
---Accuracy: 1.0%
-- Repetition: 7
---Constructed labels: _____________________________________8___________4______________R__3__________________L_____________
---True labels       : WQXPLZCOMRKO97YFZDEZ1DPI9NNVGRQDJCUVRMEUOOOJD2UFYPOO6J7LDGYEGOA5VHNEHBTXOO1TDOILUEE5BFAEEXAW_K4R3MRU
---Accuracy: 1.0%
-- Repetition: 8
---Constructed labels: _____________________________________8___________4______________R__3__________________L_____________
---True labels       : WQXPLZCOMRKO97YFZDEZ1DPI9NNVGRQDJCUVRMEUOOOJD2UFYPOO6J7LDGYEGOA5VHNEHBTXOO1TDOILUEE5BFAEEXAW_K4R3MRU
---Accuracy: 1.0%
-- Repetition: 9
---Constructed labels: _____________________________________8___________4______________R__3__________________L_____________
---True labels       : WQXPLZCOMRKO97YFZDEZ1DPI9NNVGRQDJCUVRMEUOOOJD2UFYPOO6J7LDGYEGOA5VHNEHBTXOO1TDOILUEE5BFAEEXAW_K4R3MRU
---Accuracy: 1.0%
-- Repetition: 10
---Constructed labels: _____________________________________8__U_______54______________R__3__________________L_____________
---True labels       : WQXPLZCOMRKO97YFZDEZ1DPI9NNVGRQDJCUVRMEUOOOJD2UFYPOO6J7LDGYEGOA5VHNEHBTXOO1TDOILUEE5BFAEEXAW_K4R3MRU
---Accuracy: 1.0%
-- Repetition: 11
---Constructed labels: _____________________________________8__U_______S4______________R__3________________________________
---True labels       : WQXPLZCOMRKO97YFZDEZ1DPI9NNVGRQDJCUVRMEUOOOJD2UFYPOO6J7LDGYEGOA5VHNEHBTXOO1TDOILUEE5BFAEEXAW_K4R3MRU
---Accuracy: 1.0%
-- Repetition: 12
---Constructed labels: _____________________________________8__W_______S4______________R__3________________________________
---True labels       : WQXPLZCOMRKO97YFZDEZ1DPI9NNVGRQDJCUVRMEUOOOJD2UFYPOO6J7LDGYEGOA5VHNEHBTXOO1TDOILUEE5BFAEEXAW_K4R3MRU
---Accuracy: 1.0%
-- Repetition: 13
---Constructed labels: _____________________________________2__W_______S4______________R__3_____________________F__________
---True labels       : WQXPLZCOMRKO97YFZDEZ1DPI9NNVGRQDJCUVRMEUOOOJD2UFYPOO6J7LDGYEGOA5VHNEHBTXOO1TDOILUEE5BFAEEXAW_K4R3MRU
---Accuracy: 1.0%
-- Repetition: 14
---Constructed labels: ____________________________4________2__W_______S4______________R__3_____________________F__________
---True labels       : WQXPLZCOMRKO97YFZDEZ1DPI9NNVGRQDJCUVRMEUOOOJD2UFYPOO6J7LDGYEGOA5VHNEHBTXOO1TDOILUEE5BFAEEXAW_K4R3MRU
---Accuracy: 1.0%
-- Repetition: 15
---Constructed labels: ____________________________1________2__W_______S4______________R__3_____________________F__________
---True labels       : WQXPLZCOMRKO97YFZDEZ1DPI9NNVGRQDJCUVRMEUOOOJD2UFYPOO6J7LDGYEGOA5VHNEHBTXOO1TDOILUEE5BFAEEXAW_K4R3MRU
---Accuracy: 1.0%
==== End classifier: QuadraticDiscriminantAnalysis
==== Start classifier: LinearSVC
-- Repetition: 1
---Constructed labels: ____R4R___9P__44_____78_9__8LR_9__7_____F____8__5__R_9_F_XY_____X4___6_5O_85R_F__X____5_____9____4__
---True labels       : WQXPLZCOMRKO97YFZDEZ1DPI9NNVGRQDJCUVRMEUOOOJD2UFYPOO6J7LDGYEGOA5VHNEHBTXOO1TDOILUEE5BFAEEXAW_K4R3MRU
---Accuracy: 4.0%
-- Repetition: 2
---Constructed labels: 9___R4R___9V7_44_F_6_88_9_48LR_9J_7__R__D9___8__5_OO69_F8XY__7M7X4__L6_5O_86RFL_XW_8F_5____99L4___8U
---True labels       : WQXPLZCOMRKO97YFZDEZ1DPI9NNVGRQDJCUVRMEUOOOJD2UFYPOO6J7LDGYEGOA5VHNEHBTXOO1TDOILUEE5BFAEEXAW_K4R3MRU
---Accuracy: 10.0%
-- Repetition: 3
---Constructed labels: 995_RZR_6_9VU744_D_6498L9_4PLR8EJC1LRPE5D9_8_89_5_OO69_FDXZ__7M7X4VLL6_5R_86_FKGXW_8R_5_F_599L_9_M8U
---True labels       : WQXPLZCOMRKO97YFZDEZ1DPI9NNVGRQDJCUVRMEUOOOJD2UFYPOO6J7LDGYEGOA5VHNEHBTXOO1TDOILUEE5BFAEEXAW_K4R3MRU
---Accuracy: 15.0%
-- Repetition: 4
---Constructed labels: 995_RZF_6_QPU74__J_64J8L9L4PLR8EJC1LRPE5D978_89_N_OOZ97FDGZ__1M7X4VLL645O_86_RKGXTF8R_5_F_599L_9_M8U
---True labels       : WQXPLZCOMRKO97YFZDEZ1DPI9NNVGRQDJCUVRMEUOOOJD2UFYPOO6J7LDGYEGOA5VHNEHBTXOO1TDOILUEE5BFAEEXAW_K4R3MRU
---Accuracy: 16.0%
-- Repetition: 5
---Constructed labels: 995_REF_6RQPU74__JFZ4J8J9G42LR8DJD1L4PE5D978F89FN_UOZ97FDIYE_1M7X4VL_64MO_8B9RKLXTF8RFSRE5A9QL_Q_MVU
---True labels       : WQXPLZCOMRKO97YFZDEZ1DPI9NNVGRQDJCUVRMEUOOOJD2UFYPOO6J7LDGYEGOA5VHNEHBTXOO1TDOILUEE5BFAEEXAW_K4R3MRU
---Accuracy: 21.0%
-- Repetition: 6
---Constructed labels: W95_REC_NRQVU744_DFZ4J8J9G4VLR8DJD1L4PE5D978B89FT_OOZE7FDOZK_1M7X1VL_74MO82B9RKLXTB8MFSRE_AQQL4Q_MVU
---True labels       : WQXPLZCOMRKO97YFZDEZ1DPI9NNVGRQDJCUVRMEUOOOJD2UFYPOO6J7LDGYEGOA5VHNEHBTXOO1TDOILUEE5BFAEEXAW_K4R3MRU
---Accuracy: 25.0%
-- Repetition: 7
---Constructed labels: W97_R3C_NRQVU7444DCZ4JPJ9H4VLR8DJD1L4PE5EW78B89FTRUO6E7LDMZK6OM7X1TL_74MO82F9RKLXW6_M4SRE_AQQL4Q_MXU
---True labels       : WQXPLZCOMRKO97YFZDEZ1DPI9NNVGRQDJCUVRMEUOOOJD2UFYPOO6J7LDGYEGOA5VHNEHBTXOO1TDOILUEE5BFAEEXAW_K4R3MRU
---Accuracy: 27.0%
-- Repetition: 8
---Constructed labels: W97_RZC_NRQVU7Y44DC61PPJ9642GR9DJC1L4PE5EW78B89FSPUO6E7LDMZK6OM7X1TL_74RO82B9RKLXX75M4SRKXAQQK4Q_MXU
---True labels       : WQXPLZCOMRKO97YFZDEZ1DPI9NNVGRQDJCUVRMEUOOOJD2UFYPOO6J7LDGYEGOA5VHNEHBTXOO1TDOILUEE5BFAEEXAW_K4R3MRU
---Accuracy: 33.0%
-- Repetition: 9
---Constructed labels: W97_R3C_TRQV1OY44DCZ1PPJ96ZVGR9DJC1P4PEYEWOJD89FSPUO6E7LDQYK6OM7V1TKFC4ROP2TERKLXX7_M4SREXAQQK4R_M4U
---True labels       : WQXPLZCOMRKO97YFZDEZ1DPI9NNVGRQDJCUVRMEUOOOJD2UFYPOO6J7LDGYEGOA5VHNEHBTXOO1TDOILUEE5BFAEEXAW_K4R3MRU
---Accuracy: 40.0%
-- Repetition: 10
---Constructed labels: W97RR3CFTRQV17Y4ZDEZ1PPJ96ZVGR9DKC1P4PEYEWOJK89FSPUO6K8LDQYK6OM7V2TKFCZROP2TCRKLXX__54SREXAQQK4R_N4U
---True labels       : WQXPLZCOMRKO97YFZDEZ1DPI9NNVGRQDJCUVRMEUOOOJD2UFYPOO6J7LDGYEGOA5VHNEHBTXOO1TDOILUEE5BFAEEXAW_K4R3MRU
---Accuracy: 39.0%
-- Repetition: 11
---Constructed labels: WQXRL3AFTRQV17Y4ZDEZ1P2J96ZVGR9DKC1P4PEYEWOJK89FSRUO6K9LDMYW6OM7V2TKFIZROP2TCRKLXFF_745RKXAQQK4R4N4U
---True labels       : WQXPLZCOMRKO97YFZDEZ1DPI9NNVGRQDJCUVRMEUOOOJD2UFYPOO6J7LDGYEGOA5VHNEHBTXOO1TDOILUEE5BFAEEXAW_K4R3MRU
---Accuracy: 38.0%
-- Repetition: 12
---Constructed labels: WQXPLZAFTRQVC7Y4ZDEZ1P2L96ZVGR9DKC1P4PEYCWOJK89FSRUO6K7LDMYWTOM7V2TKBC2XOP2TCRKLXFE_74SRLXAQQK4R4M4U
---True labels       : WQXPLZCOMRKO97YFZDEZ1DPI9NNVGRQDJCUVRMEUOOOJD2UFYPOO6J7LDGYEGOA5VHNEHBTXOO1TDOILUEE5BFAEEXAW_K4R3MRU
---Accuracy: 44.0%
-- Repetition: 13
---Constructed labels: WQXPLZCFTRQVC7Y4ZDEZ1P2L96ZVGR9DKC1P_PE1CUOJK8EFSRUO6K7LDMYWTOM7V2TKBC2XOP1TCRKLUFE_74SRLXAQQK4R4M4U
---True labels       : WQXPLZCOMRKO97YFZDEZ1DPI9NNVGRQDJCUVRMEUOOOJD2UFYPOO6J7LDGYEGOA5VHNEHBTXOO1TDOILUEE5BFAEEXAW_K4R3MRU
---Accuracy: 47.0%
-- Repetition: 14
---Constructed labels: WQXPLZCCNRQVC7Y4ZDEZ1P2L96ZVGR9DKC1P_PE1CUOJK8EFYPUO6K7LDGYWHOM7V2TKBC4XOP1TCRKLUEE_7F5RLXAQQK4R4M4U
---True labels       : WQXPLZCOMRKO97YFZDEZ1DPI9NNVGRQDJCUVRMEUOOOJD2UFYPOO6J7LDGYEGOA5VHNEHBTXOO1TDOILUEE5BFAEEXAW_K4R3MRU
---Accuracy: 52.0%
-- Repetition: 15
---Constructed labels: WQXPLZCCNRQVC7YFZDE61D2L96ZVGR3DKC1V_PE1CUOJ98EFYPUO6K7LDGYWHOG7V2TKBC4XOO1TCRKLUEE5OF5RLXAQQK4R4M4U
---True labels       : WQXPLZCOMRKO97YFZDEZ1DPI9NNVGRQDJCUVRMEUOOOJD2UFYPOO6J7LDGYEGOA5VHNEHBTXOO1TDOILUEE5BFAEEXAW_K4R3MRU
---Accuracy: 56.0%
==== End classifier: LinearSVC
==== Start classifier: SVC
-- Repetition: 1
---Constructed labels: ___L_4FI__6R__4__7E1_48_9___J__8_F7____7_L___57_5_9R_WRFLU4_5_L_64___F_5__8XRX_L__FF675____9___X____
---True labels       : WQXPLZCOMRKO97YFZDEZ1DPI9NNVGRQDJCUVRMEUOOOJD2UFYPOO6J7LDGYEGOA5VHNEHBTXOO1TDOILUEE5BFAEEXAW_K4R3MRU
---Accuracy: 4.0%
-- Repetition: 2
---Constructed labels: ___L_4FI__6P9_2__OW1_48L9_43J_58LF7XRR_7FK___A7_5XQR_WRDJU4L57Y_64M9_F_57_8T4XLLXRFA6_5__R_9X__X55_7
---True labels       : WQXPLZCOMRKO97YFZDEZ1DPI9NNVGRQDJCUVRMEUOOOJD2UFYPOO6J7LDGYEGOA5VHNEHBTXOO1TDOILUEE5BFAEEXAW_K4R3MRU
---Accuracy: 5.0%
-- Repetition: 3
---Constructed labels: ___L_4FI__68W72__OWZZ48L9943J_5DIC7XRNE8FK__8A9_5XQR_XRDJSZL5OY584MK_F_5I_8T_ULLXRFE6_5_9R59X__W5M_7
---True labels       : WQXPLZCOMRKO97YFZDEZ1DPI9NNVGRQDJCUVRMEUOOOJD2UFYPOO6J7LDGYEGOA5VHNEHBTXOO1TDOILUEE5BFAEEXAW_K4R3MRU
---Accuracy: 12.0%
-- Repetition: 4
---Constructed labels: 964L_4FI5_NPW72__OWZZ28L9K43JR_DIC7XRNE8FK__8Y9_5XQR_XOF2SZL5OG524QKFF_5I_8T_ULLXPFE6_5_9X59X__W5M_7
---True labels       : WQXPLZCOMRKO97YFZDEZ1DPI9NNVGRQDJCUVRMEUOOOJD2UFYPOO6J7LDGYEGOA5VHNEHBTXOO1TDOILUEE5BFAEEXAW_K4R3MRU
---Accuracy: 14.0%
-- Repetition: 5
---Constructed labels: WT4J_4FI5RNOW72__OEZ132J9K43JRXDLC7XRNE2UKR_8Y9_5XQO_XOF2SYK5OG524QKFS_5I_869ULLUPFE6_5_9SA9X__W5M_U
---True labels       : WQXPLZCOMRKO97YFZDEZ1DPI9NNVGRQDJCUVRMEUOOOJD2UFYPOO6J7LDGYEGOA5VHNEHBTXOO1TDOILUEE5BFAEEXAW_K4R3MRU
---Accuracy: 22.0%
-- Repetition: 6
---Constructed labels: WV4V6ZFIMRNO372_4OEZ132J9H49JRLDLC7XRNE2UKO_8Y9_5XQO_XOF2YZKIOG521QKFS_71_26EOLLUPFE6X549XAQX_4W5M_U
---True labels       : WQXPLZCOMRKO97YFZDEZ1DPI9NNVGRQDJCUVRMEUOOOJD2UFYPOO6J7LDGYEGOA5VHNEHBTXOO1TDOILUEE5BFAEEXAW_K4R3MRU
---Accuracy: 27.0%
-- Repetition: 7
---Constructed labels: WV48ZZFIMRN19O264OEZ132J9H49JRLDLC7XRMW2UWO88Y7_AXQO_XOFJYZK7OG521KKES_U7_26EOLLUPFE6X5_EXAQ__4W5M_U
---True labels       : WQXPLZCOMRKO97YFZDEZ1DPI9NNVGRQDJCUVRMEUOOOJD2UFYPOO6J7LDGYEGOA5VHNEHBTXOO1TDOILUEE5BFAEEXAW_K4R3MRU
---Accuracy: 28.0%
-- Repetition: 8
---Constructed labels: WX48Z1FIMRN297264PDZ132J9N49JRXDLC7XRMW2UWO88M7_AWOO__OFJYZK5OG521KKEAUX7726EOLLURFA6X5_EXAQ_K_W5M_U
---True labels       : WQXPLZCOMRKO97YFZDEZ1DPI9NNVGRQDJCUVRMEUOOOJD2UFYPOO6J7LDGYEGOA5VHNEHBTXOO1TDOILUEE5BFAEEXAW_K4R3MRU
---Accuracy: 30.0%
-- Repetition: 9
---Constructed labels: WV48Z1FIMRN2972U4DEZ132J9NZ9J_XDLC7VRMEVC3O88M7_AQ7O__OFJAYK5OG521KKEAWX7O26EOLLUREA6X5_EXAQ_K_X5M4U
---True labels       : WQXPLZCOMRKO97YFZDEZ1DPI9NNVGRQDJCUVRMEUOOOJD2UFYPOO6J7LDGYEGOA5VHNEHBTXOO1TDOILUEE5BFAEEXAW_K4R3MRU
---Accuracy: 35.0%
-- Repetition: 10
---Constructed labels: WV4P41FIMRN2972U4DEZ132J9NZ9J_XDLC7VRMEVC3O8JM7FAQ7O__OFJAYK5OG521KKEAWX7O1TEOLLUPF56X5_EXAQ_K4X5M4U
---True labels       : WQXPLZCOMRKO97YFZDEZ1DPI9NNVGRQDJCUVRMEUOOOJD2UFYPOO6J7LDGYEGOA5VHNEHBTXOO1TDOILUEE5BFAEEXAW_K4R3MRU
---Accuracy: 40.0%
-- Repetition: 11
---Constructed labels: WP4P41FIMRN8972Z4CDZ122J9NZ9G_WDLC7VRMEVOWO8JMUFAQ7O__7RJAYK5OG821KKWAWX7O1TEOLLUPE56_5_KXAQ_K4XYM_U
---True labels       : WQXPLZCOMRKO97YFZDEZ1DPI9NNVGRQDJCUVRMEUOOOJD2UFYPOO6J7LDGYEGOA5VHNEHBTXOO1TDOILUEE5BFAEEXAW_K4R3MRU
---Accuracy: 41.0%
-- Repetition: 12
---Constructed labels: WP4P41FIMR38972ZZCDZ1D2J_TZ9GRWDLC7VRMEUOWO8JPUF5Q7O__7RJAYK5OG821NKWAWX7O1TEOLLUPE56_5_EXAQ_K4XYM_U
---True labels       : WQXPLZCOMRKO97YFZDEZ1DPI9NNVGRQDJCUVRMEUOOOJD2UFYPOO6J7LDGYEGOA5VHNEHBTXOO1TDOILUEE5BFAEEXAW_K4R3MRU
---Accuracy: 45.0%
-- Repetition: 13
---Constructed labels: WP4P41FIMR389721ZCDZ1D2J_TZ2GRWDKC7VRMEUOWO8JPUR5Q7O6_7RJAYK5OG521NKWAWXOO1TEOLLUDE56_5LEXAQ_K4XYM_U
---True labels       : WQXPLZCOMRKO97YFZDEZ1DPI9NNVGRQDJCUVRMEUOOOJD2UFYPOO6J7LDGYEGOA5VHNEHBTXOO1TDOILUEE5BFAEEXAW_K4R3MRU
---Accuracy: 47.0%
-- Repetition: 14
---Constructed labels: WQ4P41FIMR3897Y1ZCDZ1D2J_TZ2G_XDKC7VRMEUOWO8JPUR5Q7O6_7RJGYKGOG82LNKWAXXOO1TEOLLUDE66_54EXAQ7K4XYM_U
---True labels       : WQXPLZCOMRKO97YFZDEZ1DPI9NNVGRQDJCUVRMEUOOOJD2UFYPOO6J7LDGYEGOA5VHNEHBTXOO1TDOILUEE5BFAEEXAW_K4R3MRU
---Accuracy: 47.0%
-- Repetition: 15
---Constructed labels: WQ3P41FIMR3897Y2ZCDZ1D2J_TZ2G_XDKC7VRMEUOWOJJPUF5QOO6_7RJGYK5OG82LNKWAUXOO1TEOLLUDE56_54EXAQ7K4XYM_U
---True labels       : WQXPLZCOMRKO97YFZDEZ1DPI9NNVGRQDJCUVRMEUOOOJD2UFYPOO6J7LDGYEGOA5VHNEHBTXOO1TDOILUEE5BFAEEXAW_K4R3MRU
---Accuracy: 50.0%
==== End classifier: SVC
==== Start classifier: LDA_wyrm
-- Repetition: 1
---Constructed labels: 2RCQRZCPOQKPAUY4V7E9Y1V_9RCJJRTD3T7JLD_UDKQR7MI_MQJNKVOEGUYQYJR5T1BZQB6A1Z1GMMDWYSFEYCG893EQ9LFA94FU
---True labels       : WQXPLZCOMRKO97YFZDEZ1DPI9NNVGRQDJCUVRMEUOOOJD2UFYPOO6J7LDGYEGOA5VHNEHBTXOO1TDOILUEE5BFAEEXAW_K4R3MRU
---Accuracy: 14.0%
-- Repetition: 2
---Constructed labels: VNCOLZFXMRQVI92XZ1ENC2PL9OZ2PRVEJN7VRP_NDW9XORULMPPOKJMKDSYQGUM5T1A3HA751H1NEMHRXEEAACAW9XQEWJ4S3ODU
---True labels       : WQXPLZCOMRKO97YFZDEZ1DPI9NNVGRQDJCUVRMEUOOOJD2UFYPOO6J7LDGYEGOA5VHNEHBTXOO1TDOILUEE5BFAEEXAW_K4R3MRU
---Accuracy: 29.0%
-- Repetition: 3
---Constructed labels: VQCULZFJM9QUU72XZ2WZC8PI9OYPGRPEJO1TRPENDWOPCFUFMPPNKJOLDSYQGUM7TCZKHAUAOZ2N8NELXWE3AFA9EXQ3_I_X3MDU
---True labels       : WQXPLZCOMRKO97YFZDEZ1DPI9NNVGRQDJCUVRMEUOOOJD2UFYPOO6J7LDGYEGOA5VHNEHBTXOO1TDOILUEE5BFAEEXAW_K4R3MRU
---Accuracy: 36.0%
-- Repetition: 4
---Constructed labels: WQCVLZFOM2QOU726ZDD3CJPI9O18GRPDJCOTRMENCWO2CFTLMPQO4J7LDGYQ51G7WCZKHB1YOO1N9NKLXWDADFA5EXEWWI4R2MJU
---True labels       : WQXPLZCOMRKO97YFZDEZ1DPI9NNVGRQDJCUVRMEUOOOJD2UFYPOO6J7LDGYEGOA5VHNEHBTXOO1TDOILUEE5BFAEEXAW_K4R3MRU
---Accuracy: 45.0%
-- Repetition: 5
---Constructed labels: WNCVLBFOM2QOU7YXZDD31DPIWMYVGRVDJDUXRMETCWOJCDUFMPQO4J7LDGYEG1G6VIZKHAUYO11B9NKLXKEAACAQEXEWWI4R3MJU
---True labels       : WQXPLZCOMRKO97YFZDEZ1DPI9NNVGRQDJCUVRMEUOOOJD2UFYPOO6J7LDGYEGOA5VHNEHBTXOO1TDOILUEE5BFAEEXAW_K4R3MRU
---Accuracy: 51.0%
-- Repetition: 6
---Constructed labels: WPAVLZFOMRQOU7YFZDDZ1DPI9NMVGRPDJDUXRPETCWOJBDUFMPNO4J7LDGYEGOM6V1ZEIAUYO21BENCLXKBBAFAQEXEQWI4R3MPU
---True labels       : WQXPLZCOMRKO97YFZDEZ1DPI9NNVGRQDJCUVRMEUOOOJD2UFYPOO6J7LDGYEGOA5VHNEHBTXOO1TDOILUEE5BFAEEXAW_K4R3MRU
---Accuracy: 56.0%
-- Repetition: 7
---Constructed labels: WPEVLZCOM_QOX7YFZADZ1DPIWNNVGRPDJDOVRPETOWOJBDUFMPROKJ7LDGYEGOM5V1HEIAU4OO1BDOCLXKBBAFAQEXEQ9I4R3MNU
---True labels       : WQXPLZCOMRKO97YFZDEZ1DPI9NNVGRQDJCUVRMEUOOOJD2UFYPOO6J7LDGYEGOA5VHNEHBTXOO1TDOILUEE5BFAEEXAW_K4R3MRU
---Accuracy: 60.0%
-- Repetition: 8
---Constructed labels: WQEVLZFIMFQOX7YFZDDZ12PI9NOVGRPDJD1VRPEUOUOJDDUFMPOOHJ7LDGYEGOG5VIHEHAW4O11TDOCLXEBAAFAQEXAW9K4R3M_U
---True labels       : WQXPLZCOMRKO97YFZDEZ1DPI9NNVGRQDJCUVRMEUOOOJD2UFYPOO6J7LDGYEGOA5VHNEHBTXOO1TDOILUEE5BFAEEXAW_K4R3MRU
---Accuracy: 67.0%
-- Repetition: 9
---Constructed labels: WQAPLZFOMFQOX7YFZDEZ1DPI9NNVGRPDJDOVRPEUO1OJD8UFMPOOHJ7LDAYEGOG5VIHEHAW4OO1TCOILXEBAGFAQEXAW9K4R3M_U
---True labels       : WQXPLZCOMRKO97YFZDEZ1DPI9NNVGRQDJCUVRMEUOOOJD2UFYPOO6J7LDGYEGOA5VHNEHBTXOO1TDOILUEE5BFAEEXAW_K4R3MRU
---Accuracy: 72.0%
-- Repetition: 10
---Constructed labels: WQAPLZCIMRQOX7YFZDEZ1DPI9NNVGRPDJDOVRPEUOUOJDDUFYPOO6J7LDAYEGOG5VUHEHAW4OO1TCOILUEEAGFAQEXAW9K4R3MRU
---True labels       : WQXPLZCOMRKO97YFZDEZ1DPI9NNVGRQDJCUVRMEUOOOJD2UFYPOO6J7LDGYEGOA5VHNEHBTXOO1TDOILUEE5BFAEEXAW_K4R3MRU
---Accuracy: 78.0%
-- Repetition: 11
---Constructed labels: WQXPLZCUMRQOW7YFZDEZ1DPI9NNVGRQDJDUVRPEUOUOJD8UFYPOO6J7LDAYEGOG5VUTEHAW4OO1TCOILXEEAHFAQEXAW_K4R3MRU
---True labels       : WQXPLZCOMRKO97YFZDEZ1DPI9NNVGRQDJCUVRMEUOOOJD2UFYPOO6J7LDGYEGOA5VHNEHBTXOO1TDOILUEE5BFAEEXAW_K4R3MRU
---Accuracy: 81.0%
-- Repetition: 12
---Constructed labels: WQXPLZCOMRQOX7YFZDEZ1DPI9NNVGRQDJDUVRMEUOUOJD2UFYPOO6J7LDAYEGOM5VTTEHAW4OO1TDOILUEEAHFAQEXAWRK4R3MRU
---True labels       : WQXPLZCOMRKO97YFZDEZ1DPI9NNVGRQDJCUVRMEUOOOJD2UFYPOO6J7LDGYEGOA5VHNEHBTXOO1TDOILUEE5BFAEEXAW_K4R3MRU
---Accuracy: 85.0%
-- Repetition: 13
---Constructed labels: WQXPLZCOMRQOX7YFZDEZ1DPI9NNVGRQDJCUVRMEUOUOJD2UFYPOO6J7LDAYEGOA5VTNEHBWXOO1TDOILUEEAHFAQEXAW_K4R3MXU
---True labels       : WQXPLZCOMRKO97YFZDEZ1DPI9NNVGRQDJCUVRMEUOOOJD2UFYPOO6J7LDGYEGOA5VHNEHBTXOO1TDOILUEE5BFAEEXAW_K4R3MRU
---Accuracy: 90.0%
-- Repetition: 14
---Constructed labels: WQXPLZCIMRQOW7YFZDEZ1DPI9NNVGRQDJCUVRMEUOOOJD8UFYPOO6J7LDGYEGOA5VTNEHAWXOO1TDOILUEEABFAQEXAW_K4R3MRU
---True labels       : WQXPLZCOMRKO97YFZDEZ1DPI9NNVGRQDJCUVRMEUOOOJD2UFYPOO6J7LDGYEGOA5VHNEHBTXOO1TDOILUEE5BFAEEXAW_K4R3MRU
---Accuracy: 91.0%
-- Repetition: 15
---Constructed labels: WQXPLZCOMRQOW7YFZDEZ1DPI9NNVGRQDJCUVRMEUOOOJD2UFYPOO6J7LDGYEGOA5VTNEHAWXOO1TDOILUEE5BFAQEXAW_K4R3MRU
---True labels       : WQXPLZCOMRKO97YFZDEZ1DPI9NNVGRQDJCUVRMEUOOOJD2UFYPOO6J7LDGYEGOA5VHNEHBTXOO1TDOILUEE5BFAEEXAW_K4R3MRU
---Accuracy: 94.0%
==== End classifier: LDA_wyrm
==== Start Subject: 1
==== Start classifier: GradientBoostingClassifier_0.1
-- Repetition: 1
---Constructed labels: ___F_______________3___2_______8_6_K___________________X________________2_____F_____________________
---True labels       : MERMIROOMUHJPXJOHUVLEORZP3GLOO7AUFDKEFTWEOOALZOP9ROCGZET1Y19EWX65QUYU7NAK_4YCJDVDNGQXODBEV2B5EFDIDNR
---Accuracy: 2.0%
-- Repetition: 2
---Constructed labels: ___FL______________9___4______5Q_6_K___4_______________X__________5_X___J74___F___5_________________
---True labels       : MERMIROOMUHJPXJOHUVLEORZP3GLOO7AUFDKEFTWEOOALZOP9ROCGZET1Y19EWX65QUYU7NAK_4YCJDVDNGQXODBEV2B5EFDIDNR
---Accuracy: 2.0%
-- Repetition: 3
---Constructed labels: __5FL2___L_____7___9_F_4______5Q_B6K_F_47__75__________X__________5_X__Z8_4___F___5_________________
---True labels       : MERMIROOMUHJPXJOHUVLEORZP3GLOO7AUFDKEFTWEOOALZOP9ROCGZET1Y19EWX65QUYU7NAK_4YCJDVDNGQXODBEV2B5EFDIDNR
---Accuracy: 4.0%
-- Repetition: 4
---Constructed labels: __5FL2___L_____7___9_F_48_____5E_B6K_F4277_75__R_______X____8_____55X__Z8_4___F___5_________________
---True labels       : MERMIROOMUHJPXJOHUVLEORZP3GLOO7AUFDKEFTWEOOALZOP9ROCGZET1Y19EWX65QUYU7NAK_4YCJDVDNGQXODBEV2B5EFDIDNR
---Accuracy: 4.0%
-- Repetition: 5
---Constructed labels: __5FL2___L_____7___9_F_48_____5E6B6K_F4277_75__R_______X____8_____55T__Z8_4___F___5_________________
---True labels       : MERMIROOMUHJPXJOHUVLEORZP3GLOO7AUFDKEFTWEOOALZOP9ROCGZET1Y19EWX65QUYU7NAK_4YCJDVDNGQXODBEV2B5EFDIDNR
---Accuracy: 4.0%
-- Repetition: 6
---Constructed labels: __6FL4___L_____7___3_F_48_____5A6B6K_F427W_75__R_______X____8_____55T__Z8_4___B___5_________8____I__
---True labels       : MERMIROOMUHJPXJOHUVLEORZP3GLOO7AUFDKEFTWEOOALZOP9ROCGZET1Y19EWX65QUYU7NAK_4YCJDVDNGQXODBEV2B5EFDIDNR
---Accuracy: 5.0%
-- Repetition: 7
---Constructed labels: L_6FL4___L_____7___Z4F_18_____5M6BBK_F427W_75__R____9__X____8_____57T5_Z8_1___B___5________F8____K__
---True labels       : MERMIROOMUHJPXJOHUVLEORZP3GLOO7AUFDKEFTWEOOALZOP9ROCGZET1Y19EWX65QUYU7NAK_4YCJDVDNGQXODBEV2B5EFDIDNR
---Accuracy: 3.0%
-- Repetition: 8
---Constructed labels: L_6FL4___L_____7___Z4F_48_____5M6BBK_F427W_75__R____9__X____8_____57T5_Z8_1___B___5________F8____I__
---True labels       : MERMIROOMUHJPXJOHUVLEORZP3GLOO7AUFDKEFTWEOOALZOP9ROCGZET1Y19EWX65QUYU7NAK_4YCJDVDNGQXODBEV2B5EFDIDNR
---Accuracy: 3.0%
-- Repetition: 9
---Constructed labels: L_6FL4_5_L_____7___64F_48___O_5M7BBK5F427W_75__R____9__X____8__6__5CT5_Z8_4___B___59_______F8____J__
---True labels       : MERMIROOMUHJPXJOHUVLEORZP3GLOO7AUFDKEFTWEOOALZOP9ROCGZET1Y19EWX65QUYU7NAK_4YCJDVDNGQXODBEV2B5EFDIDNR
---Accuracy: 6.0%
-- Repetition: 10
---Constructed labels: L_6FL4_5_L___X_7_8_64F_48___O_5M7BBK5F427W_75__R____9__X____8__6__5CT5_Z8_4___B___59_______F8____J__
---True labels       : MERMIROOMUHJPXJOHUVLEORZP3GLOO7AUFDKEFTWEOOALZOP9ROCGZET1Y19EWX65QUYU7NAK_4YCJDVDNGQXODBEV2B5EFDIDNR
---Accuracy: 7.0%
-- Repetition: 11
---Constructed labels: T_6FL4_5_L___X_7_8_64F_48__LO_5M7BBK5F427W_75X_RL___9__X____8_86__57T5_Z8_4___B___59_______F8____I__
---True labels       : MERMIROOMUHJPXJOHUVLEORZP3GLOO7AUFDKEFTWEOOALZOP9ROCGZET1Y19EWX65QUYU7NAK_4YCJDVDNGQXODBEV2B5EFDIDNR
---Accuracy: 8.0%
-- Repetition: 12
---Constructed labels: T_6FL4_5_L___X_7_8_64F_48__LO_6M7BBK5F427W_75W_RL___9__X_L__8_86__5OT5_Z8_4___B___59_3_____F8____J__
---True labels       : MERMIROOMUHJPXJOHUVLEORZP3GLOO7AUFDKEFTWEOOALZOP9ROCGZET1Y19EWX65QUYU7NAK_4YCJDVDNGQXODBEV2B5EFDIDNR
---Accuracy: 8.0%
-- Repetition: 13
---Constructed labels: T_6FL4_5_L___X_7_8_64F_48__LO_6M7BBK5F427W_75W_R_______X_I__8_86__5OU5_Z8_4___B___59_V___X_F8____D__
---True labels       : MERMIROOMUHJPXJOHUVLEORZP3GLOO7AUFDKEFTWEOOALZOP9ROCGZET1Y19EWX65QUYU7NAK_4YCJDVDNGQXODBEV2B5EFDIDNR
---Accuracy: 10.0%
-- Repetition: 14
---Constructed labels: T_6FL4R5_4___X_7_8_64F_48__LO_6NUBBK5F427W_75W_R_______X_I__8_86Y_5OU5_B8_4___B___59_V___X_F8____2__
---True labels       : MERMIROOMUHJPXJOHUVLEORZP3GLOO7AUFDKEFTWEOOALZOP9ROCGZET1Y19EWX65QUYU7NAK_4YCJDVDNGQXODBEV2B5EFDIDNR
---Accuracy: 10.0%
-- Repetition: 15
---Constructed labels: T_6FL4R5_4___X_7_8_64F_48__LO_7MUBBK5F437W_759_R__R____X_I__8_86Y_55U5_B8_4___B9__59_V___X_F8____2__
---True labels       : MERMIROOMUHJPXJOHUVLEORZP3GLOO7AUFDKEFTWEOOALZOP9ROCGZET1Y19EWX65QUYU7NAK_4YCJDVDNGQXODBEV2B5EFDIDNR
---Accuracy: 11.0%
==== End classifier: GradientBoostingClassifier_0.1
==== Start classifier: AdaBoostClassifier
-- Repetition: 1
---Constructed labels: _9_R__________8R__4_________4__LRH5LL__R____R__L445_5__67_4______R______8__4__F____8______6B__9F____
---True labels       : MERMIROOMUHJPXJOHUVLEORZP3GLOO7AUFDKEFTWEOOALZOP9ROCGZET1Y19EWX65QUYU7NAK_4YCJDVDNGQXODBEV2B5EFDIDNR
---Accuracy: 2.0%
-- Repetition: 2
---Constructed labels: 5E_R__8_X_____8R__4_________4X5LRL5KL__R9_7_R__L445_5__67_4__F_I_R5_X_L_8_445_D___58_____86B__9F_F__
---True labels       : MERMIROOMUHJPXJOHUVLEORZP3GLOO7AUFDKEFTWEOOALZOP9ROCGZET1Y19EWX65QUYU7NAK_4YCJDVDNGQXODBEV2B5EFDIDNR
---Accuracy: 6.0%
-- Repetition: 3
---Constructed labels: 5F5R718_XL_FX_8O_____R______4X5IRL8KLE_R__7_R_7L44Y_5__6744__F_I_R54X_L42_445_DX__5V_R___86B8_EFRFN_
---True labels       : MERMIROOMUHJPXJOHUVLEORZP3GLOO7AUFDKEFTWEOOALZOP9ROCGZET1Y19EWX65QUYU7NAK_4YCJDVDNGQXODBEV2B5EFDIDNR
---Accuracy: 7.0%
-- Repetition: 4
---Constructed labels: 5F_R718_XI_LX_JO_____R_OR___4X5KRL8KLFXR_77_R_7L44Y_G5_6744_8F_I_R61XLL49_445_FV__5VLO_F_86B8_EFRFT_
---True labels       : MERMIROOMUHJPXJOHUVLEORZP3GLOO7AUFDKEFTWEOOALZOP9ROCGZET1Y19EWX65QUYU7NAK_4YCJDVDNGQXODBEV2B5EFDIDNR
---Accuracy: 10.0%
-- Repetition: 5
---Constructed labels: 5F_R718_X1_IX_JOL____RR_R___4X5KNF8KXFXP_775R_7L44Y_G5_B714_8F_I_R5OTLL18_445SFV_65XLO_F_86B8_EFOZT_
---True labels       : MERMIROOMUHJPXJOHUVLEORZP3GLOO7AUFDKEFTWEOOALZOP9ROCGZET1Y19EWX65QUYU7NAK_4YCJDVDNGQXODBEV2B5EFDIDNR
---Accuracy: 12.0%
-- Repetition: 6
---Constructed labels: 5F_R718_X1_IX_JOL____R4_R_5_4XMOTF8KXFXP_77YR_OL44YFG6_B714_8FXI_R5QTLLY8_44YSFV_65XLO_X_86B8_EXO1Z_
---True labels       : MERMIROOMUHJPXJOHUVLEORZP3GLOO7AUFDKEFTWEOOALZOP9ROCGZET1Y19EWX65QUYU7NAK_4YCJDVDNGQXODBEV2B5EFDIDNR
---Accuracy: 13.0%
-- Repetition: 7
---Constructed labels: MF_R71RFX1_IX_JOL___4R4_R_5X4XPQTFDKXFXP_77YR_OR44YFG6_B714_8FWI_R5QTLLY8_14YSFV_65XLO_X_88B8_EFO1Z_
---True labels       : MERMIROOMUHJPXJOHUVLEORZP3GLOO7AUFDKEFTWEOOALZOP9ROCGZET1Y19EWX65QUYU7NAK_4YCJDVDNGQXODBEV2B5EFDIDNR
---Accuracy: 13.0%
-- Repetition: 8
---Constructed labels: YF_R71RFX1_IX_JOL___4R4_R_OX4X2QTFDKXFXP_77YR_OM441FG6_B714_DFWI_RSQTLLY2_14YSFV_65XLR_X_88B86EFO4Z_
---True labels       : MERMIROOMUHJPXJOHUVLEORZP3GLOO7AUFDKEFTWEOOALZOP9ROCGZET1Y19EWX65QUYU7NAK_4YCJDVDNGQXODBEV2B5EFDIDNR
---Accuracy: 11.0%
-- Repetition: 9
---Constructed labels: YF_R71RAX1_IX_JOL___4R4_R_UX1X2QTFDKXFXV_77YR_OM441FG6_B714_DFWO_RSOTLHY2_44YSFV_65XLR_X888B86EFOFZ_
---True labels       : MERMIROOMUHJPXJOHUVLEORZP3GLOO7AUFDKEFTWEOOALZOP9ROCGZET1Y19EWX65QUYU7NAK_4YCJDVDNGQXODBEV2B5EFDIDNR
---Accuracy: 12.0%
-- Repetition: 10
---Constructed labels: MF_R71RA41_IXXJOLJ__4R4_R_UX1X2QTFDKXFXV_77YR4OM441RGT7B714_DFW7_RS1TLHM2_44YSFV_65XLR_X888B8TEFOFZ8
---True labels       : MERMIROOMUHJPXJOHUVLEORZP3GLOO7AUFDKEFTWEOOALZOP9ROCGZET1Y19EWX65QUYU7NAK_4YCJDVDNGQXODBEV2B5EFDIDNR
---Accuracy: 14.0%
-- Repetition: 11
---Constructed labels: MF_R71RAL1_IRXJOLJ__4R4LR_UX142QTFQKXFSV_77YR4OM441RGV7B7144DRW7_RS1TLHM2_44YSFV_65XLR_X888B8TEDOCZ8
---True labels       : MERMIROOMUHJPXJOHUVLEORZP3GLOO7AUFDKEFTWEOOALZOP9ROCGZET1Y19EWX65QUYU7NAK_4YCJDVDNGQXODBEV2B5EFDIDNR
---Accuracy: 14.0%
-- Repetition: 12
---Constructed labels: MF_R71RAL1_IRXJOLJ__4R4LR_UXU4ZQTFQKXFSV_77YRXOM44YRGV7B7144DRW7_XS1TLHM2_44YSFX_6GXL8_X888B8TEDOCZ8
---True labels       : MERMIROOMUHJPXJOHUVLEORZP3GLOO7AUFDKEFTWEOOALZOP9ROCGZET1Y19EWX65QUYU7NAK_4YCJDVDNGQXODBEV2B5EFDIDNR
---Accuracy: 14.0%
-- Repetition: 13
---Constructed labels: MF_R8IRAL1_IRXJOLJ_54R4LR_UXU4ZQTFQKFFVV_I7YFXOM44YRGV7B7144DXX7_XSOTLHM2_44YSFX_6GXLR_X8V_B8TEDOBZF
---True labels       : MERMIROOMUHJPXJOHUVLEORZP3GLOO7AUFDKEFTWEOOALZOP9ROCGZET1Y19EWX65QUYU7NAK_4YCJDVDNGQXODBEV2B5EFDIDNR
---Accuracy: 16.0%
-- Repetition: 14
---Constructed labels: MF_R8IRAL1LIRXJOLJ_54R4XR_UXU4ZQTFQKFFVV_I7YFXOMI4YRGV7B7444DXX7_XSOTLNM2_44YSFV56GXLR_X9V4B8TEDODZR
---True labels       : MERMIROOMUHJPXJOHUVLEORZP3GLOO7AUFDKEFTWEOOALZOP9ROCGZET1Y19EWX65QUYU7NAK_4YCJDVDNGQXODBEV2B5EFDIDNR
---Accuracy: 20.0%
-- Repetition: 15
---Constructed labels: YF_R8IRCL1LIRXJOLJ_54RZXR_TXU4ZQTFQ3FFVW_I7YFXOMI4MRGV7Z7444DXX7_XSOTLNO3_44YYFV56GXLR_X9V4B5TEDODZR
---True labels       : MERMIROOMUHJPXJOHUVLEORZP3GLOO7AUFDKEFTWEOOALZOP9ROCGZET1Y19EWX65QUYU7NAK_4YCJDVDNGQXODBEV2B5EFDIDNR
---Accuracy: 20.0%
==== End classifier: AdaBoostClassifier
==== Start classifier: KNeighborsClassifier
-- Repetition: 1
---Constructed labels: 94LR9L___U4K_8_4_KF9_4_6__EX__L______9__V96L______6763_7__X_55_7_R75_XLL_5__48F6_5_6_X_2F__6R__4_499
---True labels       : MERMIROOMUHJPXJOHUVLEORZP3GLOO7AUFDKEFTWEOOALZOP9ROCGZET1Y19EWX65QUYU7NAK_4YCJDVDNGQXODBEV2B5EFDIDNR
---Accuracy: 1.0%
-- Repetition: 2
---Constructed labels: W3KPE9___U49_8_1NKF9_4_6_6Q9__H_6L_X_9_AV92L_6X4_LV763X__5X_25_7_4QM8XL4954548B6877B8X8YL9XBR_L4_499
---True labels       : MERMIROOMUHJPXJOHUVLEORZP3GLOO7AUFDKEFTWEOOALZOP9ROCGZET1Y19EWX65QUYU7NAK_4YCJDVDNGQXODBEV2B5EFDIDNR
---Accuracy: 3.0%
-- Repetition: 3
---Constructed labels: W3IPE9__SU19_8_PRKF9_4_9_6Q9__H_7L7X_96AV_2X98_4__V743X_L6V52__3_49M8XLR9_35E8B8VICZ2X8YL9FCRFL4_499
---True labels       : MERMIROOMUHJPXJOHUVLEORZP3GLOO7AUFDKEFTWEOOALZOP9ROCGZET1Y19EWX65QUYU7NAK_4YCJDVDNGQXODBEV2B5EFDIDNR
---Accuracy: 2.0%
-- Repetition: 4
---Constructed labels: W3IPE94_GU19_87PXKFK_4L9XZE9__N_ZG7U8VZAV92X98_2_6X7Y3X__TVM2__3_49M8THR9_45E8B8XIDZ2X8Y_EFCRML4_499
---True labels       : MERMIROOMUHJPXJOHUVLEORZP3GLOO7AUFDKEFTWEOOALZOP9ROCGZET1Y19EWX65QUYU7NAK_4YCJDVDNGQXODBEV2B5EFDIDNR
---Accuracy: 3.0%
-- Repetition: 5
---Constructed labels: W3IPE94_GUU9887QZKFK_4GQXZE7_XNXZGCW82_AV9JX99_247X7Y34__T_Q2__3_49M8TZR9_45E9B8RIDZ2X8Y6AWCXPL48499
---True labels       : MERMIROOMUHJPXJOHUVLEORZP3GLOO7AUFDKEFTWEOOALZOP9ROCGZET1Y19EWX65QUYU7NAK_4YCJDVDNGQXODBEV2B5EFDIDNR
---Accuracy: 3.0%
-- Repetition: 6
---Constructed labels: 33IJW9Z_GUU9887QZKFQ_4GNXZF7_4NXZKVW82_SX9JX9__247T7Y34F_TLQYX73949N8T3R9_48E_B8RITZ2X836AWCXP7_849K
---True labels       : MERMIROOMUHJPXJOHUVLEORZP3GLOO7AUFDKEFTWEOOALZOP9ROCGZET1Y19EWX65QUYU7NAK_4YCJDVDNGQXODBEV2B5EFDIDNR
---Accuracy: 3.0%
-- Repetition: 7
---Constructed labels: 33IJX_Z_JUU9987QZKXQ_XGNX3F7_4NVZKVW82_SXLJX__7246X7Y34F_TLOYX739RWO8T3R9_483_B8OITZ2X836CWDXP__X49K
---True labels       : MERMIROOMUHJPXJOHUVLEORZP3GLOO7AUFDKEFTWEOOALZOP9ROCGZET1Y19EWX65QUYU7NAK_4YCJDVDNGQXODBEV2B5EFDIDNR
---Accuracy: 4.0%
-- Repetition: 8
---Constructed labels: 331JXRZRJUU99864ZKXQ_XGNX3F7_4NVZK8W82_SXLJX__7Y36X7Y34Y_TLUYXU39RWP8T3P9_463_B8OITH2X83OCXDXP_FX49W
---True labels       : MERMIROOMUHJPXJOHUVLEORZP3GLOO7AUFDKEFTWEOOALZOP9ROCGZET1Y19EWX65QUYU7NAK_4YCJDVDNGQXODBEV2B5EFDIDNR
---Accuracy: 5.0%
-- Repetition: 9
---Constructed labels: 3E1JXRZRJUU99864ZKXQFWJNX2FI_XNV1K7W_D_SXLJWL_7Y36X7Y34Y_HLUYXU39RWP8T3P95463_B8UIBH2X837CXVVP_LX_93
---True labels       : MERMIROOMUHJPXJOHUVLEORZP3GLOO7AUFDKEFTWEOOALZOP9ROCGZET1Y19EWX65QUYU7NAK_4YCJDVDNGQXODBEV2B5EFDIDNR
---Accuracy: 5.0%
-- Repetition: 10
---Constructed labels: 33CJXRZRJUU9986FZKXQFWGNX2BI_XNV1K7W_D_GXLJWL_729HX7S34Y_TLUGXV3_RWO8T3P954636N8UITH8X_Y7CXVVP_LV_93
---True labels       : MERMIROOMUHJPXJOHUVLEORZP3GLOO7AUFDKEFTWEOOALZOP9ROCGZET1Y19EWX65QUYU7NAK_4YCJDVDNGQXODBEV2B5EFDIDNR
---Accuracy: 5.0%
-- Repetition: 11
---Constructed labels: 33CLFRZRIXUW98HFZWXQFWGNL2BIFWNV1K7W_8_KXLJXL_OJ9H6_S341_TLVGUU3_RWI8T3P954636N8UITH8XFY7AXVDP_LVL93
---True labels       : MERMIROOMUHJPXJOHUVLEORZP3GLOO7AUFDKEFTWEOOALZOP9ROCGZET1Y19EWX65QUYU7NAK_4YCJDVDNGQXODBEV2B5EFDIDNR
---Accuracy: 5.0%
-- Repetition: 12
---Constructed labels: 33CLFRZRCXUW986FZWXQFWJNL2BKFWNV1K7K_84KXLJX__UJ9H_ZY94F_TXVGUU3_4WI8XK2954636B_VGTJ8XLY_GSVDP_LPL93
---True labels       : MERMIROOMUHJPXJOHUVLEORZP3GLOO7AUFDKEFTWEOOALZOP9ROCGZET1Y19EWX65QUYU7NAK_4YCJDVDNGQXODBEV2B5EFDIDNR
---Accuracy: 4.0%
-- Repetition: 13
---Constructed labels: 33CLFRZNCXUW88C4TU_RFWJNL2BKFWNV1K7K_84KXLJX__OJ9H_ZY94F_TXVGXU3__WI8XK2994636B_VMTJ8XLY7GSVDP_LPL33
---True labels       : MERMIROOMUHJPXJOHUVLEORZP3GLOO7AUFDKEFTWEOOALZOP9ROCGZET1Y19EWX65QUYU7NAK_4YCJDVDNGQXODBEV2B5EFDIDNR
---Accuracy: 6.0%
-- Repetition: 14
---Constructed labels: 331JFRZNCXUW89C4TK_LFWJNL2NKFWZV1K7K_J4KXLJX__OJ9J_ZY9LA7TXVGXU39_WI8XJP994638B_VOVJ8XLY7GSVDP_LP433
---True labels       : MERMIROOMUHJPXJOHUVLEORZP3GLOO7AUFDKEFTWEOOALZOP9ROCGZET1Y19EWX65QUYU7NAK_4YCJDVDNGQXODBEV2B5EFDIDNR
---Accuracy: 6.0%
-- Repetition: 15
---Constructed labels: 331LFRZNCXUW_9C4TK_LFWJ9L2NKAWNV1K7K_J4KXLJX__OJ32_ZY3LA7T3VHX739_UI8XJP994638B8VOVJ7XLY7GSVDP_LQ433
---True labels       : MERMIROOMUHJPXJOHUVLEORZP3GLOO7AUFDKEFTWEOOALZOP9ROCGZET1Y19EWX65QUYU7NAK_4YCJDVDNGQXODBEV2B5EFDIDNR
---Accuracy: 6.0%
==== End classifier: KNeighborsClassifier
==== Start classifier: DecisionTreeClassifier
-- Repetition: 1
---Constructed labels: 4_QJLQ9O3R9LB92Q4RQ6_W947E9LU_V_86J__T9W2R_7646U_O1IF8R76_N6LR_XPF__86X___4_X2R9BF9D64D57R6ILFRL42RL
---True labels       : MERMIROOMUHJPXJOHUVLEORZP3GLOO7AUFDKEFTWEOOALZOP9ROCGZET1Y19EWX65QUYU7NAK_4YCJDVDNGQXODBEV2B5EFDIDNR
---Accuracy: 6.0%
-- Repetition: 2
---Constructed labels: 47OSLQ9O3O9WT923_RQ6XE_4UE7L16U_J6JL8V_Q2F88XY6U_XC8F7Q76_T_BS_WQ_88V6R_682_XDR9B452O4D2767ILX_I5P63
---True labels       : MERMIROOMUHJPXJOHUVLEORZP3GLOO7AUFDKEFTWEOOALZOP9ROCGZET1Y19EWX65QUYU7NAK_4YCJDVDNGQXODBEV2B5EFDIDNR
---Accuracy: 3.0%
-- Repetition: 3
---Constructed labels: 4KPSLQ_M3O3KT933VRQ9XB_4VE7L1_UX86VL8V_33Q82N48O_N18F1Q764T4HT_TQ_X8V7R7682_XER9JY527ZD27671X__34R63
---True labels       : MERMIROOMUHJPXJOHUVLEORZP3GLOO7AUFDKEFTWEOOALZOP9ROCGZET1Y19EWX65QUYU7NAK_4YCJDVDNGQXODBEV2B5EFDIDNR
---Accuracy: 3.0%
-- Repetition: 4
---Constructed labels: 4IOS7Q_M3O3LT919VRR6XE_F2E7WP_UR8_VJ8V432Q82N4WO_N18C1K__4T4JSVXW_X8V9QF984_XD49LQ526ZD4O67ZX__L4RN3
---True labels       : MERMIROOMUHJPXJOHUVLEORZP3GLOO7AUFDKEFTWEOOALZOP9ROCGZET1Y19EWX65QUYU7NAK_4YCJDVDNGQXODBEV2B5EFDIDNR
---Accuracy: 3.0%
-- Repetition: 5
---Constructed labels: 4IOS7P_MQC3LH827V_R5XB_C2E7WPXUX865J9J432Q_1Q4XQ_N2HC1KL_4P4K6XX85X8V7QR98Y5YD49LE526ZD4O66BU6_I4QN4
---True labels       : MERMIROOMUHJPXJOHUVLEORZP3GLOO7AUFDKEFTWEOOALZOP9ROCGZET1Y19EWX65QUYU7NAK_4YCJDVDNGQXODBEV2B5EFDIDNR
---Accuracy: 5.0%
-- Repetition: 6
---Constructed labels: YIOS9D8QNO3LT82OZ_R5XD_14E7VQXUR_66J5K242QZ3QXXQ_P1HB2K4_4PZJTXX2_S88O_R98O_YD49LE52WZD2O6BB16_1YQ64
---True labels       : MERMIROOMUHJPXJOHUVLEORZP3GLOO7AUFDKEFTWEOOALZOP9ROCGZET1Y19EWX65QUYU7NAK_4YCJDVDNGQXODBEV2B5EFDIDNR
---Accuracy: 4.0%
-- Repetition: 7
---Constructed labels: 4IOS7D8MNP3LN82OZAR6XD4CXE7XQXUR_66JEK242Q43MVVQ_D1LB4Q154PZ2SXX2_S8JO9R98O5YD49LE52WTDTO7CBCB_CYK54
---True labels       : MERMIROOMUHJPXJOHUVLEORZP3GLOO7AUFDKEFTWEOOALZOP9ROCGZET1Y19EWX65QUYU7NAK_4YCJDVDNGQXODBEV2B5EFDIDNR
---Accuracy: 5.0%
-- Repetition: 8
---Constructed labels: 4UOS7BVMNP3JN8JO4AP5XD_1XE7XQXUX_6D8EWZQ2Q4WQVUP_DZLNCQ754PZ8SXT2_W8J6QR98O5YDR54QS2WTDTO7BBCB8CYK51
---True labels       : MERMIROOMUHJPXJOHUVLEORZP3GLOO7AUFDKEFTWEOOALZOP9ROCGZET1Y19EWX65QUYU7NAK_4YCJDVDNGQXODBEV2B5EFDIDNR
---Accuracy: 9.0%
-- Repetition: 9
---Constructed labels: YUOS7D8QNP3JN81ORA25XD_CXE7XOXNR_6F8E3Z93Q4UKVCP8D1_NFQ174QZ6SXT2_W8V69R98O5YER52QS4WTDNO7ZBCB8CYK51
---True labels       : MERMIROOMUHJPXJOHUVLEORZP3GLOO7AUFDKEFTWEOOALZOP9ROCGZET1Y19EWX65QUYU7NAK_4YCJDVDNGQXODBEV2B5EFDIDNR
---Accuracy: 8.0%
-- Repetition: 10
---Constructed labels: YUOS7DVQNQ3PN81ON525XE7CXE7XOXNL8658AWT93Q2WWVUP_P1LNDQ1I4VZ6SXT2_X8V59R9815YEN52QSLWTBNOC3BBB8CYK61
---True labels       : MERMIROOMUHJPXJOHUVLEORZP3GLOO7AUFDKEFTWEOOALZOP9ROCGZET1Y19EWX65QUYU7NAK_4YCJDVDNGQXODBEV2B5EFDIDNR
---Accuracy: 6.0%
-- Repetition: 11
---Constructed labels: YUOS7EVQNC3JN81ON725OE_C_EIUOXNX_6_8FWT93Q4WWVCP_P1_NDQ1I4PZ7SXT2_X8V59H92451DR52QSLWHBZOC9BBB9WYP61
---True labels       : MERMIROOMUHJPXJOHUVLEORZP3GLOO7AUFDKEFTWEOOALZOP9ROCGZET1Y19EWX65QUYU7NAK_4YCJDVDNGQXODBEV2B5EFDIDNR
---Accuracy: 8.0%
-- Repetition: 12
---Constructed labels: YUOS7DVQNC3JN81RNC25RE_A_EOURXNX_668AWT93QFWWVCP_PCLNPQ774PZ7SXT34X8V65P9215YER52QS_WHBBOC3BBB8WGP64
---True labels       : MERMIROOMUHJPXJOHUVLEORZP3GLOO7AUFDKEFTWEOOALZOP9ROCGZET1Y19EWX65QUYU7NAK_4YCJDVDNGQXODBEV2B5EFDIDNR
---Accuracy: 6.0%
-- Repetition: 13
---Constructed labels: YUOR7P5RNC3JN82RNCV5OE_C8E7XRXHX_668AWV73QFWWVCP_DCLNDQ7G4OZ7SXT3XS8V65P9215ACR52OS_KTBBOC9BBB8W1M64
---True labels       : MERMIROOMUHJPXJOHUVLEORZP3GLOO7AUFDKEFTWEOOALZOP9ROCGZET1Y19EWX65QUYU7NAK_4YCJDVDNGQXODBEV2B5EFDIDNR
---Accuracy: 6.0%
-- Repetition: 14
---Constructed labels: ZUOM7P6RZD3QN8JRQ7V5PE_A8E7XOXHX___8AWV73QFWWVCP82B6QDQ7G4OZ7SXT3XU8V65P9815ACN52OS8KTBBCF9BBB8WYR64
---True labels       : MERMIROOMUHJPXJOHUVLEORZP3GLOO7AUFDKEFTWEOOALZOP9ROCGZET1Y19EWX65QUYU7NAK_4YCJDVDNGQXODBEV2B5EFDIDNR
---Accuracy: 9.0%
-- Repetition: 15
---Constructed labels: ZUOM7N6RZD3KN8IOP7V5WE_D8EOXU4HX_9_85WV73QFWKSCP82B6QRQ774OZ7TXT4XU8V65P9815AEN52QSJKTBBC_3BBB8EYR61
---True labels       : MERMIROOMUHJPXJOHUVLEORZP3GLOO7AUFDKEFTWEOOALZOP9ROCGZET1Y19EWX65QUYU7NAK_4YCJDVDNGQXODBEV2B5EFDIDNR
---Accuracy: 8.0%
==== End classifier: DecisionTreeClassifier
==== Start classifier: RandomForestClassifier
-- Repetition: 1
---Constructed labels: ___________________4___Y_________6__________F__________________________LX___________________________
---True labels       : MERMIROOMUHJPXJOHUVLEORZP3GLOO7AUFDKEFTWEOOALZOP9ROCGZET1Y19EWX65QUYU7NAK_4YCJDVDNGQXODBEV2B5EFDIDNR
---Accuracy: 1.0%
-- Repetition: 2
---Constructed labels: _F_________________L___4_________6__________F__________________________LX___5_5__________________L__
---True labels       : MERMIROOMUHJPXJOHUVLEORZP3GLOO7AUFDKEFTWEOOALZOP9ROCGZET1Y19EWX65QUYU7NAK_4YCJDVDNGQXODBEV2B5EFDIDNR
---Accuracy: 2.0%
-- Repetition: 3
---Constructed labels: _X___U_____________4___4_________6_________1P______________________6___LX___5_Y__________________L__
---True labels       : MERMIROOMUHJPXJOHUVLEORZP3GLOO7AUFDKEFTWEOOALZOP9ROCGZET1Y19EWX65QUYU7NAK_4YCJDVDNGQXODBEV2B5EFDIDNR
---Accuracy: 1.0%
-- Repetition: 4
---Constructed labels: _X___U_____________Z___4_______R_6_________1P______________________6___LX___5_1__________________L__
---True labels       : MERMIROOMUHJPXJOHUVLEORZP3GLOO7AUFDKEFTWEOOALZOP9ROCGZET1Y19EWX65QUYU7NAK_4YCJDVDNGQXODBEV2B5EFDIDNR
---Accuracy: 1.0%
-- Repetition: 5
---Constructed labels: _X___U_____________4___1_________6_________4P______________________6___IX___5_1__X_______________L__
---True labels       : MERMIROOMUHJPXJOHUVLEORZP3GLOO7AUFDKEFTWEOOALZOP9ROCGZET1Y19EWX65QUYU7NAK_4YCJDVDNGQXODBEV2B5EFDIDNR
---Accuracy: 1.0%
-- Repetition: 6
---Constructed labels: _XT__U_____________4___1_________6_________4P______________________6___LX___5_U__X_______________L__
---True labels       : MERMIROOMUHJPXJOHUVLEORZP3GLOO7AUFDKEFTWEOOALZOP9ROCGZET1Y19EWX65QUYU7NAK_4YCJDVDNGQXODBEV2B5EFDIDNR
---Accuracy: 1.0%
-- Repetition: 7
---Constructed labels: _XT__U_____________H___4_______R_6_________4P______________________6____X___5_U__X_______________L__
---True labels       : MERMIROOMUHJPXJOHUVLEORZP3GLOO7AUFDKEFTWEOOALZOP9ROCGZET1Y19EWX65QUYU7NAK_4YCJDVDNGQXODBEV2B5EFDIDNR
---Accuracy: 1.0%
-- Repetition: 8
---Constructed labels: _XT__U_____________Z___4__H____R_6_________4P________5_____________T___8X___5_U__X_______________J__
---True labels       : MERMIROOMUHJPXJOHUVLEORZP3GLOO7AUFDKEFTWEOOALZOP9ROCGZET1Y19EWX65QUYU7NAK_4YCJDVDNGQXODBEV2B5EFDIDNR
---Accuracy: 1.0%
-- Repetition: 9
---Constructed labels: _XT__U_____________4___4__L____R_6_________4P_______45_________N___T___8X___5_U__X_______________J__
---True labels       : MERMIROOMUHJPXJOHUVLEORZP3GLOO7AUFDKEFTWEOOALZOP9ROCGZET1Y19EWX65QUYU7NAK_4YCJDVDNGQXODBEV2B5EFDIDNR
---Accuracy: 1.0%
-- Repetition: 10
---Constructed labels: _XT__U___________V_4___Z__L____R_6_________4P__8____45_________N___T____X___5_U__X_______________J__
---True labels       : MERMIROOMUHJPXJOHUVLEORZP3GLOO7AUFDKEFTWEOOALZOP9ROCGZET1Y19EWX65QUYU7NAK_4YCJDVDNGQXODBEV2B5EFDIDNR
---Accuracy: 2.0%
-- Repetition: 11
---Constructed labels: _XT__U___________V_4___Z__L____Q_6____L____4P9_8____25_________N___6____X___5_U__X_______________J__
---True labels       : MERMIROOMUHJPXJOHUVLEORZP3GLOO7AUFDKEFTWEOOALZOP9ROCGZET1Y19EWX65QUYU7NAK_4YCJDVDNGQXODBEV2B5EFDIDNR
---Accuracy: 2.0%
-- Repetition: 12
---Constructed labels: _XT__U___________V_4_X_Z__L____E_6____L____4P9_8____25_________N___6____X___5_U__X___3___________J__
---True labels       : MERMIROOMUHJPXJOHUVLEORZP3GLOO7AUFDKEFTWEOOALZOP9ROCGZET1Y19EWX65QUYU7NAK_4YCJDVDNGQXODBEV2B5EFDIDNR
---Accuracy: 2.0%
-- Repetition: 13
---Constructed labels: _XT__U___________V_Y_X_4__L____E_6____L____4P9_8____25___7_____N___T____X___5_U__X___3___________J__
---True labels       : MERMIROOMUHJPXJOHUVLEORZP3GLOO7AUFDKEFTWEOOALZOP9ROCGZET1Y19EWX65QUYU7NAK_4YCJDVDNGQXODBEV2B5EFDIDNR
---Accuracy: 1.0%
-- Repetition: 14
---Constructed labels: _XT__U___________V_4_X_3__L____E_6____L____4P9_8____25___7_____N___T____X___5_U__X8__4___________J__
---True labels       : MERMIROOMUHJPXJOHUVLEORZP3GLOO7AUFDKEFTWEOOALZOP9ROCGZET1Y19EWX65QUYU7NAK_4YCJDVDNGQXODBEV2B5EFDIDNR
---Accuracy: 1.0%
-- Repetition: 15
---Constructed labels: _XT__U___________V_4_F_W__L____E_6____L____4P9_8____25___7____4N___X____X___5_U__X8__4___________J__
---True labels       : MERMIROOMUHJPXJOHUVLEORZP3GLOO7AUFDKEFTWEOOALZOP9ROCGZET1Y19EWX65QUYU7NAK_4YCJDVDNGQXODBEV2B5EFDIDNR
---Accuracy: 1.0%
==== End classifier: RandomForestClassifier
==== Start classifier: LDA
-- Repetition: 1
---Constructed labels: G3RNLQR74468DXLLHO__XWR6_4LQ117F7LFK__T4DOPFK_LW945UAZ35PZ19Q9V65R8HV6RF__477RF_845__OF89X8E_EXFRD4_
---True labels       : MERMIROOMUHJPXJOHUVLEORZP3GLOO7AUFDKEFTWEOOALZOP9ROCGZET1Y19EWX65QUYU7NAK_4YCJDVDNGQXODBEV2B5EFDIDNR
---Accuracy: 19.0%
-- Repetition: 2
---Constructed labels: G3RNLQOO4489DXHLIO8_UORZ_ZGL127RLLFK__T3FOOALRIW94OXAZ351Z1WE9W65Q2TV7NA5_3Y7LE_D45PXO269VXE_EXFRD4_
---True labels       : MERMIROOMUHJPXJOHUVLEORZP3GLOO7AUFDKEFTWEOOALZOP9ROCGZET1Y19EWX65QUYU7NAK_4YCJDVDNGQXODBEV2B5EFDIDNR
---Accuracy: 36.0%
-- Repetition: 3
---Constructed labels: SERQLQOO24JJDXHLCO8XUORZR3GLO17PLFBQ_FT3ENOILQOV94OCG1E81Z19EW365Q2XW7NA5_3Y7JDXC45PXO269V4E_ERDRDZR
---True labels       : MERMIROOMUHJPXJOHUVLEORZP3GLOO7AUFDKEFTWEOOALZOP9ROCGZET1Y19EWX65QUYU7NAK_4YCJDVDNGQXODBEV2B5EFDIDNR
---Accuracy: 48.0%
-- Repetition: 4
---Constructed labels: 5ERMLMOO24JJDXJICUWXVORZP3GLOO7PLFBQ_FT3EOOGLYOV9RRCG1E81Z19EW365Q2RW7OA9_3Y7JDXC45PXO2B9V2B_EXDRDZR
---True labels       : MERMIROOMUHJPXJOHUVLEORZP3GLOO7AUFDKEFTWEOOALZOP9ROCGZET1Y19EWX65QUYU7NAK_4YCJDVDNGQXODBEV2B5EFDIDNR
---Accuracy: 56.0%
-- Repetition: 5
---Constructed labels: 5ERMLMOOYYJJDXJIBUVXVORZP3GLOO7CLFBQ_FT3EOOGLYOP9R1CG2E81Y19EW465Q1MU7OF9_3Y7JDXD45QXO2BBV2B5ERDREZR
---True labels       : MERMIROOMUHJPXJOHUVLEORZP3GLOO7AUFDKEFTWEOOALZOP9ROCGZET1Y19EWX65QUYU7NAK_4YCJDVDNGQXODBEV2B5EFDIDNR
---Accuracy: 61.0%
-- Repetition: 6
---Constructed labels: GERMIMOOY4JJDXJOHUVXVORZP3GLOO7CIFFQFFT3EOOGLYOP9N1CGZE81Y19EWV65Q1MU7OFL_3Y7JDWD45QXO2TBV2B5ERDLEZR
---True labels       : MERMIROOMUHJPXJOHUVLEORZP3GLOO7AUFDKEFTWEOOALZOP9ROCGZET1Y19EWX65QUYU7NAK_4YCJDVDNGQXODBEV2B5EFDIDNR
---Accuracy: 63.0%
-- Repetition: 7
---Constructed labels: GERAIMOOMX2JDXJOHUVXVORZP3GLOO7CUFFKFFT3EOOGLZOP9X1CGZE81Y19EWV65QVMU7NFL_35CJDWD45QXO2TBV2B5ERDLETR
---True labels       : MERMIROOMUHJPXJOHUVLEORZP3GLOO7AUFDKEFTWEOOALZOP9ROCGZET1Y19EWX65QUYU7NAK_4YCJDVDNGQXODBEV2B5EFDIDNR
---Accuracy: 67.0%
-- Repetition: 8
---Constructed labels: GERAIMOOMX2JDXJOHUVXVORZP3GLOO7AUFFKFFT3EOOGLZOP9R1DGZE81Y19EWX65QUYU7NFK_25CJDWDNGQXO2TBV2B5E4DLETR
---True labels       : MERMIROOMUHJPXJOHUVLEORZP3GLOO7AUFDKEFTWEOOALZOP9ROCGZET1Y19EWX65QUYU7NAK_4YCJDVDNGQXODBEV2B5EFDIDNR
---Accuracy: 74.0%
-- Repetition: 9
---Constructed labels: MERMIMOOMX2JDXJOHUVLVORZP3GLOO7CUFFKFFTWEOOGLZOP9R1CGYE_1Y19EWX65QUYU7NAK_35CJDWDNGQXO2TBV2B5E4DLDTR
---True labels       : MERMIROOMUHJPXJOHUVLEORZP3GLOO7AUFDKEFTWEOOALZOP9ROCGZET1Y19EWX65QUYU7NAK_4YCJDVDNGQXODBEV2B5EFDIDNR
---Accuracy: 79.0%
-- Repetition: 10
---Constructed labels: MERMIMOOYX2JDXJOHUPRWORZP3GLOO7CUFBKFFTWEOOGLZOP9ROCGYE81Y19EWX65QUYU7NAK_3YCJDVDN5QXO2TBV2B5E4DLDTR
---True labels       : MERMIROOMUHJPXJOHUVLEORZP3GLOO7AUFDKEFTWEOOALZOP9ROCGZET1Y19EWX65QUYU7NAK_4YCJDVDNGQXODBEV2B5EFDIDNR
---Accuracy: 78.0%
-- Repetition: 11
---Constructed labels: MERMIMOOMV2JDXJOHUPX6ORZP3GLOO7AUFEKFFTWEOOALZOP9ROCGYEV1Y19EWX65QUYU7NAK_3YCJDVDN5QXODBBV2B5E4DIDTR
---True labels       : MERMIROOMUHJPXJOHUVLEORZP3GLOO7AUFDKEFTWEOOALZOP9ROCGZET1Y19EWX65QUYU7NAK_4YCJDVDNGQXODBEV2B5EFDIDNR
---Accuracy: 84.0%
-- Repetition: 12
---Constructed labels: MERMIMOOMV2JDXJOHUVX9ORZP3GLOO7AUFEQFFTWEOOALZOP9ROCGYE81Y19EWX65QWYU7NAK_3YCJDVDNGQXODBBV2B5EFDIDTR
---True labels       : MERMIROOMUHJPXJOHUVLEORZP3GLOO7AUFDKEFTWEOOALZOP9ROCGZET1Y19EWX65QUYU7NAK_4YCJDVDNGQXODBEV2B5EFDIDNR
---Accuracy: 85.0%
-- Repetition: 13
---Constructed labels: SERMIMOOMU2JPXJOHUVF9ORZP3GLOO7AUFEQFFTWEOOALZOP9R1CGYE81Y19EWX65QWYU7NAK_3YCJDVDNGQXODBBV2B5EFDIDTR
---True labels       : MERMIROOMUHJPXJOHUVLEORZP3GLOO7AUFDKEFTWEOOALZOP9ROCGZET1Y19EWX65QUYU7NAK_4YCJDVDNGQXODBEV2B5EFDIDNR
---Accuracy: 85.0%
-- Repetition: 14
---Constructed labels: MERMIROOMU2JPXJOHUVLQORZP3GLOO7AUFEQFFTWEOOALZOP94OCGYE81Y19EWX65QUYU7NAK_3YCJDVDNGQXOJBBV2B5EFDIDTR
---True labels       : MERMIROOMUHJPXJOHUVLEORZP3GLOO7AUFDKEFTWEOOALZOP9ROCGZET1Y19EWX65QUYU7NAK_4YCJDVDNGQXODBEV2B5EFDIDNR
---Accuracy: 88.0%
-- Repetition: 15
---Constructed labels: MERMIROOMU2JPXJOHUVFQORZP3GLOO7AUFEQFFTWEOOALZOP9ROCGYE81Y19EWX65QUYU7NAK_2YCJDVDNGQXOJBBV2B5EFDIDTR
---True labels       : MERMIROOMUHJPXJOHUVLEORZP3GLOO7AUFDKEFTWEOOALZOP9ROCGZET1Y19EWX65QUYU7NAK_4YCJDVDNGQXODBEV2B5EFDIDNR
---Accuracy: 88.0%
==== End classifier: LDA
==== Start classifier: QuadraticDiscriminantAnalysis
-- Repetition: 1
---Constructed labels: ____________________________________________________________________________________________________
---True labels       : MERMIROOMUHJPXJOHUVLEORZP3GLOO7AUFDKEFTWEOOALZOP9ROCGZET1Y19EWX65QUYU7NAK_4YCJDVDNGQXODBEV2B5EFDIDNR
---Accuracy: 1.0%
-- Repetition: 2
---Constructed labels: ____________________________________________________________________________________________________
---True labels       : MERMIROOMUHJPXJOHUVLEORZP3GLOO7AUFDKEFTWEOOALZOP9ROCGZET1Y19EWX65QUYU7NAK_4YCJDVDNGQXODBEV2B5EFDIDNR
---Accuracy: 1.0%
-- Repetition: 3
---Constructed labels: ____________________________________________________________________________________________________
---True labels       : MERMIROOMUHJPXJOHUVLEORZP3GLOO7AUFDKEFTWEOOALZOP9ROCGZET1Y19EWX65QUYU7NAK_4YCJDVDNGQXODBEV2B5EFDIDNR
---Accuracy: 1.0%
-- Repetition: 4
---Constructed labels: ____________________________________________________________________________________________________
---True labels       : MERMIROOMUHJPXJOHUVLEORZP3GLOO7AUFDKEFTWEOOALZOP9ROCGZET1Y19EWX65QUYU7NAK_4YCJDVDNGQXODBEV2B5EFDIDNR
---Accuracy: 1.0%
-- Repetition: 5
---Constructed labels: ____________________________________________________________________________________________________
---True labels       : MERMIROOMUHJPXJOHUVLEORZP3GLOO7AUFDKEFTWEOOALZOP9ROCGZET1Y19EWX65QUYU7NAK_4YCJDVDNGQXODBEV2B5EFDIDNR
---Accuracy: 1.0%
-- Repetition: 6
---Constructed labels: ____________________________________________________________________________________________________
---True labels       : MERMIROOMUHJPXJOHUVLEORZP3GLOO7AUFDKEFTWEOOALZOP9ROCGZET1Y19EWX65QUYU7NAK_4YCJDVDNGQXODBEV2B5EFDIDNR
---Accuracy: 1.0%
-- Repetition: 7
---Constructed labels: ____________________________________________________L_______________________________________________
---True labels       : MERMIROOMUHJPXJOHUVLEORZP3GLOO7AUFDKEFTWEOOALZOP9ROCGZET1Y19EWX65QUYU7NAK_4YCJDVDNGQXODBEV2B5EFDIDNR
---Accuracy: 1.0%
-- Repetition: 8
---Constructed labels: ____________________________________________________L_______________________________________________
---True labels       : MERMIROOMUHJPXJOHUVLEORZP3GLOO7AUFDKEFTWEOOALZOP9ROCGZET1Y19EWX65QUYU7NAK_4YCJDVDNGQXODBEV2B5EFDIDNR
---Accuracy: 1.0%
-- Repetition: 9
---Constructed labels: ____________________________________________________L_______________________________________________
---True labels       : MERMIROOMUHJPXJOHUVLEORZP3GLOO7AUFDKEFTWEOOALZOP9ROCGZET1Y19EWX65QUYU7NAK_4YCJDVDNGQXODBEV2B5EFDIDNR
---Accuracy: 1.0%
-- Repetition: 10
---Constructed labels: ____________________________________________________L_______________________________________________
---True labels       : MERMIROOMUHJPXJOHUVLEORZP3GLOO7AUFDKEFTWEOOALZOP9ROCGZET1Y19EWX65QUYU7NAK_4YCJDVDNGQXODBEV2B5EFDIDNR
---Accuracy: 1.0%
-- Repetition: 11
---Constructed labels: ____________________________________________________L_______________________________________________
---True labels       : MERMIROOMUHJPXJOHUVLEORZP3GLOO7AUFDKEFTWEOOALZOP9ROCGZET1Y19EWX65QUYU7NAK_4YCJDVDNGQXODBEV2B5EFDIDNR
---Accuracy: 1.0%
-- Repetition: 12
---Constructed labels: ____________________________________________________L_______________________________________________
---True labels       : MERMIROOMUHJPXJOHUVLEORZP3GLOO7AUFDKEFTWEOOALZOP9ROCGZET1Y19EWX65QUYU7NAK_4YCJDVDNGQXODBEV2B5EFDIDNR
---Accuracy: 1.0%
-- Repetition: 13
---Constructed labels: _____________________R______________________________L_______________________________________________
---True labels       : MERMIROOMUHJPXJOHUVLEORZP3GLOO7AUFDKEFTWEOOALZOP9ROCGZET1Y19EWX65QUYU7NAK_4YCJDVDNGQXODBEV2B5EFDIDNR
---Accuracy: 1.0%
-- Repetition: 14
---Constructed labels: _____________________R______________________________L_______________________________________________
---True labels       : MERMIROOMUHJPXJOHUVLEORZP3GLOO7AUFDKEFTWEOOALZOP9ROCGZET1Y19EWX65QUYU7NAK_4YCJDVDNGQXODBEV2B5EFDIDNR
---Accuracy: 1.0%
-- Repetition: 15
---Constructed labels: _____________________R______________________________L_______________________________________________
---True labels       : MERMIROOMUHJPXJOHUVLEORZP3GLOO7AUFDKEFTWEOOALZOP9ROCGZET1Y19EWX65QUYU7NAK_4YCJDVDNGQXODBEV2B5EFDIDNR
---Accuracy: 1.0%
==== End classifier: QuadraticDiscriminantAnalysis
==== Start classifier: LinearSVC
-- Repetition: 1
---Constructed labels: L3RNLRR94468DXLLH7__XWR6_4LQ117F7LAK__T4_OOF9_LW945UAZ378Z19Q9V65R8HV7RF__477RF_84L__OF8__6E_EXFRD4_
---True labels       : MERMIROOMUHJPXJOHUVLEORZP3GLOO7AUFDKEFTWEOOALZOP9ROCGZET1Y19EWX65QUYU7NAK_4YCJDVDNGQXODBEV2B5EFDIDNR
---Accuracy: 22.0%
-- Repetition: 2
---Constructed labels: G3RNLRNO4489DXLLI78_XOXZ_ZGL127RLLAK__T3FOOA_RIW94OUAZ3O1Z1WE9W65QVHV7PA5_4Y7LE_F4GRUO26_8XE_EXFRD4_
---True labels       : MERMIROOMUHJPXJOHUVLEORZP3GLOO7AUFDKEFTWEOOALZOP9ROCGZET1Y19EWX65QUYU7NAK_4YCJDVDNGQXODBEV2B5EFDIDNR
---Accuracy: 32.0%
-- Repetition: 3
---Constructed labels: SERNLMNO2LJ_DXLICU8XTOXZR3GLO17PLFBK_FT3EOOI_QOV94OCG1EP1Z19EW365QVRW7PA5_4Y7JDXF4JRXO2668XB_ERDRDZR
---True labels       : MERMIROOMUHJPXJOHUVLEORZP3GLOO7AUFDKEFTWEOOALZOP9ROCGZET1Y19EWX65QUYU7NAK_4YCJDVDNGQXODBEV2B5EFDIDNR
---Accuracy: 47.0%
-- Repetition: 4
---Constructed labels: 5ERMLMOO2LJPDXJICUWXVOXZP3GLOO7PLFBK_FZ3EOOG_YOV9RNCG1EP1Z19EW365QVRW7PA9_1Y7JDXF4JRXO2B684B_ERDRDZR
---True labels       : MERMIROOMUHJPXJOHUVLEORZP3GLOO7AUFDKEFTWEOOALZOP9ROCGZET1Y19EWX65QUYU7NAK_4YCJDVDNGQXODBEV2B5EFDIDNR
---Accuracy: 51.0%
-- Repetition: 5
---Constructed labels: 5ERMLMOOYYJJDXJICUVXVORZP3GLOO7PIFBK_FZEEOOGLYOP9R1CG2E21Y19EWR65QUNU7PF5_1Y7JDXD2GQXO2B6V2B5ERDREZR
---True labels       : MERMIROOMUHJPXJOHUVLEORZP3GLOO7AUFDKEFTWEOOALZOP9ROCGZET1Y19EWX65QUYU7NAK_4YCJDVDNGQXODBEV2B5EFDIDNR
---Accuracy: 63.0%
-- Repetition: 6
---Constructed labels: GERMIMOOY4JKDXJOHUVXVORZP3GLOO7AIFFKFFTEEOOGLYOP9R1CGZE21Y19EWV65QUNU7PFG_1Y7JDWD2GQXO2B6V2B5ERDLEZR
---True labels       : MERMIROOMUHJPXJOHUVLEORZP3GLOO7AUFDKEFTWEOOALZOP9ROCGZET1Y19EWX65QUYU7NAK_4YCJDVDNGQXODBEV2B5EFDIDNR
---Accuracy: 68.0%
-- Repetition: 7
---Constructed labels: GERMIMOOM4JKDXJOHUVXVORZP3GLOO7DUFFKFFTEEOOGLZOP9R1CGZE21Y19EWV65QVNU7NFK_15CJDWDPGQXO2BBV2B5ERDLETR
---True labels       : MERMIROOMUHJPXJOHUVLEORZP3GLOO7AUFDKEFTWEOOALZOP9ROCGZET1Y19EWX65QUYU7NAK_4YCJDVDNGQXODBEV2B5EFDIDNR
---Accuracy: 71.0%
-- Repetition: 8
---Constructed labels: MERMIMOOMXJJDXJOHUVXVORZP3GLOO7DUFAKFFTEEOOGLZOP9RZCGZE21Y19EWX65QUNU7NFK_25CJDWDPGQXODBBV2B5E4DLETR
---True labels       : MERMIROOMUHJPXJOHUVLEORZP3GLOO7AUFDKEFTWEOOALZOP9ROCGZET1Y19EWX65QUYU7NAK_4YCJDVDNGQXODBEV2B5EFDIDNR
---Accuracy: 76.0%
-- Repetition: 9
---Constructed labels: MERMIMOOMXJJDXJOHUVLWORZP3GLOO7DUFAKFFTWEOOGLZOP3RZCGYE41Y19EWX65QUOU7NAG_45CJDWDPGQXODBBV2B5E4DLDTR
---True labels       : MERMIROOMUHJPXJOHUVLEORZP3GLOO7AUFDKEFTWEOOALZOP9ROCGZET1Y19EWX65QUYU7NAK_4YCJDVDNGQXODBEV2B5EFDIDNR
---Accuracy: 78.0%
-- Repetition: 10
---Constructed labels: MERMIMOOY3JJDXJOHUVRWORZP3GLOO7DUFBKFFTXEOOGLZOP3RNCGYEP1Y19EWX65QU1U7NLG_4YCJDVFPGQXODBBV2B5E4DLDTR
---True labels       : MERMIROOMUHJPXJOHUVLEORZP3GLOO7AUFDKEFTWEOOALZOP9ROCGZET1Y19EWX65QUYU7NAK_4YCJDVDNGQXODBEV2B5EFDIDNR
---Accuracy: 75.0%
-- Repetition: 11
---Constructed labels: MERMIMOOMW2JDXJOHUVXWORZP3GLOO7AUFEKFFTXEOOALZOP3RNCGYEV1Y19EWX65QU1U7NFK_4YCJDVDNGQXODBBV2B5E4DLDTR
---True labels       : MERMIROOMUHJPXJOHUVLEORZP3GLOO7AUFDKEFTWEOOALZOP9ROCGZET1Y19EWX65QUYU7NAK_4YCJDVDNGQXODBEV2B5EFDIDNR
---Accuracy: 81.0%
-- Repetition: 12
---Constructed labels: MERMIMOOMV2JDXJOHUVXWORZP3GLOO7DUFEKFFTWEOOALZOP3RNCGYEV1Y19EWX65QWZU7NFK_4YCJDVDNGQXODBBV2B5E4DIDTR
---True labels       : MERMIROOMUHJPXJOHUVLEORZP3GLOO7AUFDKEFTWEOOALZOP9ROCGZET1Y19EWX65QUYU7NAK_4YCJDVDNGQXODBEV2B5EFDIDNR
---Accuracy: 81.0%
-- Repetition: 13
---Constructed labels: MERMIROOMU2JPXJOHUVXWORZP3GLOO7AUFEKFFTWEOOALZOP9RZCGYEV1Y19EWX65QWZU7NAK_4YCJDVDNGQXODBBV2B5E4DIDTR
---True labels       : MERMIROOMUHJPXJOHUVLEORZP3GLOO7AUFDKEFTWEOOALZOP9ROCGZET1Y19EWX65QUYU7NAK_4YCJDVDNGQXODBEV2B5EFDIDNR
---Accuracy: 87.0%
-- Repetition: 14
---Constructed labels: MERMIROOMUJJPXJOHUVLQORZP3GLOO7AUFEKFFTXEOOALZOP94NCGYEV1Y19EWX65QUZU7NAK_4YCJDVDNGQXODBBV2B5E4DIDTR
---True labels       : MERMIROOMUHJPXJOHUVLEORZP3GLOO7AUFDKEFTWEOOALZOP9ROCGZET1Y19EWX65QUYU7NAK_4YCJDVDNGQXODBEV2B5EFDIDNR
---Accuracy: 87.0%
-- Repetition: 15
---Constructed labels: MERMIROOMUJJPXJOHUVLQORZP3GLOO7AUFEKFFTWEOOALZOP9ROCGYE21Y19EWX65QUZU7NAK_2YCJDVDNGQXODBBV2B5EFDIDTR
---True labels       : MERMIROOMUHJPXJOHUVLEORZP3GLOO7AUFDKEFTWEOOALZOP9ROCGZET1Y19EWX65QUYU7NAK_4YCJDVDNGQXODBEV2B5EFDIDNR
---Accuracy: 90.0%
==== End classifier: LinearSVC
==== Start classifier: SVC
-- Repetition: 1
---Constructed labels: G452L6N75768D_J7KX___XR____R1U7_X_RKL_NZ8OPFIX_V3__C5Z368_1_6_K_5R8_88R4___Y_RFX_L5___FJ9_697A__LF29
---True labels       : MERMIROOMUHJPXJOHUVLEORZP3GLOO7AUFDKEFTWEOOALZOP9ROCGZET1Y19EWX65QUYU7NAK_4YCJDVDNGQXODBEV2B5EFDIDNR
---Accuracy: 11.0%
-- Repetition: 2
---Constructed labels: G4_DLNPIS768D_J7KU8_7X4__ZLL1U7_X_RKF_N3_OPFOX7V967C5ZW6851X6_975Q8_V8RY__4Y_HDXFL5_474J98XE7FQFLC29
---True labels       : MERMIROOMUHJPXJOHUVLEORZP3GLOO7AUFDKEFTWEOOALZOP9ROCGZET1Y19EWX65QUYU7NAK_4YCJDVDNGQXODBEV2B5EFDIDNR
---Accuracy: 16.0%
-- Repetition: 3
---Constructed labels: G_AELNPOSXHJV_JUKU8_7XO_LZGLOU7___4KFFT3FOPFOS7V9R7CGZW68Y4_6_9U5Q8_28RY__3Y8HDXFH5_474J9V4E5FQ2LC2E
---True labels       : MERMIROOMUHJPXJOHUVLEORZP3GLOO7AUFDKEFTWEOOALZOP9ROCGZET1Y19EWX65QUYU7NAK_4YCJDVDNGQXODBEV2B5EFDIDNR
---Accuracy: 26.0%
-- Repetition: 4
---Constructed labels: G_RELNPOSXHJ8_JOKU9_7XU_RZGLOO7___FKFFT3FOOEKY7V9R7CGZW6251R9_9U5QL_27R5__4Y8KDXFHSR4O4J9V4E5RQ2LCZF
---True labels       : MERMIROOMUHJPXJOHUVLEORZP3GLOO7AUFDKEFTWEOOALZOP9ROCGZET1Y19EWX65QUYU7NAK_4YCJDVDNGQXODBEV2B5EFDIDNR
---Accuracy: 33.0%
-- Repetition: 5
---Constructed labels: G_RELNPOS4HJ8RJOHUQ_7XU_NZGLOO7_IFFKFFT3FOOALY7V9R7CS2E6251R9_9U5QU_27R___4YDKDXFNTL4OFJ8V4E5REDLCZF
---True labels       : MERMIROOMUHJPXJOHUVLEORZP3GLOO7AUFDKEFTWEOOALZOP9ROCGZET1Y19EWX65QUYU7NAK_4YCJDVDNGQXODBEV2B5EFDIDNR
---Accuracy: 39.0%
-- Repetition: 6
---Constructed labels: G_REIRPOM4NJ8RJOHUQ_7O1_NZGLOO__UFFKFFW3FOOALSOV9X7CMZE6151Q9_WU5QI_V7R___4YDKDXFBSK4ODJ8V4E5EEDLCZF
---True labels       : MERMIROOMUHJPXJOHUVLEORZP3GLOO7AUFDKEFTWEOOALZOP9ROCGZET1Y19EWX65QUYU7NAK_4YCJDVDNGQXODBEV2B5EFDIDNR
---Accuracy: 43.0%
-- Repetition: 7
---Constructed labels: GFRKIRNOM1NJ8RJOHUW_COU_P4GLOO__UFFKFFW34OOALSOV9X1CMZE6151Q9_WU5QU_V7N___4YAKDXFNTK4ODLJVZE5EEDLCNF
---True labels       : MERMIROOMUHJPXJOHUVLEORZP3GLOO7AUFDKEFTWEOOALZOP9ROCGZET1Y19EWX65QUYU7NAK_4YCJDVDNGQXODBEV2B5EFDIDNR
---Accuracy: 48.0%
-- Repetition: 8
---Constructed labels: GFRLIRNOM1NJ8RJOHUP_COU_P4GLOOH_UFFKFFW34OOALYOP9R1CMZE61Y1Q__WU5QU_V7N___4YAKDXFNTK4ODLJVZE5EEDLCTF
---True labels       : MERMIROOMUHJPXJOHUVLEORZP3GLOO7AUFDKEFTWEOOALZOP9ROCGZET1Y19EWX65QUYU7NAK_4YCJDVDNGQXODBEV2B5EFDIDNR
---Accuracy: 50.0%
-- Repetition: 9
---Constructed labels: GERRIRNOM1NJ8RJOHUP_COU_P3GLOOH_UFFKFFWWFOOAKYOV9R1CG2E61Y1Q__W75QU_V7N5__4YAKDXFNTK4ODHDVZE5EEDLCTR
---True labels       : MERMIROOMUHJPXJOHUVLEORZP3GLOO7AUFDKEFTWEOOALZOP9ROCGZET1Y19EWX65QUYU7NAK_4YCJDVDNGQXODBEV2B5EFDIDNR
---Accuracy: 52.0%
-- Repetition: 10
---Constructed labels: GERRIRNOM1NJ8RJOHUP_IOW_P3GIOOH_UFFKFFXWFOOAKYOP9R1CG2E_1Y1Q99W75QU_V7N5__3YAJDXBNSQ4ODHEV2E5EEDLCTR
---True labels       : MERMIROOMUHJPXJOHUVLEORZP3GLOO7AUFDKEFTWEOOALZOP9ROCGZET1Y19EWX65QUYU7NAK_4YCJDVDNGQXODBEV2B5EFDIDNR
---Accuracy: 55.0%
-- Repetition: 11
---Constructed labels: GFRRIRNOMUNJ8RJOHUP_IOQ_P3GIOO67UFFKFFXWFOOALYOP9R1CG2E_1Y1Q99WO5QU_U7NA9_3YAJDXDNSQ4ODBEV2B5FEDICTR
---True labels       : MERMIROOMUHJPXJOHUVLEORZP3GLOO7AUFDKEFTWEOOALZOP9ROCGZET1Y19EWX65QUYU7NAK_4YCJDVDNGQXODBEV2B5EFDIDNR
---Accuracy: 61.0%
-- Repetition: 12
---Constructed labels: GFRRIROOMUNJ8RJOHUP_IOQ_P3GLOO67UFFKFFXWFOOALYOV9R1CG2E_1Y1P99WO5QU_U7NA9_3YAJDXDNGQ4ODBEV2B5FEDICTR
---True labels       : MERMIROOMUHJPXJOHUVLEORZP3GLOO7AUFDKEFTWEOOALZOP9ROCGZET1Y19EWX65QUYU7NAK_4YCJDVDNGQXODBEV2B5EFDIDNR
---Accuracy: 63.0%
-- Repetition: 13
---Constructed labels: GFRRIROOM1NJPRJOKUP_IOQ6P3GLOO67UFFKFFVWFOOAIYOP9R1CG2E61Y1PKWWQ5WU_U7NA9_3YAJDXDNGQ4ODFEV4B5FEDICTR
---True labels       : MERMIROOMUHJPXJOHUVLEORZP3GLOO7AUFDKEFTWEOOALZOP9ROCGZET1Y19EWX65QUYU7NAK_4YCJDVDNGQXODBEV2B5EFDIDNR
---Accuracy: 60.0%
-- Repetition: 14
---Constructed labels: MFRRIRNOM1HJPRJOKUP_IOQ6P3GLOO67UFFKFFVWFOOAIYOP9R1CG2E61Y1PKXWQ5WU_U7NA9L3YCJDXDNGQXODHEV1B5FEDIDTR
---True labels       : MERMIROOMUHJPXJOHUVLEORZP3GLOO7AUFDKEFTWEOOALZOP9ROCGZET1Y19EWX65QUYU7NAK_4YCJDVDNGQXODBEV2B5EFDIDNR
---Accuracy: 62.0%
-- Repetition: 15
---Constructed labels: MFRRIRNOM1HJPRJOHUP_IOQ6P3GLOO77UFFKFFVWFOOAIYOP9ROCGZE61Y1PWXWQ5WU_U7NA9L3YCJDVDNSQXODBEV4B5EEDIDZR
---True labels       : MERMIROOMUHJPXJOHUVLEORZP3GLOO7AUFDKEFTWEOOALZOP9ROCGZET1Y19EWX65QUYU7NAK_4YCJDVDNGQXODBEV2B5EFDIDNR
---Accuracy: 68.0%
==== End classifier: SVC
==== Start classifier: LDA_wyrm
-- Repetition: 1
---Constructed labels: ABOBLQNCZ1NDDXJIBOVFTOMB4ZLQCOCMULOKLDTHDOOAKZLJ32GCAZE58N19E3P65Q2NU7NA2E451PDSDZGXXOABJTTE7EXFID4F
---True labels       : MERMIROOMUHJPXJOHUVLEORZP3GLOO7AUFDKEFTWEOOALZOP9ROCGZET1Y19EWX65QUYU7NAK_4YCJDVDNGQXODBEV2B5EFDIDNR
---Accuracy: 35.0%
-- Repetition: 2
---Constructed labels: ADMAKQNOS1NVDFHLHUVFUORZQZLLOPCMUFCKAFT2DOOMLNIV3ZNLAZW51Y1WEKW65Q1NUINA2E3Y1HDXCHGPXOABEVVB5ARFIDZR
---True labels       : MERMIROOMUHJPXJOHUVLEORZP3GLOO7AUFDKEFTWEOOALZOP9ROCGZET1Y19EWX65QUYU7NAK_4YCJDVDNGQXODBEV2B5EFDIDNR
---Accuracy: 41.0%
-- Repetition: 3
---Constructed labels: ADMMKMOOSSPDDFHIBUVXZORZQ3GLOOCMUFBKAFT2EOOGLZOV3QOCGZE51Y19EW365QCNU1NAA_3AIHDXCTGPXODBIV2B5ARDIAZR
---True labels       : MERMIROOMUHJPXJOHUVLEORZP3GLOO7AUFDKEFTWEOOALZOP9ROCGZET1Y19EWX65QUYU7NAK_4YCJDVDNGQXODBEV2B5EFDIDNR
---Accuracy: 55.0%
-- Repetition: 4
---Constructed labels: SDMMKMOOGJJJPXJIBUVX7ORZPZGLOOCPUFBKFFT2EOOGLYOU9NOCGZE81Y1KEWQ65Q1MU7NAY63YCJDWCZJPXODBLV2B5ERDLDNL
---True labels       : MERMIROOMUHJPXJOHUVLEORZP3GLOO7AUFDKEFTWEOOALZOP9ROCGZET1Y19EWX65QUYU7NAK_4YCJDVDNGQXODBEV2B5EFDIDNR
---Accuracy: 61.0%
-- Repetition: 5
---Constructed labels: SDMMKMOOMSOJPXJIHUVL6ORZP3GLOOHDIFBKFFTDEOOGLYOP9NOCGZE51Y19EWR65QIMU7NAM_3YCJDWDNGPXODBDV2B5ERDIDTR
---True labels       : MERMIROOMUHJPXJOHUVLEORZP3GLOO7AUFDKEFTWEOOALZOP9ROCGZET1Y19EWX65QUYU7NAK_4YCJDVDNGQXODBEV2B5EFDIDNR
---Accuracy: 71.0%
-- Repetition: 6
---Constructed labels: SERMKMOOMSPJPXJOHUVFBORZP3GLOOIAUFCKFFTVEOOGLZOV9NOCGZE81Y19EWX65Q1MU7NFQ_3YCJDWDNGPXO2BBV2B5EFDIDNR
---True labels       : MERMIROOMUHJPXJOHUVLEORZP3GLOO7AUFDKEFTWEOOALZOP9ROCGZET1Y19EWX65QUYU7NAK_4YCJDVDNGQXODBEV2B5EFDIDNR
---Accuracy: 76.0%
-- Repetition: 7
---Constructed labels: GERMIROOMUPJPXJOGUVFEORZP3GLOOIAUFCKFFTVEOOGLZOP9R1CGZE81Y19EWX65Q1MU7NFK_3SCJDWDNGPXO2BBV2B5ERDIDTR
---True labels       : MERMIROOMUHJPXJOHUVLEORZP3GLOO7AUFDKEFTWEOOALZOP9ROCGZET1Y19EWX65QUYU7NAK_4YCJDVDNGQXODBEV2B5EFDIDNR
---Accuracy: 78.0%
-- Repetition: 8
---Constructed labels: SERMIROOMUPJPXJOHUVFNORZP3GLOOIAUFBKFFTWEOOGLZOP9ROCGZE81Y19EWX65QUMU7NAK_15CKDWDNGQXO2BBV2B5EFDIDTR
---True labels       : MERMIROOMUHJPXJOHUVLEORZP3GLOO7AUFDKEFTWEOOALZOP9ROCGZET1Y19EWX65QUYU7NAK_4YCJDVDNGQXODBEV2B5EFDIDNR
---Accuracy: 83.0%
-- Repetition: 9
---Constructed labels: SERMIROOMUPJPXJOHUVFQORZP3GLOOIAUFBKFFTWEOOGLZOP9ROCGZEP1Y19EWX65QUMU7NAK_45CKDVDNGQXO2BBV2B5EFDIDTR
---True labels       : MERMIROOMUHJPXJOHUVLEORZP3GLOO7AUFDKEFTWEOOALZOP9ROCGZET1Y19EWX65QUYU7NAK_4YCJDVDNGQXODBEV2B5EFDIDNR
---Accuracy: 85.0%
-- Repetition: 10
---Constructed labels: MERMIROOMUPJPXJOHUVFQORZP3GLOOIAUFBKFFTVEOOGLZOP9ROCGZEP1Y19EWX65QUYU7NAK_4YCJDVDNGQXODBEV2B5EFDIDTR
---True labels       : MERMIROOMUHJPXJOHUVLEORZP3GLOO7AUFDKEFTWEOOALZOP9ROCGZET1Y19EWX65QUYU7NAK_4YCJDVDNGQXODBEV2B5EFDIDNR
---Accuracy: 90.0%
-- Repetition: 11
---Constructed labels: MERMIROOMUPJPXJOHUVF9ORZP3GLOOIAUFEKFFTVEOOGLZOP9ROCGZEP1Y19EWX65QUYU7NAK_3YCJDVDNGQXODBEV2B5EFDIDTR
---True labels       : MERMIROOMUHJPXJOHUVLEORZP3GLOO7AUFDKEFTWEOOALZOP9ROCGZET1Y19EWX65QUYU7NAK_4YCJDVDNGQXODBEV2B5EFDIDNR
---Accuracy: 89.0%
-- Repetition: 12
---Constructed labels: MERMIROOMUPJPXJOHUVF9ORZP3GLOOHAUFEKFFTWEOOALZOP9ROCGZE81Y19EWX65QUYU7NAK_3YCJDVDNGQXODBEV2B5EFDIDTR
---True labels       : MERMIROOMUHJPXJOHUVLEORZP3GLOO7AUFDKEFTWEOOALZOP9ROCGZET1Y19EWX65QUYU7NAK_4YCJDVDNGQXODBEV2B5EFDIDNR
---Accuracy: 91.0%
-- Repetition: 13
---Constructed labels: MERMIROOMUPJPXJOHUVF9ORZP3GLOOHAUFFKFFTWEOOALZOP9ROCGZE81Y19EWX65QUYU7NAK_3YCJDVDNGQXODBEV2B5EFDIDTR
---True labels       : MERMIROOMUHJPXJOHUVLEORZP3GLOO7AUFDKEFTWEOOALZOP9ROCGZET1Y19EWX65QUYU7NAK_4YCJDVDNGQXODBEV2B5EFDIDNR
---Accuracy: 91.0%
-- Repetition: 14
---Constructed labels: MERMIROOMUNJPXJOHUVF9ORZP3GLOOHAUFFKFFTVEOOALZOP9ROCGZEP1Y19EWX65QUYU7NAK_3YCJDVDNGQXODBEV2B5EFDIDTR
---True labels       : MERMIROOMUHJPXJOHUVLEORZP3GLOO7AUFDKEFTWEOOALZOP9ROCGZET1Y19EWX65QUYU7NAK_4YCJDVDNGQXODBEV2B5EFDIDNR
---Accuracy: 90.0%
-- Repetition: 15
---Constructed labels: MERMIROOMUNJPXJOHUVFEORZP3GLOO7AUFDKEFTWEOOALZOP9ROCGZEO1Y19EWX65QUYU7NAK_4YCJDVDNGQXOJBEV2B5EFDIDTR
---True labels       : MERMIROOMUHJPXJOHUVLEORZP3GLOO7AUFDKEFTWEOOALZOP9ROCGZET1Y19EWX65QUYU7NAK_4YCJDVDNGQXODBEV2B5EFDIDNR
---Accuracy: 95.0%
==== End classifier: LDA_wyrm